iteration,test-rmse,numKnots,knotLoc,iterations,time,method
0,0.10936997234949644,2,[ 0.90000628 -6.91482805],123,23.567190378002124,Alphaloop
0,0.11538366993041922,3,[ 0.3058569  -0.28153656  0.56651473],30,1.207930429984117,Unconstrained
0,0.08980123895485569,4,[0.69882649 0.30247907 0.02441991 0.90185899],232,6.190489228989463,Constrained
1,0.11383151689454094,2,[-1.32663057  0.95059012],121,21.891978968982585,Alphaloop
1,0.09928899422579171,3,[-0.27018386  0.73174171  0.90152597],256,4.7962336520140525,Unconstrained
1,0.08986605425113091,4,[0.29190805 0.70181077 0.89998178 0.        ],266,6.867457204993116,Constrained
2,0.12196718999700083,1,[-2.26459532],34,4.821275280992268,Alphaloop
2,0.09016032462871104,4,[0.30756098 0.90000262 0.69927774 0.00899696],165,5.415486030018656,Unconstrained
2,0.12196718999700083,1,[6.47357723e-11],20,0.1019786820106674,Constrained
3,0.10843532864497608,3,[ 1.99460345  0.89240537 -0.64094126],127,42.90342311799759,Alphaloop
3,0.12095698041189756,1,[-2.29876874],23,0.10674420298892073,Unconstrained
3,0.08957002716228757,4,[0.89919592 0.31073302 0.69005774 0.0092031 ],157,5.575600657990435,Constrained
4,0.12323002781370883,1,[-1.47091059],10,0.7229026250133757,Alphaloop
4,0.12072952120894147,2,[ 0.23362707 -0.58648829],95,1.1947135420050472,Unconstrained
4,0.12323002781371566,1,[2.45811149e-11],20,0.10350107998237945,Constrained
5,0.12022738126589605,1,[-0.66886328],38,8.36450889299158,Alphaloop
5,0.0965660704524208,3,[-0.63145118  0.90234461  0.73154254],70,2.3934584030066617,Unconstrained
5,0.08882968187054675,4,[0.69917694 0.90134792 0.04379587 0.29945937],186,6.775578547996702,Constrained
6,0.11090116026266063,3,[-0.62047189  1.19828628  0.92260036],174,81.03454560300452,Alphaloop
6,0.09903657635402391,3,[-0.72203078  0.89859622  0.73623984],85,2.415788762999,Unconstrained
6,0.09005201496628082,4,[0.02580403 0.89855604 0.69901436 0.30081831],166,5.233265663002385,Constrained
7,0.10123035962231217,4,[-0.6965768   0.70828369  0.99639928  0.84349394],63,61.519167266989825,Alphaloop
7,0.09057333795463546,4,[-1.00948633  0.69851686  0.31358644  0.89957991],150,5.742100603994913,Unconstrained
7,0.09057347668684827,4,[2.60378023e-04 8.99579870e-01 3.13600914e-01 6.98504532e-01],124,4.77642995401402,Constrained
8,0.12525165839709507,1,[-2.01104863],70,3.059267731005093,Alphaloop
8,0.12247897628389487,2,[-0.058026   0.2366464],33,0.5448759229911957,Unconstrained
8,0.09020275256083672,4,[7.95029103e-04 9.03422700e-01 3.00532864e-01 6.90791914e-01],164,5.052261218021158,Constrained
9,0.11004092262931592,3,[ 0.95379076  0.91501299 -2.97795275],73,23.558944329008227,Alphaloop
9,0.10997224176351365,2,[ 0.92953758 -1.32075972],81,1.0851688249967992,Unconstrained
9,0.09009926951914674,4,[0.89977957 0.0192043  0.29969093 0.70560186],213,6.7387320210109465,Constrained
10,0.11049273645397155,2,[-34.12956212   0.88688176],12,3.8735329949995503,Alphaloop
10,0.12004759388789245,2,[ 0.23091934 -2.34118598],183,2.4079293629911263,Unconstrained
10,0.11011659350386865,2,[9.30585697e-01 7.93042266e-19],9,0.23672609898494557,Constrained
11,0.11007591488173929,2,[-3.14991848  0.88692299],78,12.94661587299197,Alphaloop
11,0.12344677411980452,1,[-3.01740382],107,0.3561099040089175,Unconstrained
11,0.12344677411980452,1,[0.],7,0.028238947998033836,Constrained
12,0.1197842105549766,1,[-1.44435287],22,2.60857670698897,Alphaloop
12,0.09938983620788132,3,[ 0.73557004 -2.18274643  0.90258015],30,1.3938881130015943,Unconstrained
12,0.10851833368188712,3,[0.00100266 0.15563212 0.93173342],52,1.5903319919889327,Constrained
13,0.12346262730370834,1,[-2.03540707],30,1.9090265150007326,Alphaloop
13,0.12346262730370836,1,[-1.99004298],29,0.09326019801665097,Unconstrained
13,0.12136584394091621,2,[2.42834123e-01 2.47800104e-20],23,0.37698380602523685,Constrained
14,0.12530825172015503,1,[-1.78258281],36,2.0909946400206536,Alphaloop
14,0.11085862511488409,2,[ 0.93190795 -0.60064817],36,0.48925601900555193,Unconstrained
14,0.12530825172015578,1,[1.24619204e-11],7,0.06667213499895297,Constrained
15,0.12473466945096975,1,[-1.76118444],38,5.588849136984209,Alphaloop
15,0.11098428512144479,2,[ 0.93081704 -1.08847865],65,0.8799062250182033,Unconstrained
15,0.091858057930778,4,[0.30019522 0.68691423 0.         0.9029891 ],264,7.386882001999766,Constrained
16,0.12063151011108558,1,[-2.11002978],17,0.5516285639896523,Alphaloop
16,0.12063151011108557,1,[-1.98608847],26,0.08426382899051532,Unconstrained
16,0.12063151011160311,1,[1.77467963e-09],7,0.02676817899919115,Constrained
17,0.0962171791910715,3,[-1.91739843  0.85843005 -0.19296321],134,44.73419340600958,Alphaloop
17,0.09721111502603316,3,[-1.47817683  0.73690662  0.89918113],106,3.1628129919990897,Unconstrained
17,0.10922900025289273,3,[3.21199260e-19 9.99824554e-01 9.31493094e-01],78,1.9014932099962607,Constrained
18,0.10082017548107075,3,[ 0.54163096  0.88751306 -0.51222566],53,35.265833390993066,Alphaloop
18,0.11828032363173867,2,[-1.47976117  0.21844315],219,2.773968141991645,Unconstrained
18,0.12054988953809433,1,[1.56704649e-11],20,0.10342280301847495,Constrained
19,0.11160611084296734,2,[-0.61169063  0.92628096],87,19.18785542200203,Alphaloop
19,0.123604070386564,1,[-2.79797689],11,0.07730732101481408,Unconstrained
19,0.09056010125620512,4,[0.30157875 0.69035851 0.90224769 0.01920534],164,5.9342635970097035,Constrained
20,0.09809173798952624,3,[ 0.61018259  0.83177284 -0.50203685],109,52.32645258799312,Alphaloop
20,0.12197561600352197,1,[-0.37764882],13,0.07036841899389401,Unconstrained
20,0.09077508664081307,4,[0.69733507 0.31944548 0.02200247 0.8999771 ],120,4.497842306998791,Constrained
21,0.1116558936040785,2,[ 0.90162071 -1.12741647],48,9.578283404000103,Alphaloop
21,0.09073951016604245,4,[ 0.89958128  0.31826285  0.69933578 -0.02772424],157,5.60831804497866,Unconstrained
21,0.09073975734049496,4,[8.99579775e-01 3.18264765e-01 6.99376744e-01 3.19421599e-20],271,7.970173217006959,Constrained
22,0.12357080917622318,1,[-1.34203019],25,1.812479609012371,Alphaloop
22,0.12357080917622318,1,[-3.98799102],83,0.24816462001763284,Unconstrained
22,0.12357080917622519,1,[4.22029078e-12],20,0.06475672297528945,Constrained
23,0.12306257836670702,1,[-1.57002977],9,1.2103376790182665,Alphaloop
23,0.12042778033386985,2,[ 0.23854043 -0.76720766],37,0.5056665340089239,Unconstrained
23,0.123062578366707,1,[0.],20,0.10350441100308672,Constrained
24,0.10900360378978387,2,[-3.81408988  0.87971102],127,17.244121472991537,Alphaloop
24,0.12175478573933289,1,[-2.20474421],37,0.14334997101104818,Unconstrained
24,0.08912455330689928,4,[7.00940557e-01 7.99188564e-04 9.01151725e-01 2.95948806e-01],135,4.493733788985992,Constrained
25,0.1090526575234919,2,[-0.66582238  0.88630739],142,15.234095594991231,Alphaloop
25,0.11891701206415733,2,[0.90456961 0.63805045],41,0.7359136870072689,Unconstrained
25,0.11891699259500958,2,[0.90456754 0.63804428],37,0.5147812280047219,Constrained
26,0.11043243073996847,2,[-1.24635354  0.93448604],34,13.117668864986626,Alphaloop
26,0.12032279308758384,1,[-0.56723921],24,0.11731343800784089,Unconstrained
26,0.09017830532727943,4,[0.02280962 0.70253792 0.89943933 0.30459263],205,5.300935006001964,Constrained
27,0.10394875414255096,3,[ 0.51714022 -0.53472003  0.90925275],100,51.76353275901056,Alphaloop
27,0.1094938934117861,2,[-0.8995251   0.92938427],68,0.8658290180028416,Unconstrained
27,0.1203438088575968,1,[0.],7,0.06705692000105046,Constrained
28,0.12399648613305081,1,[-8.86713509],31,2.0011833290045615,Alphaloop
28,0.12399648613305081,1,[-0.39888061],13,0.05432394100353122,Unconstrained
28,0.090910785731196,4,[0.69943118 0.89752109 0.01060932 0.31426454],130,4.368717291014036,Constrained
29,0.12025582591324155,1,[-2.3770299],26,1.980018641013885,Alphaloop
29,0.08862868524432356,4,[ 0.30046154  0.69864846 -0.15678744  0.89860825],313,7.369020333018852,Unconstrained
29,0.12025582591324155,1,[0.],7,0.06602305101114325,Constrained
30,0.12480408174035905,1,[-3.29534541],38,4.360649284004467,Alphaloop
30,0.11192492920560917,3,[-0.21168209  1.5056529   0.93215846],169,2.8118077520048246,Unconstrained
30,0.12480408174035905,1,[0.],7,0.06632963800802827,Constrained
31,0.11002832514914718,2,[-1.67953003  0.87599851],35,10.086328309000237,Alphaloop
31,0.1231783797729652,1,[-2.09844411],11,0.07962247901014052,Unconstrained
31,0.08951290268527047,4,[0.30201013 0.89957991 0.69916025 0.02252736],146,4.3081689570099115,Constrained
32,0.12273270169173149,1,[-7.06579971],62,1.0726287889992818,Alphaloop
32,0.12273270169173149,1,[-1.31612869],22,0.07739415401010774,Unconstrained
32,0.09023688456401008,4,[0.6961406  0.30983348 0.9013097  0.00168306],143,4.245566626981599,Constrained
33,0.11124841516600051,2,[-0.60827893  0.91617174],171,34.7308452760044,Alphaloop
33,0.09025991343718506,4,[-0.75795436  0.30041008  0.90447249  0.69851883],187,5.232264560996555,Unconstrained
33,0.09926171425159608,3,[1.82402731e-18 9.04181707e-01 7.47343934e-01],95,1.9452878439915366,Constrained
34,0.11678991994249416,2,[ 0.96838997 -0.57329092],31,8.267233114980627,Alphaloop
34,0.12275482686543326,1,[-2.45735456],21,0.10276923602214083,Unconstrained
34,0.09144737983157511,4,[0.68833736 0.90145518 0.30806148 0.00219722],123,4.925045412994223,Constrained
35,0.10972364738814241,2,[-1.14461007  0.89143602],101,16.941776844993,Alphaloop
35,0.09051043939253484,4,[ 0.89757973  0.705666   -1.45640468  0.30025626],99,3.8569540939934086,Unconstrained
35,0.0904569270555063,5,[0.89706951 0.69480614 0.29986034 0.69593882 0.00927618],263,10.587407769984566,Constrained
36,0.12242900986081696,1,[-1.57434829],10,0.9516073430131655,Alphaloop
36,0.09938112331058392,3,[ 0.73382241  0.90498126 -1.92066702],71,1.7265616560180206,Unconstrained
36,0.09073776626195401,4,[6.92938633e-01 1.74681031e-18 9.04781471e-01 3.08429221e-01],168,5.428070338995894,Constrained
37,0.1152673122097515,2,[-0.57556556  0.96114092],37,15.536772504012333,Alphaloop
37,0.12263395486151257,1,[-3.97800841],85,0.2773281080008019,Unconstrained
37,0.12263395486151313,1,[1.08862919e-12],20,0.06354893901152536,Constrained
38,0.12072823165436503,1,[-1.50635074],33,2.6423432730080094,Alphaloop
38,0.12072823165436503,1,[-2.13367078],84,0.24671919998945668,Unconstrained
38,0.1207282316543687,1,[1.86028415e-11],7,0.027819267997983843,Constrained
39,0.12161111328921725,1,[-1.72857817],154,2.1437713699997403,Alphaloop
39,0.12161111328921725,1,[-0.76608616],34,0.10742077097529545,Unconstrained
39,0.12161111328921725,1,[0.],20,0.06363409198820591,Constrained
40,0.12191279203394506,1,[-1.83347713],11,2.477728591999039,Alphaloop
40,0.09062638002954697,4,[ 0.69949474  0.90104679 -0.02066117  0.30045992],156,4.245925930008525,Unconstrained
40,0.12191279203394506,1,[0.],7,0.06545756800915115,Constrained
41,0.11417855760852084,2,[-0.53815357  0.94397189],50,35.04405645097722,Alphaloop
41,0.09083918171013534,4,[-0.12953612  0.69633982  0.90024633  0.30006664],89,3.5456235659949016,Unconstrained
41,0.0908423091991609,4,[0.00720404 0.69632105 0.90027063 0.30005398],281,6.222747549996711,Constrained
42,0.10061013178131017,3,[ 0.87260571  0.5779128  -0.49578078],155,88.57293135102373,Alphaloop
42,0.1206954979888379,1,[-1.25648651],7,0.05494508901028894,Unconstrained
42,0.12069549798885612,1,[2.80097168e-10],7,0.026975273998687044,Constrained
43,0.11705281750951665,2,[-2.32308626  0.96559312],87,15.854371116991388,Alphaloop
43,0.11113301456540257,2,[-0.6132129  0.9319867],158,1.7700169830059167,Unconstrained
43,0.11113300963948404,2,[4.02036011e-20 9.31986286e-01],67,0.7847562819952145,Constrained
44,0.12087761782327477,1,[-2.03725444],11,1.86116457299795,Alphaloop
44,0.09957204359308598,3,[-0.33031867  0.89909005  0.73594724],147,2.6923113520024344,Unconstrained
44,0.12087761782327498,1,[4.58522109e-13],31,0.13746527300099842,Constrained
45,0.10982025190728462,3,[ 0.92198868 -1.40388315  0.50725546],399,100.14189696300309,Alphaloop
45,0.09076021869289373,4,[ 0.70246403  0.30202948  0.89912945 -0.19921393],156,4.567357312014792,Unconstrained
45,0.09076037358086013,4,[7.02469014e-01 3.02012406e-01 8.99124777e-01 3.84699009e-19],134,4.001616555004148,Constrained
46,0.12063791558007148,1,[-5.15577051],90,1.9480611589970067,Alphaloop
46,0.12063791558007146,1,[-0.48865284],29,0.08990335301496089,Unconstrained
46,0.11610420150678492,2,[0.90256152 0.65079331],37,0.4632192209828645,Constrained
47,0.1247336529914918,1,[-2.02010406],59,2.910703105997527,Alphaloop
47,0.110601693582688,2,[-4.03311198  0.93374499],39,0.48316510100266896,Unconstrained
47,0.09057644106311247,4,[0.03869299 0.90061497 0.69433953 0.3051718 ],86,3.4358028510177974,Constrained
48,0.1266398116161429,1,[-14.27204949],49,7.173215988004813,Alphaloop
48,0.1266398116161429,1,[-0.4104388],13,0.05414580198703334,Unconstrained
48,0.12663981161636237,1,[1.13798493e-09],7,0.02675918600289151,Constrained
49,0.12217747502789349,1,[-1.87592342],34,1.9358417580078822,Alphaloop
49,0.11970624254956823,2,[ 0.2212408  -0.21926569],37,0.47478785799467005,Unconstrained
49,0.11971272617270433,2,[2.16658983e-01 4.81330903e-19],37,0.4939892159891315,Constrained
50,0.10734884519048969,3,[-0.64951891  0.8826495   0.92735928],147,41.54874649300473,Alphaloop
50,0.12025700165104578,1,[-1.29114352],33,0.13177547199302353,Unconstrained
50,0.11767473216604395,2,[2.11630705e-01 3.89901862e-20],51,0.6042492720007431,Constrained
51,0.10294454741575153,3,[ 0.89679174  0.52694293 -0.46650118],229,91.9953599050059,Alphaloop
51,0.10921140766626118,2,[-3.05552422  0.93187941],81,0.8986921629984863,Unconstrained
51,0.09027507789200785,4,[2.75989624e-17 8.99260449e-01 6.97024294e-01 3.06054298e-01],87,3.169444922998082,Constrained
52,0.1058589956996308,3,[-2.11621762  0.49174362  0.90613134],51,63.48117487700074,Alphaloop
52,0.10952142839661924,2,[-0.53937279  0.93377612],40,0.5119462670118082,Unconstrained
52,0.0897744120160279,4,[0.01920194 0.30217059 0.7013677  0.89916829],250,5.761868840985699,Constrained
53,0.1113535760685425,4,[ 1.01466603  2.58741238  0.90425287 -3.45859917],173,68.88645010802429,Alphaloop
53,0.12370660384844719,1,[-1.24368953],22,0.11537059198599309,Unconstrained
53,0.09127552321246529,4,[0.7039411  0.30516168 0.90217943 0.01169762],192,5.310754742007703,Constrained
54,0.12119678265378912,1,[-8.36098206],33,1.0771203619951848,Alphaloop
54,0.09771494970961773,4,[ 0.73294676  0.90232921  0.92977836 -0.10985205],116,3.5685963169962633,Unconstrained
54,0.10739804175184256,3,[9.99903906e-01 2.35768916e-16 9.30582580e-01],134,2.5058524160122033,Constrained
55,0.12175638771807257,1,[-0.84843956],24,6.00691576700774,Alphaloop
55,0.11613318594146348,3,[0.30447761 0.00159963 0.5605813 ],82,2.024207904993091,Unconstrained
55,0.09029472166900733,5,[0.69665796 0.9026191  0.35047687 0.01139821 0.31426182],214,8.984949249017518,Constrained
56,0.09978469745392332,3,[ 0.81187039  0.7520154  -0.52885682],58,51.14515012901393,Alphaloop
56,0.1182289887686889,2,[ 0.23561007 -0.36361703],23,0.3143830199842341,Unconstrained
56,0.10827265879753446,3,[1.66980088e-13 9.34521197e-01 2.14706227e-02],135,2.4283448759815656,Constrained
57,0.11317846863137881,2,[-1.10746094  0.95479096],64,17.630615361005766,Alphaloop
57,0.12297832628187405,1,[-1.30324703],22,0.11397084800410084,Unconstrained
57,0.11904880956382488,2,[0.64031101 0.90305601],9,0.17779903300106525,Constrained
58,0.11023316290322865,2,[ 0.89947218 -0.60911674],89,21.829653114982648,Alphaloop
58,0.12346739818733174,1,[-0.88035119],10,0.07523818599293008,Unconstrained
58,0.09116083829824809,4,[0.69795618 0.01920158 0.29682684 0.89997855],178,5.178414312977111,Constrained
59,0.12281693631419209,1,[-5.29528486],68,5.348376306006685,Alphaloop
59,0.09137761526833761,4,[ 0.90225362 -1.71275184  0.31196159  0.69853527],159,4.5519538020016626,Unconstrained
59,0.0912989352193621,5,[0.9022442  0.69685332 0.41606246 0.         0.2998569 ],205,9.470979886013083,Constrained
60,0.10395397422610823,3,[ 0.73462169 -0.7841306   0.85598228],298,57.020872623019386,Alphaloop
60,0.12106568459660227,1,[-3.12762145],11,0.06935748201794922,Unconstrained
60,0.12106568459660227,1,[0.],7,0.02684313600184396,Constrained
61,0.12314662828881018,1,[-1.54037305],33,2.2127560089866165,Alphaloop
61,0.09916507368542622,3,[-0.31609624  0.72979717  0.899279  ],98,2.15999466899666,Unconstrained
61,0.09077031070001583,4,[0.69614925 0.89869953 0.01920517 0.29726705],249,5.2101113429816905,Constrained
62,0.12134603655352719,1,[-1.47756292],24,1.8511392119980883,Alphaloop
62,0.11854537759206145,2,[-3.13331959  0.19403629],68,0.8033210030116607,Unconstrained
62,0.0996532874700308,3,[0.         0.73438361 0.89997248],26,1.2166724190174136,Constrained
63,0.11065535688239647,3,[ 0.46264854  0.93906611 -0.51616492],63,46.83469525401597,Alphaloop
63,0.12415982578357158,1,[-3.4839227],90,0.27109407700481825,Unconstrained
63,0.12415982578357158,1,[0.],20,0.06204359699040651,Constrained
64,0.11987920939645792,1,[-5.27238261],7,5.501988214004086,Alphaloop
64,0.11987920939645792,1,[-2.18470239],120,0.34558278700569645,Unconstrained
64,0.11987920939645792,1,[0.],7,0.027919419982936233,Constrained
65,0.11635905213487788,2,[  0.96159232 -14.90861655],45,12.994210668985033,Alphaloop
65,0.09019411581226731,4,[ 0.89912169 -0.25610324  0.69834116  0.30467072],116,4.259936930000549,Unconstrained
65,0.09019738629803152,4,[0.89911494 0.         0.69820402 0.30583482],181,4.490100108989282,Constrained
66,0.12322675385643889,1,[-1.17814367],10,1.3188228979997803,Alphaloop
66,0.11825334015667108,3,[-0.37883247  0.55960324  0.30244785],82,1.8907040119811427,Unconstrained
66,0.09062185491556776,5,"[6.72863120e-18 6.96139198e-01 9.01089348e-01 5.96423087e-01
 3.00040574e-01]",343,10.542096205987036,Constrained
67,0.12221844851050286,1,[-1.71033412],40,4.508075446996372,Alphaloop
67,0.09911230638286513,3,[-0.04634973  0.72990853  0.89966539],112,2.2407765919924714,Unconstrained
67,0.08913869957393145,5,[0.02044266 0.29964723 0.7391474  0.89978001 0.70408735],145,10.852939274976961,Constrained
68,0.1118976441354585,3,[-4.15483861  1.86752079  0.94592796],59,36.24568375601666,Alphaloop
68,0.11543275568666157,3,[-0.30643195  0.54030572  0.30605724],46,1.4686222519958392,Unconstrained
68,0.11977437119074173,1,[1.56772928e-11],20,0.09993376198690385,Constrained
69,0.11977601846799969,1,[-1.66526307],43,3.612899615021888,Alphaloop
69,0.10605487420436918,2,[-1.0610379   0.93375486],68,0.7221770659962203,Unconstrained
69,0.10602363604279665,2,[0.         0.93246613],59,0.659484447009163,Constrained
70,0.12335073521473443,1,[-1.56861938],25,2.115946757985512,Alphaloop
70,0.12136024299471718,2,[ 0.21661958 -2.26570614],331,3.540811593993567,Unconstrained
70,0.12335073521473561,1,[2.02263761e-11],20,0.10244034600327723,Constrained
71,0.11136808012326879,3,[ 0.91789403  0.7964487  -0.52808878],115,48.736186199996155,Alphaloop
71,0.12266859189594942,1,[-2.54466447],11,0.06892755400622264,Unconstrained
71,0.09057603551042964,4,[0.31283136 0.02380545 0.90571446 0.69301171],131,4.217641358001856,Constrained
72,0.12381269947899903,1,[-2.14878869],87,8.948928216996137,Alphaloop
72,0.12381269947899903,1,[-2.17362629],10,0.04077878798125312,Unconstrained
72,0.08955946923127031,4,[0.01791567 0.90051115 0.69735845 0.29125984],289,6.871162750991061,Constrained
73,0.1116845097641179,2,[-0.61026774  0.94838687],60,10.858047310990514,Alphaloop
73,0.12177286255808162,1,[-0.68299944],31,0.13016377697931603,Unconstrained
73,0.1174447646160648,3,[0.31584676 0.54918685 0.02365653],120,2.2422573789954185,Constrained
74,0.12187049534288993,1,[-21.76825739],36,4.454821109015029,Alphaloop
74,0.09104008953681386,4,[ 0.69634018 -0.07084286  0.89917958  0.30573559],309,6.791842331003863,Unconstrained
74,0.09104014998516631,4,[8.99177068e-01 1.64088694e-17 6.96345041e-01 3.05700262e-01],133,3.813314747007098,Constrained
75,0.11293986497891575,2,[ 0.9589918  -2.32107186],10,6.02231277799001,Alphaloop
75,0.08980666301394293,4,[0.89968131 0.30091279 0.69965836 0.03320681],188,5.613272710994352,Unconstrained
75,0.09868666968189607,3,[8.99780029e-01 2.82048665e-19 7.35693456e-01],65,1.6602924880280625,Constrained
76,0.12337856282371773,1,[-1.36107736],10,2.4160149870149326,Alphaloop
76,0.11818885118142136,3,[-0.50422442  0.30113642  0.57170684],180,3.1489522070041858,Unconstrained
76,0.12337856282371773,1,[0.],20,0.10190940901520662,Constrained
77,0.11080090857417424,3,[ 1.11841135 -1.19980945  0.92289521],77,37.29637059601373,Alphaloop
77,0.09979922330708348,3,[ 0.72941225 -0.36904264  0.90370571],280,4.472843141993508,Unconstrained
77,0.09077868148051016,4,[0.90313131 0.69633659 0.30446192 0.00093362],173,4.833719696995104,Constrained
78,0.11187196464067145,2,[-0.60427828  0.93775653],52,13.844069535000017,Alphaloop
78,0.10952968091237525,2,[-0.0567609   0.93072074],29,0.41148307698313147,Unconstrained
78,0.10952979103127095,2,[1.67521603e-18 9.30712046e-01],9,0.20705748200998642,Constrained
79,0.12216971074749067,1,[-2.21233292],34,4.33463065099204,Alphaloop
79,0.12216971074749067,1,[-0.14421656],39,0.12161596899386495,Unconstrained
79,0.11050250179520486,2,[4.31862639e-25 9.31163978e-01],149,1.5618475550145376,Constrained
80,0.12501396586467733,1,[-1.89354458],11,1.8751293059904128,Alphaloop
80,0.12501396586467736,1,[-0.22770206],44,0.13440960200387053,Unconstrained
80,0.10927204269426745,3,[2.29236758e-19 1.58647909e-01 9.35911616e-01],94,1.8484452360135037,Constrained
81,0.12189814320631473,1,[-1.35932517],112,3.2527249279955868,Alphaloop
81,0.11944318973197125,2,[ 0.2131015  -0.00569451],48,0.5424060620134696,Unconstrained
81,0.11944318738628242,2,[0.2131022 0.       ],95,1.076270043005934,Constrained
82,0.11268469756626798,2,[ 0.9509902  -0.97333897],25,6.61650701900362,Alphaloop
82,0.09025843009020033,4,[ 0.6999562   0.30353195  0.89998053 -1.1289814 ],209,5.790176848007832,Unconstrained
82,0.09025847518642038,4,[8.99982242e-01 3.03552764e-01 6.99943192e-01 1.92354249e-19],148,4.0902862359944265,Constrained
83,0.11191416646472442,2,[-1.04847118  0.91155788],79,21.081139529007487,Alphaloop
83,0.11112523502399939,2,[-2.48987143  0.92998368],61,0.8401684800046496,Unconstrained
83,0.1111252070534722,2,[9.97119616e-20 9.29985274e-01],9,0.24586302100215107,Constrained
84,0.12192921186212796,1,[-2.86705235],35,4.441351129004033,Alphaloop
84,0.09141530897591771,4,[-0.16565976  0.90092566  0.69933493  0.29980938],111,4.075291710993042,Unconstrained
84,0.09913972950748783,3,[0.         0.73585008 0.90129735],128,2.5294394759985153,Constrained
85,0.11723120830854931,2,[ 0.92209067 -0.04051436],55,16.696355897001922,Alphaloop
85,0.09062342413293761,5,[ 0.90025937 -0.11548223  0.73034905  0.30564906  0.67858337],320,10.816553809010657,Unconstrained
85,0.09054121570814991,4,[0.90132442 0.30443018 0.00159978 0.69869508],155,5.03872432699427,Constrained
86,0.1110041375348315,2,[ 0.92779839 -0.6090325 ],58,15.994832530006533,Alphaloop
86,0.09898017346639908,4,[ 1.90492001  0.73837556 -0.22371981  0.89857996],120,3.649026259983657,Unconstrained
86,0.12396372297964738,1,[0.],21,0.10387582299881615,Constrained
87,0.1198509885780658,1,[-2.03342175],8,3.449273587000789,Alphaloop
87,0.11761236031759466,2,[-1.38449881  0.20244956],24,0.330717534001451,Unconstrained
87,0.1198509885780658,1,[0.],20,0.10307085799286142,Constrained
88,0.10056587035193723,3,[ 0.78158164 -1.88688993  0.77510607],87,42.55758346497896,Alphaloop
88,0.11825007754123504,2,[0.63152595 0.9049811 ],30,0.4842328730155714,Unconstrained
88,0.1182501373099371,2,[0.63152106 0.90498152],37,0.5388733230065554,Constrained
89,0.12020064050133147,1,[-2.33193927],33,3.1008282779948786,Alphaloop
89,0.12020064050133146,1,[-3.58686929],33,0.10091367797576822,Unconstrained
89,0.09136498404664051,4,[0.69769229 0.90008169 0.04988649 0.29626832],246,6.248617803998059,Constrained
90,0.10956034861282977,3,[-0.68196181  0.88504631  4.57965313],108,26.679643331997795,Alphaloop
90,0.12290747888234721,1,[-7.407694],22,0.10122368301381357,Unconstrained
90,0.09824750675873598,3,[9.03962192e-01 3.86612172e-19 7.35561702e-01],98,1.7540124710067175,Constrained
91,0.11368596241749358,3,[-1.36457495  1.79121328  0.94211994],118,62.88603161202627,Alphaloop
91,0.12154521532324616,1,[-2.40603208],123,0.3851380519918166,Unconstrained
91,0.12154521532325063,1,[1.35561562e-11],23,0.07158943399554119,Constrained
92,0.12189631347539974,1,[-1.562721],26,2.8909804810245987,Alphaloop
92,0.1169351370485683,2,[0.64530544 0.90390779],178,2.0129448150109965,Unconstrained
92,0.11693520612110742,2,[0.64529636 0.90391535],31,0.42930654899100773,Constrained
93,0.11785664970888403,2,[ 0.98339668 -1.50371915],13,3.282851430994924,Alphaloop
93,0.11990672800674045,1,[-24.42059311],26,0.11665508398436941,Unconstrained
93,0.09044123090386476,4,[9.01188360e-01 6.96362242e-01 1.55867068e-19 3.00242146e-01],135,4.800345608993666,Constrained
94,0.10045595749804241,3,[ 0.76709594  0.69042133 -6.95889518],111,65.39419300900772,Alphaloop
94,0.11853264879593968,2,[0.64493831 0.9044513 ],76,0.9172739369969349,Unconstrained
94,0.11853850691564369,2,[0.64429443 0.9045166 ],9,0.22420595801668242,Constrained
95,0.09917756462259975,3,[ 0.78047469 -1.00134001  0.70251184],162,54.25207802199293,Alphaloop
95,0.12331034387375292,1,[-1.78674817],29,0.11875977201270871,Unconstrained
95,0.09137640532775967,4,[0.69881985 0.89933771 0.29725973 0.009407  ],112,4.124989143019775,Constrained
96,0.11409556438532463,2,[ 0.95061    -0.63997816],81,25.583064765000017,Alphaloop
96,0.12270177664567293,1,[-0.44109995],27,0.12146852500154637,Unconstrained
96,0.08958015077806399,4,[0.90103148 0.3014568  0.00093463 0.69773955],171,4.492434815008892,Constrained
97,0.1132807589701924,2,[ 0.92293663 -1.20199134],36,11.66340710199438,Alphaloop
97,0.11130126842344741,2,[ 0.93139175 -0.88622332],130,1.4321091669844463,Unconstrained
97,0.09145069425584684,4,[9.00023815e-01 2.91377026e-01 6.92148384e-01 8.02566480e-04],7,2.049942206009291,Constrained
98,0.11103972446046761,2,[-4.80972022  0.91100587],142,33.466338112019,Alphaloop
98,0.09986481447269666,4,[-2.81832834  0.90318356  4.23496835  0.73369643],105,3.5860409579763655,Unconstrained
98,0.11469215317617974,3,[8.37608797e-21 3.01458088e-01 5.64781037e-01],102,2.232794855022803,Constrained
99,0.12338875933185078,1,[-12.09413973],37,2.884715339023387,Alphaloop
99,0.09872752168286233,4,[ 3.32807414  0.90152061  0.73894576 -4.92862334],69,4.075381913979072,Unconstrained
99,0.08891700680915442,7,"[0.89858293 0.87698    0.69613988 0.00967087 0.29576648 0.66637136
 0.11143527]",509,32.01695788599318,Constrained
