iteration,method,test-rmse,numKnots,knotLoc,iterations,time
34,Nelder-Mead,0.10021374510606817,6,[0.2467633  0.11584178 0.1967304  0.59804797 0.49714179 0.88226929],428,1.2003810739843175
98,SLSQP,0.09904492974505257,6,[0.82682561 0.25630389 1.20425393 0.5861124  0.19347819 0.47409566],117,0.5285565590020269
34,gradient,0.1003115272011323,6,[0.24671574 0.05236318 0.19623518 0.59929163 0.49676752 0.88188518],141981,925.7254205989884
32,pso,0.0861802840855282,7,"[0.8202034  0.61616013 0.26573477 0.48352502 0.38852432 0.97575728
 0.19360122]",1001,5.8291151280282065
32,diffev,0.08364401780919757,10,"[0.36222259 0.47614171 0.96510755 0.24120778 0.87987208 0.33904431
 0.1946557  0.00527218 0.61407232 0.97594433]",3540,19.61745342297945
