iteration,method,test-rmse,numKnots,knotLoc,iterations,time
67,Nelder-Mead,0.1485894514252594,7,"[0.6461276  0.43500607 0.62128206 0.64611593 0.41979387 0.16939081
 0.90745353]",546,2.848184554022737
28,SLSQP,0.15177872692051397,5,[0.17421572 0.41470424 0.90898135 0.46113473 0.48631318],339,0.9955108850263059
28,gradient,0.149354601838867,3,[-0.01465935  0.00066643  0.65063589],24109,51.175163022009656
28,pso,0.14643874849229213,10,"[0.51909458 0.36757583 0.59679932 0.34504927 0.79917541 0.66358494
 0.44601914 0.18135739 0.58279596 0.77899877]",1001,15.505175464903004
28,diffev,0.15073601470558212,3,[0.90826744 0.54203703 0.1506417 ],441,0.9334496750961989
