iteration,method,test-rmse,numKnots,knotLoc,iterations,time
0,Nelder-Mead,0.09042990119006855,5,[0.92866526 0.89386013 0.71014995 0.33140091 0.00570833],824,2.5196784019935876
0,SLSQP,0.09100122117768006,4,[ 0.30678969  0.9045423  -0.03415059  0.71034261],243,0.5552420399617404
0,gradient,0.09098499561178157,4,[0.30680139 0.9043841  0.00656522 0.71047013],38063,131.61408007505815
0,pso,0.09081747106216037,6,[0.30539718 0.85401075 0.85563783 0.02786264 0.68558608 0.90775184],1001,9.111672310042195
0,diffev,0.09101704991637752,5,[0.01608336 0.30762444 0.69632801 0.90417278 0.68636037],1469,6.740844510961324
1,Nelder-Mead,0.09130793527815143,8,"[0.30243546 0.66286195 0.83565848 0.93692234 0.04296913 0.93791783
 0.88034888 0.6364554 ]",554,7.044550222926773
1,SLSQP,0.12476001091592638,1,[-2.4342106],134,0.12335719901602715
1,gradient,0.0910576443158503,4,[0.31891576 0.89811637 0.03496578 0.70332649],35206,98.10132295789663
1,pso,0.09092917281312796,7,"[0.33694183 0.89209572 0.47187084 0.11145931 0.13655496 0.69962904
 0.09479698]",1001,11.391374852973968
1,diffev,0.09045925373691079,5,[0.70345323 0.33563269 0.89815279 0.11146864 0.04943655],1455,6.977560241008177
2,Nelder-Mead,0.09406541198499242,6,[0.89471939 0.17448238 0.68311849 0.65680221 0.34680171 0.04233173],349,2.3641603370197117
2,SLSQP,0.12445511849511348,2,[0.89718957 0.66853842],64,0.10953991499263793
2,gradient,0.09388281913909657,6,[0.93853743 0.10603923 0.89463776 0.69845156 0.33574833 0.06014665],241489,1174.3360419149976
2,pso,0.09319026480028425,7,"[0.68399759 0.00156583 0.30242637 0.17849648 0.89523179 0.80081839
 0.65804828]",1001,11.358596935053356
2,diffev,0.09394070005976861,6,[0.89578631 0.32098578 0.60894186 0.10573958 0.69563281 0.0603068 ],1676,9.828370518051088
3,Nelder-Mead,0.09381776598139077,5,[0.00922369 0.69015173 0.30072402 0.98733102 0.89619075],258,1.0229885129956529
3,SLSQP,0.09379707201196398,4,[0.02134283 0.89707946 0.30104284 0.68967945],110,0.4446597950300202
3,gradient,0.10236816830538419,3,[-0.15772928  0.89769104  0.72628797],41237,82.4320575640304
3,pso,0.09148520222106257,9,"[0.31870224 0.70529616 0.01747556 0.08992332 0.55690628 0.54462748
 0.11549925 0.74376001 0.89712956]",1001,16.48852180596441
3,diffev,0.09280819123730445,5,[0.90432952 0.3009283  0.69119847 0.87321407 0.01822529],1637,6.542419731034897
4,Nelder-Mead,0.09460949822568006,4,[ 0.71953428  0.30689762  0.90275302 -0.09977146],212,0.7763177030719817
4,SLSQP,0.10381746213711276,3,[-0.40909316  0.78135881  0.89507998],117,0.3089994399342686
4,gradient,0.10391717242251033,3,[-0.02536213  0.89496958  0.78335022],45698,77.85461188293993
4,pso,0.09404220459293686,6,[0.0062716  0.7077209  0.66032096 0.30817802 0.89355541 0.22558147],1001,9.10241817694623
4,diffev,0.09454958982214419,5,[0.33569864 0.10981246 0.71708342 0.90298798 0.03819286],1399,6.460326052037999
5,Nelder-Mead,0.09365470973562524,5,[0.8934355  0.79053041 0.69718262 0.00345251 0.30706949],342,1.8233492659637704
5,SLSQP,0.09362058149754088,9,"[ 0.80667169  1.11741098 -0.11369713  0.28872614  0.2140329   0.28844744
  0.7094209   0.89244332  0.98195941]",527,3.6568401409313083
5,gradient,0.09405640398312003,5,[0.89468803 0.66821408 0.75195002 0.00346544 0.30723458],81533,298.18067332496867
5,pso,0.09330783696123644,7,"[0.86781902 0.68580593 0.90310858 0.74327607 0.33021006 0.02628335
 0.12034485]",1001,11.38094474398531
5,diffev,0.09348341665260931,7,"[0.00764222 0.1148547  0.69261453 0.89448242 0.76058654 0.28765322
 0.29059288]",2361,15.628203040920198
6,Nelder-Mead,0.11498042233145264,2,[-0.05235393  0.92903497],116,0.23327742191031575
6,SLSQP,0.11498015792960083,2,[-0.8250809  0.9290631],52,0.10507394396699965
6,gradient,0.09063901351341294,5,[0.03570559 0.33171622 0.89228807 0.7130144  0.12345914],70351,281.31957692699507
6,pso,0.09055369674784926,8,"[0.71139635 0.04282513 0.81214323 0.48875478 0.9144851  0.22896223
 0.87423671 0.30266498]",1001,13.77729246695526
6,diffev,0.09137210390202366,9,"[0.35364746 0.87405766 0.4339072  0.72139295 0.92281499 0.58378974
 0.16553433 0.52698856 0.02182682]",1963,26.082676457008347
7,Nelder-Mead,0.09153790755803878,5,[0.10308091 0.09165423 0.89485016 0.71744108 0.2993514 ],435,1.7439181529916823
7,SLSQP,0.09277418765062873,4,[-0.06108729  0.71862655  0.89595358  0.24455954],152,0.48119691002648324
7,gradient,0.09244082232830986,4,[-0.00464017  0.71829402  0.89588451  0.25688109],21960,95.75336915801745
7,pso,0.09105684205084763,8,"[0.86848011 0.12083869 0.32996049 0.72277992 0.89694657 0.08047748
 0.42281197 0.6968232 ]",1001,13.768108114949428
7,diffev,0.09217689941046721,5,[0.71867868 0.27075906 0.89572717 0.10302569 0.09322079],2183,7.40648023004178
8,Nelder-Mead,0.11670344146106015,2,[-0.01267129  0.93409274],145,0.26538144203368574
8,SLSQP,0.13455794211573383,1,[-0.64593478],37,0.039825744926929474
8,gradient,0.1167034066820044,2,[-0.0561027   0.93409166],24224,31.26773498894181
8,pso,0.09370681274115554,5,[0.03919508 0.63637726 0.63035918 0.90963542 0.23117184],1001,7.18185008992441
8,diffev,0.09205665067234482,5,[0.6681382  0.90525717 0.6061156  0.21842392 0.0350438 ],1798,7.275936210993677
9,Nelder-Mead,0.13004579875121577,2,[0.66312762 0.89701716],210,0.29806075303349644
9,SLSQP,0.13004567078959986,2,[0.66315242 0.89700761],46,0.10780005506239831
9,gradient,0.13004602108302915,2,[0.66312452 0.89700591],17326,23.06627854704857
9,pso,0.09588095561675294,5,[0.27019966 0.05795884 0.89301859 0.67134107 0.81757058],1001,7.141448209062219
9,diffev,0.09488616736861938,5,[0.89108029 0.04015252 0.69751551 0.30135222 0.84019115],1693,5.77252676198259
10,Nelder-Mead,0.09136955773735649,5,[0.70812503 0.89446508 0.30755378 0.17269175 0.01544293],243,2.1345622709486634
10,SLSQP,0.12374630269204114,1,[-1.94260148],124,0.11466902191750705
10,gradient,0.09135384796059594,5,[0.70793993 0.89442314 0.31506033 0.17273364 0.01546875],153162,398.8566703629913
10,pso,0.09125427951639695,8,"[0.2728592  0.02170372 0.7292216  0.29233926 0.29828047 0.88932833
 0.60059665 0.34924561]",1001,13.762208334053867
10,diffev,0.09163430354232499,6,[0.89475859 0.01602491 0.17268351 0.30729623 0.63614017 0.68249125],1940,12.582134969998151
11,Nelder-Mead,0.09455290453615142,4,[ 0.29976671  0.89613107  0.70191081 -0.12626326],220,0.7632385489996523
11,SLSQP,0.12798496524555772,1,[-2.07400837],35,0.03631312109064311
11,gradient,0.09455236798903378,4,[ 0.89613581  0.70192272  0.29975379 -0.63313625],82911,186.43764968705364
11,pso,0.09515755508452792,8,"[0.29685742 0.01595059 0.66635085 0.46615796 0.85973911 0.88523522
 0.63943084 0.55617102]",1001,13.763295689946972
11,diffev,0.09496832585969356,8,"[0.89212754 0.07533635 0.43157022 0.63887526 0.06041528 0.30403713
 0.66286995 0.83165883]",2186,19.494872040930204
12,Nelder-Mead,0.09185215395338597,7,"[0.72562849 0.89638763 0.63300085 0.30688231 0.72562855 0.51376123
 0.02686805]",415,4.299129039049149
12,SLSQP,0.12488727488027511,3,[ 0.43319162  0.40347931 -0.3814047 ],47,0.18584160006139427
12,gradient,0.09290630175047727,6,[0.7126425  0.42444987 0.40520243 0.89552847 0.21220461 0.040392  ],652759,2282.158805740997
12,pso,0.0914443757311989,14,"[0.7758446  0.71545879 0.0418611  0.32520938 0.16886618 0.63550253
 0.40048187 0.4246292  0.88892224 0.79693261 0.05978762 0.49765442
 0.74968697 0.86471518]",1001,77.4023808289785
12,diffev,0.09201138416343582,7,"[0.31229483 0.6338878  0.74707579 0.77068034 0.03310362 0.89507438
 0.71763095]",3477,16.694494805997238
13,Nelder-Mead,0.11126255667852754,2,[0.92952576 0.00255984],134,0.2340601549949497
13,SLSQP,0.11126586763025502,2,[ 0.92961223 -1.04895656],51,0.10761113802436739
13,gradient,0.1238380841893893,1,[-0.16614519],367,0.4256751610664651
13,pso,0.09342640716189804,6,[0.11915212 0.68568918 0.07401278 0.95182407 0.3133311  0.92414258],1001,9.156070103985257
13,diffev,0.09176175233357318,4,[0.69748343 0.0057682  0.90826904 0.29735088],1368,3.6263084090314806
14,Nelder-Mead,0.11805351976365615,2,[ 0.92323984 -0.62219209],116,0.2335415850393474
14,SLSQP,0.10532916283986253,3,[ 0.76886349 -0.43468827  0.88796296],199,0.36088248004671186
14,gradient,0.09658261655036819,4,[ 0.30663901  0.88986517 -0.00911858  0.71857229],42128,120.06152993091382
14,pso,0.09614781121215978,7,"[0.79709754 0.49388709 0.31614299 0.00919137 0.68889927 0.8888032
 0.66760245]",1001,11.291739058913663
14,diffev,0.09642152026736774,6,[0.843856   0.57972283 0.30669795 0.7095862  0.01277975 0.88774113],2171,10.06667962402571
15,Nelder-Mead,0.1127782342759701,2,[ 0.92340103 -0.07254444],139,0.2628940819995478
15,SLSQP,0.12710134747951368,1,[-1.21665914],7,0.0158468330046162
15,gradient,0.11277825468530807,2,[ 0.92340078 -0.05225519],16329,22.080478315008804
15,pso,0.09217332342922317,5,[0.71959864 0.89879418 0.46430413 0.22475682 0.08827103],1001,7.120513068046421
15,diffev,0.09132701613458476,4,[0.26286954 0.89925562 0.71522695 0.02253144],1209,3.754469836014323
16,Nelder-Mead,0.0912152008209495,4,[0.01670115 0.30053384 0.90552003 0.70625503],290,0.855822662007995
16,SLSQP,0.12619433883082873,1,[-0.19197635],32,0.03549347503576428
16,gradient,0.09106115828551674,9,"[0.10050875 0.68431817 0.01750245 0.10432588 0.35738655 0.15001298
 0.90578934 0.18985965 0.6364902 ]",165428,1533.3532146910438
16,pso,0.0909680554732533,6,[0.02136784 0.40844739 0.69862747 0.57495447 0.35365489 0.90055701],1001,9.054133823956363
16,diffev,0.09158925464554632,9,"[0.93113304 0.8654971  0.02161943 0.36213199 0.94818858 0.84989015
 0.6967123  0.4491169  0.19239438]",1503,23.365042228018865
17,Nelder-Mead,0.09286736293725747,5,[0.71703642 0.03704232 0.90901085 0.86397228 0.3000517 ],278,1.6418515959521756
17,SLSQP,0.12344598768063722,2,[0.89524178 0.68050464],52,0.11259806097950786
17,gradient,0.09284505016339527,7,"[0.71115204 0.864558   0.02570931 0.90909253 0.3169216  0.57697057
 0.05439223]",136246,1349.8779376230668
17,pso,0.09290841959757982,6,[0.36761342 0.7097439  0.72442044 0.44377081 0.01474681 0.89384663],1001,9.10114846599754
17,diffev,0.09231672504238463,9,"[0.07007674 0.08553209 0.90911817 0.90141246 0.04226272 0.44942286
 0.8637441  0.71740868 0.32723336]",1955,24.43300879804883
18,Nelder-Mead,0.1141372459205728,2,[0.92953698 0.01476335],98,0.19114148104563355
18,SLSQP,0.10200464656278459,3,[ 0.75707835  0.89903972 -0.98382399],86,0.29257945204153657
18,gradient,0.09362870011727327,6,[ 0.72571516  0.89881224  0.33613769 -0.05629886  0.10577721  0.47171374],74455,540.5775904209586
18,pso,0.09405413132898323,4,[0.07260445 0.72273116 0.26573653 0.90120541],1001,5.408381990971975
18,diffev,0.09411389450656048,7,"[0.64260145 0.67281654 0.33657586 0.05540838 0.90198543 0.48223656
 0.04418033]",1801,14.133721249061637
19,Nelder-Mead,0.08832061387278971,5,[ 0.32521793  0.71145299  0.89911614  0.12441409 -0.02225145],231,1.336605530930683
19,SLSQP,0.08855562620778877,5,[ 0.41496802  0.71254889  0.89924578 -0.1239821   0.33605283],67,0.5657532649347559
19,gradient,0.1002470526358074,3,[-0.43459403  0.76392964  0.89846523],51482,86.6757016449701
19,pso,0.0887953212021388,7,"[0.58018812 0.39478841 0.68489326 0.04597762 0.54278629 0.90107497
 0.34900447]",1001,11.372543307952583
19,diffev,0.0882660560315497,6,[0.89906482 0.30770063 0.73952952 0.75636143 0.72080334 0.0183827 ],1620,10.062208837014623
20,Nelder-Mead,0.10362462001490223,3,[-0.00993405  0.77194966  0.89488062],319,0.676025275955908
20,SLSQP,0.09320949258392766,4,[-0.58326891  0.30184919  0.89833976  0.71674942],195,0.5677669510478154
20,gradient,0.10351387862248738,3,[-0.02115956  0.76969043  0.89509761],34961,57.45067522698082
20,pso,0.0931606164380806,6,[0.88281939 0.0190238  0.37645989 0.27274776 0.90256608 0.71786513],1001,9.134200882050209
20,diffev,0.09246763149710766,9,"[0.69789789 0.90819927 0.02464407 0.31057878 0.52936338 0.58538946
 0.78681997 0.06558422 0.87319348]",1908,22.96431032207329
21,Nelder-Mead,0.11633392557097362,2,[0.0050144  0.93013239],103,0.23916885198559612
21,SLSQP,0.11521370816894723,4,[-0.66834097  1.67797434  0.10581191  0.93262321],70,0.34200836601667106
21,gradient,0.130011978667879,1,[-0.207346],367,0.38814781594555825
21,pso,0.09715255703806719,4,[0.43369308 0.69877003 0.02278213 0.89632356],1001,5.431199781014584
21,diffev,0.09296751828308843,7,"[0.64834368 0.43527074 0.66872592 0.89370565 0.28502723 0.02390976
 0.44074679]",2343,16.563033976010047
22,Nelder-Mead,0.09072461676143719,4,[0.03979661 0.31962995 0.89529816 0.69850003],218,1.060057940077968
22,SLSQP,0.1014763281152205,3,[-0.34907013  0.8929118   0.77289988],71,0.20550379191990942
22,gradient,0.09035387794927892,6,[0.04007222 0.32840733 0.89478843 0.5933344  0.5003123  0.69728071],202358,641.2785921220202
22,pso,0.09009276839847485,9,"[0.03254232 0.69731425 0.94504714 0.69230468 0.45814716 0.30897886
 0.89093095 0.50756036 0.554086  ]",1001,16.45301764109172
22,diffev,0.09057378540364706,5,[0.69930593 0.89811013 0.03986003 0.3458306  0.34533363],1462,6.330784963094629
23,Nelder-Mead,0.09383961134687224,5,[0.66969781 0.66968775 0.30086117 0.89224615 0.02730871],464,1.6894011709373444
23,SLSQP,0.09305010973172212,5,[0.89230186 0.71031857 0.3034981  0.48114764 0.02761543],237,0.9642555620521307
23,gradient,0.09323542727444124,6,[0.83312695 0.29711201 0.88920616 0.64905278 0.67401202 0.02725864],138831,562.6947319160681
23,pso,0.09413220351634362,5,[0.68818467 0.25830276 0.59782566 0.01324266 0.88953157],1001,7.079383158939891
23,diffev,0.09404210248180371,10,"[0.68051669 0.10782432 0.88787448 0.15045547 0.81391508 0.30659246
 0.63663547 0.5239254  0.82862017 0.09976278]",2251,51.08129152096808
24,Nelder-Mead,0.10930934964112028,3,[0.12275127 0.02900608 0.9332191 ],191,0.5339892209740356
24,SLSQP,0.10933073450805807,3,[0.12319914 0.01015902 0.93347371],64,0.22947833698708564
24,gradient,0.10929615558923249,3,[0.12257729 0.03694307 0.93323713],19769,73.28851805406157
24,pso,0.08997877760673378,5,[0.89392457 0.66375092 0.31807751 0.70074959 0.02174067],1001,7.118837488000281
24,diffev,0.08930099323603394,6,[0.72751874 0.05829682 0.69150739 0.32320699 0.71562763 0.90026653],1644,10.769949938054197
25,Nelder-Mead,0.09607035508099945,5,[0.71191047 0.01052708 0.35350567 0.52168788 0.89663351],589,2.0328572900034487
25,SLSQP,0.10418436928347444,3,[ 0.89515665  0.75477004 -0.00974827],79,0.25042039004620165
25,gradient,0.095793848286577,5,[0.7110039  0.01507607 0.35338337 0.47304924 0.89646269],88033,302.25360173301306
25,pso,0.09531813539017454,5,[0.05769023 0.33030098 0.70317197 0.89631881 0.03733711],1001,7.10417492990382
25,diffev,0.09421619785789186,12,"[0.7209362  0.98846408 0.31214166 0.69260423 0.30661173 0.42351028
 0.1840208  0.18088339 0.3338499  0.2841437  0.01638927 0.89633932]",1777,88.81742221303284
26,Nelder-Mead,0.09264592206954764,4,[0.30141587 0.90726407 0.02609377 0.71354452],395,1.1530932110035792
26,SLSQP,0.09210755256172973,6,[ 0.696266    0.53599356  0.90732119  0.31915375  0.56492464 -0.06775211],349,1.5273081900086254
26,gradient,0.09439402405497618,8,"[0.58402382 0.92030321 0.87730257 0.19904056 0.17677595 0.03569736
 0.71714136 0.61381507]",214323,1428.7990458820714
26,pso,0.09382796336958832,4,[0.01203931 0.70896803 0.9110216  0.37560048],1001,5.41731059900485
26,diffev,0.09283860863689038,5,[0.03924599 0.31919571 0.19724111 0.90750167 0.71472151],1805,6.651098260073923
27,Nelder-Mead,0.09222429213563398,5,[0.69725716 0.02576022 0.90478785 0.29896878 0.63443258],248,1.3008564920164645
27,SLSQP,0.1377346263133547,1,[-0.71395555],8,0.014816650073044002
27,gradient,0.1377346263133547,1,[-0.04178135],5613,4.761828533024527
27,pso,0.09487569512834668,4,[0.0895001  0.90928805 0.66943684 0.31195106],1001,5.388675433001481
27,diffev,0.09323629237710204,6,[0.30031204 0.03086422 0.91966856 0.68566026 0.95356516 0.71076887],1660,10.037213284056634
28,Nelder-Mead,0.09232233916570089,5,[ 0.66074723  0.66072428  0.25731468  0.90263424 -0.51438007],605,2.1395714218961075
28,SLSQP,0.1256197566366727,2,[ 0.20025084 -0.119633  ],42,0.07760253001470119
28,gradient,0.09345993251717566,4,[0.25754559 0.90239693 0.00533971 0.69760479],41527,155.51816885801964
28,pso,0.09099193877324302,10,"[0.29896963 0.2553658  0.90704606 0.04774259 0.20549121 0.062296
 0.66799817 0.62330876 0.29010544 0.36985926]",1001,27.61833954497706
28,diffev,0.0908140834230246,10,"[0.1086282  0.04301119 0.15067289 0.09507119 0.79004748 0.68981115
 0.07026538 0.19967599 0.89436066 0.57574538]",2049,44.93094266101252
29,Nelder-Mead,0.09546157414245644,4,[0.88692299 0.71919603 0.29896489 0.01679809],269,1.112618678016588
29,SLSQP,0.125764885616083,1,[-1.71443486],8,0.014157593017444015
29,gradient,0.09514279118588179,7,"[0.66922382 0.71121051 0.29953864 0.75884362 0.88637438 0.68523107
 0.01810677]",306165,1107.3991336670006
29,pso,0.09503172754357501,6,[0.32912706 0.02904852 0.72409397 0.27213033 0.88911384 0.3963741 ],1001,9.159796888008714
29,diffev,0.0952885422295555,8,"[0.78725537 0.71803144 0.01649001 0.22995668 0.2128885  0.88564992
 0.29669106 0.42539359]",2091,20.952368124970235
30,Nelder-Mead,0.11491344114936893,2,[0.00330033 0.92970888],138,0.22601075493730605
30,SLSQP,0.11491765246543476,2,[-0.02759563  0.92970317],66,0.12156424694694579
30,gradient,0.11491770689072019,2,[-0.00408773  0.92970403],18326,27.97533894504886
30,pso,0.09167701455013304,4,[0.71423931 0.33106084 0.0438548  0.89520158],1001,5.384359064977616
30,diffev,0.0918367817456716,6,[0.35321629 0.0181875  0.11113144 0.8944433  0.7112006  0.35643698],2028,10.358537044026889
31,Nelder-Mead,0.10340066549953866,3,[ 0.7384073  -0.04196044  0.89472715],169,0.5104249409632757
31,SLSQP,0.13008969390404598,1,[-2.79139355],7,0.018623918993398547
31,gradient,0.13008969390404598,1,[-0.08404712],855,0.840514943934977
31,pso,0.09467459419102522,5,[0.26484413 0.88452165 0.66346988 0.63786607 0.04066736],1001,7.1715980229200795
31,diffev,0.0928379090399545,6,[0.6417903  0.89481348 0.10549776 0.04002585 0.66544897 0.30536983],1662,8.926401757984422
32,Nelder-Mead,0.13060224613831456,3,[0.02584224 0.30157686 0.53462892],220,0.4855824050027877
32,SLSQP,0.1163454585999057,2,[-0.58325511  0.93094332],125,0.17328880494460464
32,gradient,0.1306022458042168,3,[0.02586812 0.30159969 0.53462938],26162,53.44437587005086
32,pso,0.09486344297820641,4,[0.02357428 0.72875336 0.28755828 0.9001069 ],1001,5.384435461019166
32,diffev,0.09450023543115767,10,"[0.10569592 0.09743618 0.84420654 0.89366469 0.59025356 0.42454432
 0.24432307 0.69876211 0.4000776  0.03719176]",2059,46.19969850999769
33,Nelder-Mead,0.11718986276716695,2,[-0.31630491  0.92768812],140,0.30115181603468955
33,SLSQP,0.1171697997508433,2,[-0.30383763  0.92846929],132,0.17861376609653234
33,gradient,0.11719438151644611,2,[0.01541843 0.92767563],15331,23.686445830971934
33,pso,0.09482345914679564,4,[0.31880342 0.04281349 0.71229641 0.90232542],1001,5.363375914981589
33,diffev,0.09504077949717159,5,[0.63727244 0.695824   0.8941359  0.00192383 0.3107137 ],1516,6.327516819932498
34,Nelder-Mead,0.0963191658856294,4,[0.89571361 0.00345586 0.3025154  0.69694103],427,1.273880454013124
34,SLSQP,0.11471048849292291,2,[ 0.92143592 -0.35934811],169,0.23988825094420463
34,gradient,0.1147116423896661,2,[ 0.92142131 -0.01732845],24859,31.74975815403741
34,pso,0.09573637723380922,5,[0.80156336 0.32819892 0.69342454 0.89356116 0.01698883],1001,7.103622630937025
34,diffev,0.09520195712995375,9,"[0.69662843 0.18098995 0.10901381 0.15270452 0.32109347 0.89863322
 0.09714252 0.95152699 0.74364376]",1987,24.93286309100222
35,Nelder-Mead,0.09266575170908986,5,[0.96266291 0.90884698 0.69764162 0.3181425  0.02226082],281,1.8118396650534123
35,SLSQP,0.12747941026430726,2,[0.61183128 0.90918456],13,0.08220059995073825
35,gradient,0.09267080126929658,5,[0.71890107 0.90431382 0.58637845 0.32008531 0.02235496],82076,297.49872133892495
35,pso,0.09240387436204667,8,"[0.71405769 0.05192326 0.41826645 0.43113124 0.04743578 0.423893
 0.90249699 0.11405649]",1001,13.715857548988424
35,diffev,0.09256168245596363,4,[0.90484841 0.69797881 0.0220267  0.31902133],1218,3.3905338241020218
36,Nelder-Mead,0.10224424154477296,3,[ 0.90502245 -0.03123048  0.75381607],149,0.4694243170088157
36,SLSQP,0.11809095773052684,2,[ 0.93134365 -2.51679401],27,0.07019427500199527
36,gradient,0.1022408794573723,3,[0.90766998 0.00270708 0.73283464],28812,62.89479684201069
36,pso,0.09239901783120387,5,[0.05205112 0.19629751 0.91605285 0.95246425 0.70388219],1001,7.126810917980038
36,diffev,0.09138367045422313,4,[0.03700956 0.90730371 0.22484092 0.70508219],1158,3.1795675170142204
37,Nelder-Mead,0.09295005586524213,8,"[ 0.19356799  0.89603109 -0.05826579  0.62801992  0.71146728  0.41802926
  0.50983681  1.91793384]",580,6.197278950014152
37,SLSQP,0.12201514594806792,1,[-1.05136994],10,0.015072735026478767
37,gradient,0.11565096180936861,2,[0.00284832 0.9274538 ],12882,19.610848546028137
37,pso,0.0922230244667602,9,"[0.53563567 0.06277208 0.09922631 0.89648828 0.23936689 0.69796654
 0.38284135 0.0565971  0.70283177]",1001,16.413939828053117
37,diffev,0.0935482427891919,6,[0.48568135 0.10614898 0.39499408 0.0737664  0.71864056 0.89643036],1596,10.310349564999342
38,Nelder-Mead,0.12327834637755887,1,[0.00374173],95,0.1037871859734878
38,SLSQP,0.12327866959438447,1,[-1.88882509],42,0.043195412028580904
38,gradient,0.09165095690447697,4,[0.71944086 0.02206992 0.89846902 0.30215417],50856,177.53730007994454
38,pso,0.09205734650621011,6,[0.30915848 0.33103907 0.73351429 0.02763217 0.89580192 0.26694323],1001,9.155612814007327
38,diffev,0.09202561792941484,5,[0.72509859 0.09136217 0.89563458 0.30484665 0.10641698],1007,5.817783319973387
39,Nelder-Mead,0.12979244427076983,1,[0.00263672],71,0.08510473207570612
39,SLSQP,0.11646047208041585,3,[ 1.         -1.30994384  0.92894998],76,0.1587017560377717
39,gradient,0.09168955134284575,4,[0.89901971 0.01654072 0.30176126 0.71297094],94798,209.41593441006262
39,pso,0.09154828288859082,5,[0.09752831 0.33258261 0.01931258 0.70332604 0.8989156 ],1001,7.129068610956892
39,diffev,0.09172005849104792,4,[0.02603342 0.30107379 0.71327895 0.8990427 ],1314,4.005067404010333
40,Nelder-Mead,0.09359763754939901,5,[0.67881125 0.89813668 0.69509345 0.32385703 0.00589891],240,1.3302512438967824
40,SLSQP,0.0936601465125856,6,[ 0.89877822  0.68162208 -0.72014514  1.55736874  0.68153059  0.32080125],189,1.0601951270364225
40,gradient,0.09348143766093632,5,[ 0.80258773  0.89739582  0.70787628  0.32268861 -0.11012768],131510,620.5272724350216
40,pso,0.09421974557852104,6,[0.08442027 0.90131158 0.49404778 0.11199733 0.69996981 0.32939914],1001,9.13015402003657
40,diffev,0.09345216178411435,4,[0.70849552 0.32387371 0.01496929 0.89816557],1200,3.2914835800183937
41,Nelder-Mead,0.09357649893849226,5,[0.04118461 0.10683753 0.34414968 0.69677855 0.89497459],435,2.03354951296933
41,SLSQP,0.13233027868119882,2,[-0.2290955   0.14301436],61,0.11217768990900367
41,gradient,0.09358043527684072,5,[0.04113935 0.11018295 0.34464871 0.69677065 0.89497548],44371,244.97948039707262
41,pso,0.09372035164539047,5,[0.90937836 0.03620254 0.69019633 0.11561555 0.35213068],1001,7.142681478988379
41,diffev,0.093875024810505,7,"[0.10488636 0.0217514  0.92177108 0.69765231 0.3453759  0.10312724
 0.87570916]",2226,15.050488729961216
42,Nelder-Mead,0.09193517310498837,4,[0.30840958 0.89772311 0.01713792 0.70832915],728,1.5264406880596653
42,SLSQP,0.12805610437780396,2,[ 0.66772959 -0.04525133],10,0.03555957705248147
42,gradient,0.09207149132405755,6,[0.69612064 0.62554853 0.48549528 0.0216861  0.89741669 0.33403847],80559,608.0508857329842
42,pso,0.09215978785552226,5,[0.70479251 0.004184   0.27960987 0.31202023 0.90474356],1001,7.129241262911819
42,diffev,0.0920111523722634,8,"[0.28765358 0.02685825 0.45014224 0.59316217 0.90071424 0.20972894
 0.69669553 0.2889877 ]",1676,19.896959124016576
43,Nelder-Mead,0.09248956843118825,4,[0.30112541 0.04043026 0.70368614 0.90316912],321,0.9481821829685941
43,SLSQP,0.09252819722582281,5,[ 0.30628842  0.69743977 -0.29874093  0.90354652  1.02314809],277,1.002481703995727
43,gradient,0.09230779319732799,4,[ 0.30573605 -0.0162731   0.70669929  0.89883929],55217,209.7566622439772
43,pso,0.09255785794304458,6,[0.32103759 0.00108575 0.52566487 0.90659355 0.69596339 0.6231356 ],1001,9.106570209027268
43,diffev,0.09262489699430587,5,[0.04834778 0.06350877 0.90329905 0.31841344 0.69740099],1413,6.0176840770291165
44,Nelder-Mead,0.10214088029353847,3,[-0.12609061  0.90464867  0.74713273],150,0.42896787903737277
44,SLSQP,0.12253821465770816,2,[-0.98504196  0.16997465],117,0.17267763300333172
44,gradient,0.11188239664897459,3,[0.04775892 0.92852685 0.10939116],23629,53.169606553041376
44,pso,0.09136220868782607,6,[0.01895404 0.27363551 0.69039057 0.90507294 0.85335433 0.62655004],1001,9.075675084954128
44,diffev,0.09176493805483964,6,[0.30186395 0.72272372 0.91406844 0.01945037 0.94654796 0.71337242],2316,10.686869523022324
45,Nelder-Mead,0.09340514504822087,4,[0.89559501 0.04073886 0.30089569 0.71859567],294,0.9472591490484774
45,SLSQP,0.11297433794705251,2,[ 0.92755741 -0.28898643],98,0.15216697799041867
45,gradient,0.09358614259870225,4,[0.89559203 0.04018268 0.31691015 0.71731359],59581,147.39724029705394
45,pso,0.09327904906092835,5,[0.72733886 0.04600124 0.10252045 0.89624342 0.30272647],1001,7.20656406506896
45,diffev,0.09277322142011928,8,"[0.03554895 0.72477284 0.03286709 0.22886034 0.89579124 0.06712303
 0.33568903 0.48123323]",2106,19.46163483907003
46,Nelder-Mead,0.09116000833792881,7,"[0.03879313 0.52068975 0.89861764 1.11143513 0.3354966  0.71534201
 0.17284308]",1180,6.5643918990390375
46,SLSQP,0.09121461766601148,7,"[0.03825567 0.52125342 0.89675973 0.93484909 0.33527794 0.7125417
 0.19518241]",506,2.3541285450337455
46,gradient,0.10053154679291695,3,[0.00321056 0.90347135 0.73597097],46418,88.12370921205729
46,pso,0.09119872547666198,5,[0.89927008 0.70705829 0.03702879 0.33677876 0.20121105],1001,7.1440256860805675
46,diffev,0.09127392194131685,9,"[0.02620423 0.59294461 0.5550636  0.90308663 0.72076566 0.75226271
 0.75549241 0.17263192 0.33545902]",1597,25.009689016034827
47,Nelder-Mead,0.09529732905028675,5,[0.00431025 0.8661259  0.72435589 0.26342898 0.91836252],394,2.0197282099397853
47,SLSQP,0.11661209952832505,2,[-0.18967881  0.9365438 ],69,0.13560230797156692
47,gradient,0.0940690652066575,5,[0.01450272 0.96875658 0.71979509 0.26316407 0.90635728],64756,261.14379859692417
47,pso,0.09524765079317757,5,[0.71275308 0.02199065 0.91253589 0.41339764 0.26561595],1001,7.130830202950165
47,diffev,0.09510968974046344,4,[0.0047254  0.7192273  0.26219657 0.90898278],1416,4.32001310097985
48,Nelder-Mead,0.09350702244259625,6,[ 0.88732631  0.92945197  0.72045739 -0.04543771  0.90499377  0.308606  ],285,1.9693264460656792
48,SLSQP,0.11389075737346929,2,[ 0.93323317 -0.26632377],50,0.0947069430258125
48,gradient,0.09347653435216517,8,"[0.90425911 0.51300547 0.04574866 0.2928753  0.2852506  0.23589744
 0.71210011 0.11790931]",300548,1576.1340545630082
48,pso,0.09412217463017462,5,[0.17011165 0.90007892 0.70901513 0.37904795 0.0277362 ],1001,7.145623574964702
48,diffev,0.09415308633942383,5,[0.71535921 0.3489271  0.90441221 0.11038447 0.05021313],1462,5.982121638953686
49,Nelder-Mead,0.11252702775600044,2,[0.92342046 0.0150364 ],78,0.17654862301424146
49,SLSQP,0.11248052896248466,2,[ 0.92341268 -0.27510617],50,0.10572327801492065
49,gradient,0.11248034349255995,2,[ 0.92341679 -0.67912796],32120,38.74642061104532
49,pso,0.09354318814434479,6,[0.31373108 0.16899362 0.88903114 0.10177882 0.09891685 0.71803876],1001,9.140039268066175
49,diffev,0.09213831362036577,11,"[0.69627326 0.9351623  0.33459405 0.04684492 0.88019487 0.63685535
 0.81781119 0.50854535 0.94191777 0.16893954 0.60223233]",2068,70.60180542001035
50,Nelder-Mead,0.09371817104387369,5,[0.04333853 0.8929534  0.30757057 0.71603197 0.30757285],540,1.697385858045891
50,SLSQP,0.09409369089416278,5,[0.04944732 0.89299592 0.33606468 0.71254055 0.20050285],359,1.3182234339183196
50,gradient,0.0937735836991173,4,[0.04272367 0.71292538 0.29635505 0.89305874],308057,516.4234633629676
50,pso,0.09496871580449663,4,[0.07406798 0.89245576 0.71875741 0.26310664],1001,5.396017616963945
50,diffev,0.09442450195038554,5,[0.10428912 0.29948242 0.09999553 0.89287299 0.71643555],2050,7.94232331297826
51,Nelder-Mead,0.12174765832164365,2,[0.66295173 0.89774987],172,0.261527355061844
51,SLSQP,0.10130474181605609,3,[ 0.76406338 -1.33871739  0.8942821 ],83,0.2147325329715386
51,gradient,0.12174664564763447,2,[0.66297889 0.89776356],10885,17.800520110991783
51,pso,0.09341987966148672,10,"[0.29666515 0.65674486 0.893382   0.43295995 0.28640763 0.27406573
 0.06302587 0.50468339 0.06542384 0.72859546]",1001,24.503649209043942
51,diffev,0.09362113672354257,5,[0.07970536 0.71221795 0.03214799 0.31935829 0.89538354],1693,6.5127169989282265
52,Nelder-Mead,0.09307798277775418,5,[0.89615324 1.14858663 0.30313214 0.72434036 0.00618577],321,1.467502552899532
52,SLSQP,0.09306109894801816,4,[ 0.89625444  0.30305356  0.72380259 -1.02889582],170,0.4939190889708698
52,gradient,0.093437822938559,5,[0.89056634 0.71823671 0.30272744 0.85089815 0.02223007],87490,322.8402908509597
52,pso,0.09371893973430671,7,"[0.04394254 0.81468405 0.57109214 0.30213086 0.72189108 0.89010019
 0.54245461]",1001,11.337211882928386
52,diffev,0.0933190807719274,6,[0.89066977 0.61085216 0.30145863 0.850974   0.02199924 0.71252145],1628,9.446636139997281
53,Nelder-Mead,0.09394401319342026,5,[0.30078964 0.9055153  0.06449424 0.03345112 0.71099762],299,1.498351218062453
53,SLSQP,0.13290271860209077,1,[-1.37469227],32,0.03415662597399205
53,gradient,0.09410865722979539,4,[-0.07520485  0.9054943   0.71076878  0.29928679],38966,125.68751797196455
53,pso,0.0931029595361697,9,"[0.2598178  0.90551252 0.37611771 0.70077214 0.00692659 0.32408878
 0.51843626 0.5687764  0.75016161]",1001,16.447850333992392
53,diffev,0.0939228685459491,7,"[0.69662883 0.90533253 0.42943477 0.41901049 0.68618853 0.29087453
 0.01557714]",1794,13.74623376398813
54,Nelder-Mead,0.10182360546791042,3,[-0.0845613   0.89876405  0.7571006 ],205,0.5198076639790088
54,SLSQP,0.10182249656137585,3,[-0.51507567  0.89883086  0.75681663],61,0.19119637901894748
54,gradient,0.1019267142021253,3,[-0.017743    0.90087851  0.75520344],33275,61.84466404595878
54,pso,0.09262368827069169,4,[0.31487223 0.0350305  0.69420965 0.90119436],1001,5.35827204096131
54,diffev,0.0927489099595847,9,"[0.60302732 0.00906847 0.33548167 0.908559   0.5099984  0.55040085
 0.71921607 0.54527111 0.95566207]",1398,25.989446616033092
55,Nelder-Mead,0.09312319609175886,6,[ 0.680704    0.95376741  0.90869799  0.3018294  -0.12147513  0.67381212],377,2.616915329010226
55,SLSQP,0.10214062050995382,3,[ 0.75021302  0.90313941 -0.14575106],194,0.37822789303027093
55,gradient,0.09272542054571946,10,"[0.71120647 0.16387179 0.01655902 0.87418721 0.26738209 0.40854709
 0.90528086 0.16687725 0.25115063 0.60833354]",230821,5503.318087199004
55,pso,0.09370307284972919,8,"[0.6330788  0.38130012 0.46968256 0.07658997 0.74158562 0.6512322
 0.90132675 0.0288418 ]",1001,13.709441143088043
55,diffev,0.09237656406323698,9,"[0.97916937 0.02141364 0.90406463 0.18046506 0.68537097 0.43911636
 0.29819819 0.6288207  0.44136824]",2118,25.436793422908522
56,Nelder-Mead,0.09258345143713304,5,[0.90891975 0.72660986 0.72661588 0.29704097 0.01994672],615,1.8991539259441197
56,SLSQP,0.09187220340601407,8,"[0.92124691 0.06829867 0.67528385 0.33433921 0.12230674 0.76815261
 0.0171704  0.87910031]",191,2.4740278760436922
56,gradient,0.09162187385694492,8,"[0.85434727 0.04860417 0.69439243 0.35055386 0.13608398 0.91062299
 0.06206763 0.85432939]",427853,1932.2088241180172
56,pso,0.09359663197467781,5,[0.04770332 0.67679347 0.31053896 0.01735092 0.91093928],1001,7.159551197080873
56,diffev,0.09172748720928268,8,"[0.69800696 0.35730491 0.01687515 0.91106789 0.86461255 0.43669876
 0.10720146 0.85018438]",1976,21.293849437031895
57,Nelder-Mead,0.1107804078614852,2,[-0.00799399  0.92842636],144,0.24436840100679547
57,SLSQP,0.11078041324181855,2,[-2.13973663  0.92845306],77,0.12845693295821548
57,gradient,0.09152123217907367,4,[-0.00727169  0.71284304  0.26320299  0.89070579],59433,135.35583125206176
57,pso,0.09073065045199143,9,"[0.05484928 0.30281881 0.65475301 0.65980347 0.28457625 0.48830775
 0.58584234 0.07268609 0.89145538]",1001,16.559145096107386
57,diffev,0.09026638997455114,7,"[0.30665315 0.92843262 0.61086537 0.70092779 0.88373604 0.06406761
 0.05643644]",1822,14.633303529000841
58,Nelder-Mead,0.08994294551181294,9,"[0.69621906 0.10416279 0.03521308 0.58451361 0.27332648 0.10404339
 0.89847312 0.37973587 0.44661171]",951,11.576042713946663
58,SLSQP,0.09001887848828609,8,"[ 0.92085944  0.89855246  0.35019667  0.67586734  0.12291582  0.43795945
  0.67364077 -0.26086604]",381,2.7333394390298054
58,gradient,0.08991652055136821,8,"[0.8980631  0.9753886  0.30244826 0.69613723 0.15674034 0.49636293
 0.58595694 0.02397608]",204324,1832.4708444710122
58,pso,0.09218490876091218,4,[0.08872097 0.72172997 0.89746188 0.24816379],1001,5.431111266952939
58,diffev,0.08981242299863339,7,"[6.11032193e-04 6.96163648e-01 5.83943339e-01 8.98566816e-01
 6.21636379e-01 4.50161121e-01 3.05573684e-01]",1207,13.595168109051883
59,Nelder-Mead,0.09182222407182654,5,[0.89883844 0.02133364 0.30053693 0.4198656  0.69711614],465,1.5180267039686441
59,SLSQP,0.09178070666903924,8,"[0.89808387 0.03868491 0.24956178 0.65986973 0.2145125  0.29942631
 0.93319777 0.66203549]",212,2.394689478096552
59,gradient,0.0929231475225333,5,[0.89915459 0.01679949 0.33527939 0.60958627 0.66712241],179685,463.71316000202205
59,pso,0.09188248750902595,5,[0.69503363 0.33330976 0.90060244 0.00305724 0.50005548],1001,7.177839330979623
59,diffev,0.09191050626449927,7,"[0.21446557 0.89808139 0.66312824 0.28814262 0.64658294 0.02806299
 0.28901512]",1576,15.19920125999488
60,Nelder-Mead,0.10474203708402839,3,[0.00288494 0.74913895 0.90440618],203,0.482361554983072
60,SLSQP,0.12752083137893847,1,[-1.10861423],10,0.02273981599137187
60,gradient,0.09494574586233925,6,[0.17308838 0.35020858 0.48592466 0.72015334 0.90461851 0.00350513],197731,1752.7235593490768
60,pso,0.09545968881769953,9,"[0.11706189 0.74963227 0.00730939 0.40323504 0.77452123 0.84631916
 0.75614479 0.44135216 0.89634473]",1001,16.352629709988832
60,diffev,0.09383965702946429,9,"[0.33996638 0.44638518 0.10651945 0.34066848 0.420706   0.71982654
 0.02592199 0.84525231 0.90178658]",2313,27.40930763806682
61,Nelder-Mead,0.10462873502343895,3,[ 0.90284923 -0.02463293  0.75695696],185,0.6044809969607741
61,SLSQP,0.12586479666049002,1,[-0.37287184],11,0.018050980055704713
61,gradient,0.09384512226413512,4,[ 0.71760082  0.32669382 -0.05107268  0.90305823],53263,153.0374285329599
61,pso,0.09519120902084578,4,[0.08145477 0.31325736 0.71778299 0.90245018],1001,5.412324254983105
61,diffev,0.09447247618754799,6,[0.09789732 0.71119213 0.90304938 0.33137722 0.60281878 0.10422293],1900,10.60190783906728
62,Nelder-Mead,0.09690047035402188,5,[0.26759832 0.6491051  0.02072978 0.89745338 0.6714616 ],736,2.3778398180147633
62,SLSQP,0.12745568695833695,1,[-1.14795978],85,0.09226823202334344
62,gradient,0.09623810157777381,5,[0.33664284 0.3613774  0.02688049 0.89595658 0.71990143],52492,227.14918600802775
62,pso,0.09587398919296021,13,"[0.50474977 0.54094271 0.36927996 0.39595128 0.66628462 0.8975135
 0.5210638  0.18682044 0.72392004 0.34657477 0.57883769 0.03305683
 0.75481953]",1001,62.87670932698529
62,diffev,0.09667613599904691,9,"[0.89535832 0.64951276 0.33197462 0.66238113 0.03257981 0.789949
 0.95654994 0.58343688 0.51691783]",1685,28.092817910015583
63,Nelder-Mead,0.09219444320063912,6,[0.0232588  0.88353006 0.92355453 0.63721697 0.68363692 0.30153106],573,2.631684481049888
63,SLSQP,0.1215631226490322,1,[-0.09208766],21,0.025495143025182188
63,gradient,0.09128708720116961,4,[0.03710498 0.89755057 0.7107239  0.30230702],109699,269.40130412904546
63,pso,0.09269635576707326,4,[0.89556756 0.71786006 0.09047151 0.27442216],1001,5.3900630889693275
63,diffev,0.09246384465239499,5,[0.29867221 0.90686095 0.03648312 0.67682353 0.63810463],2600,8.062837252975442
64,Nelder-Mead,0.08959633581179509,4,[0.89523933 0.71547773 0.30759291 0.01637681],703,1.4943746350472793
64,SLSQP,0.08941723696321877,4,[ 0.89844444  0.70816638  0.31918984 -0.45813329],225,0.6860039519378915
64,gradient,0.08962206076196652,6,[0.76324757 0.68274378 0.89500372 0.61045595 0.01096529 0.30298429],169326,753.5881224810146
64,pso,0.08914078373127328,8,"[0.31438424 0.89794634 0.52214496 0.6959007  0.01165268 0.7018713
 0.79569798 0.5463058 ]",1001,13.749229231965728
64,diffev,0.08963940032871509,5,[0.64935034 0.01183949 0.30546271 0.67133856 0.89996432],1441,5.951637958991341
65,Nelder-Mead,0.09031117560920719,5,[ 0.71563775 -0.0012826   0.36046777  0.89406644  0.36044055],299,1.68380008591339
65,SLSQP,0.09908879338717232,3,[-0.12607176  0.77194265  0.89178286],106,0.27706612506881356
65,gradient,0.09034486512770709,8,"[0.89427406 0.04283931 0.35603222 0.71668435 0.01091168 0.06884782
 0.10589409 0.52088809]",176481,1820.0737459240481
65,pso,0.0913720263881861,5,[0.83133596 0.02801511 0.35027634 0.89113249 0.70421463],1001,7.197704994934611
65,diffev,0.08930639659051522,8,"[0.02278423 0.70812912 0.30436229 0.94753525 0.33478162 0.8274964
 0.93449838 0.8673756 ]",2666,22.01246545498725
66,Nelder-Mead,0.09296367006569084,5,[0.18384743 0.02537765 0.71242271 0.33581507 0.89814943],599,1.8454774230485782
66,SLSQP,0.09312140632214554,7,"[ 0.11719909  0.88638364  0.70313878  0.33148976 -0.09327386  0.90905748
  0.58307879]",194,1.4898718589683995
66,gradient,0.11487686927278565,2,[0.00402893 0.93288672],17508,39.901926320046186
66,pso,0.09311556368853055,6,[0.01528505 0.47241887 0.33378508 0.57064381 0.90568038 0.70753325],1001,9.147586942068301
66,diffev,0.0931221290915765,7,"[0.33774024 0.89805881 0.43574169 0.57543747 0.69412688 0.69524778
 0.0044278 ]",1535,13.314867120003328
67,Nelder-Mead,0.09143144144030681,4,[0.90529953 0.0213786  0.69647202 0.32681424],406,1.0322974460432306
67,SLSQP,0.09117950138583326,5,[0.9051453  0.30780882 0.68973266 0.02134034 0.60045379],127,0.7760452899383381
67,gradient,0.09046236613745752,7,"[0.74401664 0.69385204 0.90565032 0.02145667 0.58325949 0.54833556
 0.3278937 ]",194647,1162.775465618004
67,pso,0.09112600278799318,5,[0.90666771 0.69380569 0.03480671 0.29905816 0.75171408],1001,7.143378893961199
67,diffev,0.09174288608118764,5,[0.04919261 0.69681157 0.90564097 0.06413802 0.33532308],1588,6.403419047943316
68,Nelder-Mead,0.10175222929503017,3,[-0.12192646  0.89874496  0.73080239],103,0.44344608194660395
68,SLSQP,0.11439851363145126,2,[ 0.92339532 -3.96183673],68,0.10651622293516994
68,gradient,0.09368693885476008,4,[0.89757383 0.33582763 0.7083249  0.03823128],54616,133.47945523704402
68,pso,0.0927029609783114,6,[0.75570376 0.01325856 0.72366239 0.32991836 0.8358905  0.89653899],1001,9.115758782019839
68,diffev,0.0947401379002033,6,[0.20575408 0.70814167 0.90394234 0.08363816 0.87217299 0.39770577],1868,9.59341156494338
69,Nelder-Mead,0.09126329142295653,8,"[ 0.89510333  0.69721861  0.77857613  0.47404093  0.30472789 -0.16378183
  0.80154347  0.58206244]",678,8.066495573963039
69,SLSQP,0.0933824172965689,5,[ 0.89947691  0.20847624  0.68234704 -1.38886835  0.60699471],141,0.8333310360321775
69,gradient,0.09143089600114097,12,"[0.89882044 0.29285735 0.10494171 0.55962914 0.10396832 0.28127526
 0.41038252 0.48142097 0.07069962 0.58399989 0.00791775 0.69297071]",342193,15063.53297648509
69,pso,0.09123652116448988,12,"[0.4510235  0.04707073 0.90266648 0.20528252 0.71474435 0.14308409
 0.21520968 0.37459349 0.73130928 0.57782728 0.17169104 0.42783393]",1001,41.98650275194086
69,diffev,0.09226670998456976,8,"[0.10550265 0.3008436  0.09727792 0.47671291 0.25454697 0.90003872
 0.57902013 0.68393923]",2106,20.669309040997177
70,Nelder-Mead,0.09333038258157451,4,[0.72054264 0.89871322 0.01716128 0.29978795],285,1.0939893019385636
70,SLSQP,0.09318701022915446,6,[ 0.73864722  0.73791947  0.30346944 -0.14240968  0.89835107  0.4362293 ],406,1.4584381880704314
70,gradient,0.09315211818165091,7,"[0.89866521 0.30611193 0.31097175 0.71334257 0.02408004 0.52400241
 0.57701324]",152592,1344.4244915220188
70,pso,0.09344076788505008,7,"[0.72729332 0.39386514 0.11474536 0.86644779 0.31710218 0.89403132
 0.03377372]",1001,11.323341900948435
70,diffev,0.09300732890159463,9,"[0.02529396 0.86933904 0.52348739 0.68583794 0.55165922 0.30423419
 0.83280158 0.89194435 0.86505841]",1739,23.312540343031287
71,Nelder-Mead,0.09938025173530528,3,[ 0.89776042  0.73233175 -0.01225696],150,0.43574326508678496
71,SLSQP,0.09105417624335205,4,[0.89764621 0.69696502 0.28021758 0.0062231 ],203,0.7763013129588217
71,gradient,0.09957551636951412,3,[0.8982214  0.72618172 0.00385161],23750,58.319126036949456
71,pso,0.08988475091538342,5,[0.04558245 0.31318833 0.35910414 0.89915202 0.71176943],1001,7.144613130018115
71,diffev,0.090147856475603,6,[0.04772543 0.89505277 0.84439664 0.29539234 0.69758661 0.06994012],1876,9.584648079006001
72,Nelder-Mead,0.11194331392308006,2,[-0.10714688  0.92162895],158,0.29210885404609144
72,SLSQP,0.12466583740818993,1,[-2.74148313],7,0.011794100049883127
72,gradient,0.12307295133525006,2,[0.55644126 0.91014004],13607,20.69634675292764
72,pso,0.09277829330814083,6,[0.62378017 0.32769892 0.9056562  0.01313956 0.46482308 0.70083701],1001,9.133749068947509
72,diffev,0.0928443920121303,8,"[0.71259103 0.88971953 0.02535524 0.30964775 0.55631779 0.88646717
 0.95754468 0.57762249]",2516,19.93901521002408
73,Nelder-Mead,0.10987852737305771,2,[-0.0651984   0.92917293],90,0.21447504102252424
73,SLSQP,0.10987846965296946,2,[-1.78989524  0.92926413],38,0.08289806905668229
73,gradient,0.10987503147908598,2,[0.00328272 0.92917159],10432,16.213813705020584
73,pso,0.09297479311806697,6,[0.71947253 0.09881701 0.10533108 0.89928634 0.67055834 0.30115516],1001,9.0339565849863
73,diffev,0.09358564439579804,5,[0.89809904 0.29829111 0.26604846 0.71751628 0.01537538],1350,5.436619276064448
74,Nelder-Mead,0.1153502987401148,3,[0.10576683 0.93288032 0.04321735],142,0.40931828401517123
74,SLSQP,0.09349946219065092,5,[-0.4236341   0.69639674  0.30675647  0.89786941  1.70602332],122,0.8296980379382148
74,gradient,0.11535003049953103,3,[0.10577578 0.93283741 0.04318801],19410,43.245340915978886
74,pso,0.09388325042582081,5,[0.8894846  0.69720482 0.52804378 0.29174358 0.00489398],1001,7.163639735081233
74,diffev,0.09242682212118898,9,"[0.40930283 0.67421445 0.04304961 0.8982448  0.17649697 0.62217903
 0.72621666 0.11277017 0.31576255]",2412,26.078565753996372
75,Nelder-Mead,0.09419811969805683,6,[0.02623625 0.58542854 0.68342957 0.51837447 0.33518489 0.90705838],845,3.39663053303957
75,SLSQP,0.10222205276573859,4,[ 0.9062125   1.07872214  0.7430126  -0.737677  ],193,0.5163335260003805
75,gradient,0.1003223440227332,4,[ 0.58326073  0.90693393  0.67499455 -0.46818806],136934,276.7622437250102
75,pso,0.09413693581229196,6,[0.90648272 0.3149709  0.52438696 0.03359386 0.68350783 0.59849844],1001,9.094949025078677
75,diffev,0.09497992449526362,10,"[0.15112321 0.63615742 0.0960198  0.6693     0.11684822 0.92096223
 0.30044176 0.85265509 0.86756407 0.11949194]",2099,45.463933413033374
76,Nelder-Mead,0.11546396986345168,2,[ 0.92502685 -0.08579657],123,0.2786428000545129
76,SLSQP,0.10065566682866503,3,[ 0.89896431  0.74924965 -1.37753416],76,0.2439852129900828
76,gradient,0.11546336189793921,2,[0.92501707 0.00268886],15604,21.93010587093886
76,pso,0.09279300982286215,4,[0.9048527  0.03454923 0.69435724 0.29774953],1001,5.346614460926503
76,diffev,0.09243533018798984,4,[0.89928299 0.70930262 0.00715201 0.29379619],1122,3.1594797739526257
77,Nelder-Mead,0.11300034800245226,2,[-0.03177912  0.92463995],143,0.24066086602397263
77,SLSQP,0.09297688006528351,5,[-0.58243274  0.6962022   0.82926349  0.90114673  0.30939941],320,1.0137765039689839
77,gradient,0.0928719644414154,4,[0.01724584 0.69756886 0.3049367  0.90274951],93294,209.86821115994826
77,pso,0.09344674369525532,5,[0.67399128 0.66153408 0.90776652 0.03372768 0.32652028],1001,7.119789976044558
77,diffev,0.09294494261344735,4,[0.69746904 0.30390749 0.90237592 0.03382472],1290,3.491328879026696
78,Nelder-Mead,0.09338806603001404,10,"[0.18397321 0.38778865 0.58952288 0.11731477 0.00739376 0.15302106
 0.69696832 0.50431894 0.58952258 0.90126223]",1163,16.70288359792903
78,SLSQP,0.1183829569566781,2,[ 0.92514292 -2.02665   ],35,0.12156078196130693
78,gradient,0.09375504977261484,5,[ 0.33813743  0.7244243  -0.14239149  0.89943519  0.48775263],70532,231.71714283293113
78,pso,0.0938570363195388,4,[0.01254131 0.27453443 0.71349381 0.90170665],1001,5.37594680103939
78,diffev,0.09361664082840077,7,"[0.06196991 0.69694097 0.34351414 0.06273264 0.59190106 0.52073082
 0.90271899]",2298,16.50423212395981
79,Nelder-Mead,0.11837718748726701,2,[-0.06497662  0.92370762],130,0.26261316798627377
79,SLSQP,0.11837645228364937,2,[-0.21199683  0.92371776],81,0.12825831898953766
79,gradient,0.1183779855891616,2,[0.00418662 0.92370641],11339,15.526316348928958
79,pso,0.09459157383095318,8,"[0.69288304 0.36073324 0.52190625 0.58672935 0.02364342 0.37379247
 0.90658586 0.24602948]",1001,13.734847299056128
79,diffev,0.0948165713776874,5,[0.01644601 0.60621686 0.89880444 0.69147039 0.30045388],1357,5.29408072703518
80,Nelder-Mead,0.09390765754899603,8,"[0.49187224 0.08702868 0.33608823 0.01905195 0.59825242 0.08702866
 0.69724638 0.90138043]",834,6.751222476013936
80,SLSQP,0.13284765535098106,1,[-3.87485092],31,0.03153344988822937
80,gradient,0.10336042776669709,3,[-0.00421437  0.75645285  0.89899947],21096,54.98553159099538
80,pso,0.09541884892056914,4,[0.70746401 0.90618496 0.28186411 0.04951457],1001,5.358328534988686
80,diffev,0.09378706516070666,12,"[0.89302717 0.16757248 0.85906256 0.09255672 0.94951126 0.19647423
 0.7006724  0.16939896 0.9359195  0.62373356 0.10690107 0.30256302]",1335,94.59487158502452
81,Nelder-Mead,0.09401516189832565,7,"[ 0.90003592  0.71141351  0.2216095   0.43630839  0.10649603  0.33196128
 -0.07894551]",284,3.289107162039727
81,SLSQP,0.10370326757019918,3,[ 0.74623072  0.9008116  -0.03600763],76,0.2018180909799412
81,gradient,0.10366432092491117,3,[0.7458868  0.90019672 0.00338816],38702,69.63461029098835
81,pso,0.0943577882528601,4,[0.02035508 0.29005959 0.9057701  0.71184117],1001,5.349527970072813
81,diffev,0.0941269329414101,6,[0.71613743 0.43708886 0.86400597 0.33118379 0.00472276 0.90326956],2628,10.829949401086196
82,Nelder-Mead,0.0900800068890397,5,[0.69716502 0.89674775 0.33587916 0.04114499 0.62868964],279,1.668562305974774
82,SLSQP,0.1314304051527353,1,[-1.64490904],9,0.015178048983216286
82,gradient,0.13143040515273532,1,[-0.17678384],8358,7.030747800017707
82,pso,0.08845793514154116,10,"[0.70913855 0.12167914 0.27955566 0.89650688 0.53453238 0.77007334
 0.76173245 0.02586751 0.71082745 0.30461948]",1001,24.01489145902451
82,diffev,0.0900550566318208,7,"[0.72186776 0.02022561 0.8960559  0.33617606 0.57108012 0.78867006
 0.76047893]",2264,14.083895400981419
83,Nelder-Mead,0.11680806248110921,3,[ 0.17359687 -0.37391351  0.93171697],142,0.43498489807825536
83,SLSQP,0.13179214861068395,1,[-4.11757151],80,0.07494949793908745
83,gradient,0.09416307666046347,7,"[0.39335386 0.90314995 0.01609537 0.20289781 0.09679254 0.73059228
 0.5100408 ]",60788,666.9460125110345
83,pso,0.09394768473673974,5,[0.90416323 0.04131003 0.72625989 0.195925   0.34296266],1001,7.190520872012712
83,diffev,0.09345553343731323,10,"[0.42284791 0.65338398 0.83193278 0.02560696 0.42241578 0.21690358
 0.89526862 0.34455239 0.5453531  0.63710071]",1416,37.43197122402489
84,Nelder-Mead,0.11482740433849645,2,[-0.02550481  0.93529208],91,0.22768371691927314
84,SLSQP,0.12817842496018558,2,[-1.77922462  0.6681134 ],81,0.11906600999645889
84,gradient,0.1036895125964366,3,[0.00836578 0.89616394 0.76290598],19890,48.98934781306889
84,pso,0.0932960280529375,11,"[0.36473863 0.77135621 0.90177709 0.25681791 0.84487455 0.8672163
 0.01400915 0.51797349 0.67047408 0.1929647  0.65498782]",1001,38.302363809081726
84,diffev,0.0939523445275563,6,[0.01756822 0.80521971 0.89453613 0.44267578 0.35489345 0.71292155],2036,10.482377507025376
85,Nelder-Mead,0.09925042772331288,3,[-0.22459006  0.89581392  0.73529554],142,0.4556735879741609
85,SLSQP,0.09047564073619192,5,[0.76134092 0.89774833 0.71426214 0.01534941 0.3025532 ],144,0.8083001089980826
85,gradient,0.09096557199861333,5,[ 0.71177286  0.89489485  0.33898686 -0.02030755  0.37137184],85326,264.66413172509056
85,pso,0.09059057701623789,9,"[0.89695472 0.68592441 0.72102786 0.34279949 0.44945703 0.39001504
 0.0073496  0.6662359  0.6558926 ]",1001,16.340030655963346
85,diffev,0.090932080364607,6,[0.68856518 0.3296637  0.10436743 0.0426282  0.69466569 0.89456503],1564,9.452151093049906
86,Nelder-Mead,0.09127118093338285,6,[0.5654413  0.57117071 0.90944992 0.32065483 0.0059836  0.67550858],466,3.404931074939668
86,SLSQP,0.10089362053645988,3,[ 0.75997551  0.89819578 -0.62456214],279,0.48544764902908355
86,gradient,0.09042038459429291,7,"[0.58248848 0.69548928 0.90413637 0.32058408 0.78905451 0.00335808
 0.54411205]",204257,1044.4630891260458
86,pso,0.08989886877861689,11,"[0.8825284  0.77322393 0.6769339  0.60846877 0.15065115 0.3446178
 0.32828851 0.13208211 0.91946705 0.02302785 0.51999864]",1001,38.35546534101013
86,diffev,0.0903629424575877,10,"[0.86184631 0.8615983  0.00143704 0.33035852 0.59962839 0.69538686
 0.50596578 0.15362761 0.91248584 0.14260886]",1411,40.20482445997186
87,Nelder-Mead,0.1253744605346496,2,[0.90365804 0.66464295],148,0.2924294990953058
87,SLSQP,0.1276101959858247,1,[-0.46553436],9,0.015929811052046716
87,gradient,0.12535696504287014,2,[0.90341467 0.67204105],18325,25.875579569954425
87,pso,0.09236754048341865,10,"[0.79736    0.47172668 0.43614266 0.53205049 0.69621539 0.30279881
 0.59977394 0.05227152 0.89728472 0.586591  ]",1001,24.625807865988463
87,diffev,0.09246709837489614,6,[0.57756314 0.90346348 0.3337973  0.69732308 0.04108375 0.44411794],2188,10.00112612801604
88,Nelder-Mead,0.09513023792046855,5,[ 0.88949014  0.27743551 -0.03584984  0.64379406  0.67146395],519,1.8692091210978106
88,SLSQP,0.12634021275776086,1,[-0.5007058],12,0.018981785979121923
88,gradient,0.09494162691335548,6,[0.88958754 0.64385509 0.66357866 0.30209824 0.55529791 0.01692823],634462,1535.221617190051
88,pso,0.09697465058498814,5,[0.88136162 0.63803246 0.67532081 0.23470426 0.02913321],1001,7.147361428011209
88,diffev,0.09529083232059152,5,[0.01700447 0.27473254 0.64495888 0.66386632 0.88911872],1525,6.419411811977625
89,Nelder-Mead,0.11333340594691858,3,[0.03726262 0.11261971 0.92907878],330,0.6567128610331565
89,SLSQP,0.11329170632612684,3,[ 0.12286765 -1.34202332  0.9290652 ],59,0.21458979800809175
89,gradient,0.09229039000322234,7,"[0.18111734 0.32380907 0.71670177 0.82830916 0.89246368 0.02174615
 0.30180848]",115821,1010.8995196629548
89,pso,0.09239903904457708,5,[0.00690977 0.31345106 0.71487851 0.2798572  0.89317879],1001,7.112500963034108
89,diffev,0.09236457372484758,5,[0.01588781 0.6970116  0.65170357 0.89519641 0.28928685],1276,5.6809599759289995
90,Nelder-Mead,0.09254046859936246,5,[0.90358165 0.30210201 0.02619238 0.06933562 0.70607198],606,2.007430730969645
90,SLSQP,0.12857505309767678,1,[-0.52041928],10,0.017152430023998022
90,gradient,0.09250198725561938,5,[0.90378915 0.33041615 0.04961307 0.06891438 0.70276408],95792,396.61448255495634
90,pso,0.09302515625888491,5,[0.00310435 0.64682292 0.90905305 0.71179048 0.30112329],1001,7.09179958794266
90,diffev,0.09306685772479949,7,"[0.02575802 0.57028278 0.92124919 0.87857459 0.30130254 0.69477249
 0.55756972]",2028,15.965352113940753
91,Nelder-Mead,0.09965705376968828,3,[ 0.9055465   0.7557706  -0.17286714],237,0.6090256749885157
91,SLSQP,0.11404498358979971,2,[ 0.92931889 -0.48437067],44,0.09755005198530853
91,gradient,0.11404310602303509,2,[0.92912008 0.00406762],18777,26.592308060033247
91,pso,0.08924756393407578,7,"[0.26837546 0.57819742 0.61727074 0.02192925 0.90382268 0.70811418
 0.43405148]",1001,11.313751974026673
91,diffev,0.08941525507461734,5,[0.3464617  0.7137755  0.36068241 0.90512635 0.01686078],1448,6.43459747498855
92,Nelder-Mead,0.09320876328076011,5,[0.33876819 0.01658564 0.70915985 0.36490813 0.90463678],345,1.8384151919744909
92,SLSQP,0.1248231094125211,1,[-1.86205353],24,0.027463529957458377
92,gradient,0.09313855435280649,8,"[0.29614107 0.90462427 0.70818548 0.22580287 0.22443412 0.3092015
 0.04206122 0.2873418 ]",349744,2175.4381667230045
92,pso,0.09340333531854106,4,[0.26862727 0.90811227 0.00226901 0.69327186],1001,5.393617959110998
92,diffev,0.09357925962947665,6,[0.03658742 0.34637828 0.90460239 0.36427215 0.65038419 0.68265317],2060,8.682925536995754
93,Nelder-Mead,0.09013326296416346,6,[0.11205791 0.89900473 0.3369571  0.02576485 0.66232528 0.66110417],707,3.46943894890137
93,SLSQP,0.09020139438497032,7,"[0.19073353 0.66092077 0.02398687 0.19463158 0.66663032 0.89913361
 0.33999599]",592,2.806197550962679
93,gradient,0.09044661753484307,7,"[0.18765605 0.66705967 0.00526124 0.18765494 0.65080762 0.89904924
 0.38229909]",76170,683.8712394890608
93,pso,0.09142869755987387,4,[0.71013476 0.05125008 0.89238732 0.32408426],1001,5.302236299030483
93,diffev,0.09094387995461845,6,[0.00484503 0.66383605 0.3530098  0.66221858 0.48172478 0.8987716 ],1833,11.208060325006954
94,Nelder-Mead,0.09224922468029294,4,[0.33120436 0.00533395 0.69675298 0.89843339],383,1.0362364019965753
94,SLSQP,0.1109984485153888,2,[-5.33295507  0.92517851],33,0.06674305896740407
94,gradient,0.0929493603416461,6,[ 0.68329496  0.395589    0.60870215  0.89837204  0.39663819 -0.04718004],305237,959.6012704480672
94,pso,0.09193510839734186,4,[0.72051373 0.04000735 0.32921268 0.8965594 ],1001,5.355049117002636
94,diffev,0.09218017003914984,4,[0.0145899  0.8984648  0.32820749 0.69676597],1067,3.4584133330499753
95,Nelder-Mead,0.09134381132952912,6,[0.2892713  0.70442765 0.01387143 0.2835373  0.89911263 0.2748292 ],503,2.1693408080609515
95,SLSQP,0.128225363570691,2,[-0.51331581  0.13524642],196,0.25288320099934936
95,gradient,0.09203889420660308,6,[0.26637323 0.69782446 0.02529623 0.34157295 0.90363682 0.27979162],142403,648.5875895089703
95,pso,0.09209735038068645,6,[0.19134415 0.68387695 0.2370492  0.63861036 0.89685173 0.02820568],1001,9.139028107048944
95,diffev,0.09217663293928066,4,[0.89883279 0.26062848 0.02534242 0.71187679],1140,3.1850138939917088
96,Nelder-Mead,0.1142614731358525,2,[ 0.92358673 -0.79483068],137,0.27351185109000653
96,SLSQP,0.0918971392745798,6,[ 0.8871279   0.88748687  0.31834022  0.69521271  0.6064679  -0.20644742],428,1.8748735289555043
96,gradient,0.11425908296683576,2,[0.92357702 0.00324232],10614,22.729438208974898
96,pso,0.09029141724874325,9,"[0.60554367 0.02163714 0.68382085 0.90648185 0.53862736 0.89719112
 0.70034366 0.0215138  0.33511126]",1001,16.503512879949994
96,diffev,0.0915350524420717,4,[0.69734102 0.00614329 0.8978345  0.320137  ],1368,3.579329264932312
97,Nelder-Mead,0.09250157974798667,5,[0.71336255 0.03872995 0.36387752 0.36387228 0.89518019],222,1.6316767920507118
97,SLSQP,0.12356995044640046,2,[ 0.24289326 -0.73822027],25,0.05309238098561764
97,gradient,0.0928979124756711,4,[0.70824829 0.32886075 0.03908385 0.89554732],60487,144.17777862609364
97,pso,0.0916895699512934,7,"[0.89656397 0.28026354 0.30391436 0.03404234 0.41179816 0.7172969
 0.29885681]",1001,11.345734028029256
97,diffev,0.09266582496103455,7,"[0.66195294 0.9036538  0.32461215 0.0385928  0.63990865 0.73099126
 0.86858278]",1271,12.288813128019683
98,Nelder-Mead,0.09282924789801164,6,[0.66149471 0.03143875 0.28633603 0.33776803 0.9032573  0.66154632],640,2.5489420549711213
98,SLSQP,0.09274760183461657,5,[0.69720899 0.90888043 0.02603244 0.33613223 0.87679998],164,0.8146679940400645
98,gradient,0.09260685115330629,10,"[0.58278944 0.6866966  0.92928541 0.19320246 0.02695432 0.30757115
 0.25076082 0.46257739 0.90762102 0.30875051]",4761818,45217.644867302966
98,pso,0.09324268304015909,4,[0.90442783 0.06888679 0.69872981 0.32166178],1001,5.352973554981872
98,diffev,0.09296440825423223,5,[0.33652046 0.95534328 0.69680716 0.02609395 0.90870582],2681,8.389447220019065
99,Nelder-Mead,0.09247111674865928,4,[0.0569147  0.71622928 0.89903001 0.30164766],289,1.0128529620124027
99,SLSQP,0.11490728715623229,2,[-0.61220309  0.93095391],229,0.2948570979060605
99,gradient,0.09173584127205729,5,[ 0.898949   -0.59137228  0.69126677  0.68677414  0.30165801],51048,308.12604586197995
99,pso,0.09162114724812519,8,"[0.33831117 0.65429472 0.65555165 0.64071112 0.01397199 0.69422922
 0.89879287 0.34548035]",1001,13.745011585997418
99,diffev,0.09093839851545586,9,"[0.47381301 0.77822547 0.11118236 0.89491096 0.33514946 0.77878879
 0.02561477 0.59350373 0.69811576]",1049,21.829690783051774
