iteration,method,time,rmse
0,Minimize,0.008633424993604422,0.1945369220612731
0,OLS,0.000510707002831623,0.1945356369456646
1,Minimize,0.006748373998561874,0.2242409716894825
1,OLS,0.00032570099574513733,0.22424123564298135
2,Minimize,0.006729069005814381,0.21894765391610957
2,OLS,0.0003127759991912171,0.2189474260557011
3,Minimize,0.005859384997165762,0.26254048995050144
3,OLS,0.00027910099015571177,0.2625427175450774
4,Minimize,0.005107315009809099,0.25366882104663274
4,OLS,0.00032952899346128106,0.2536676239187929
5,Minimize,0.00492198699794244,0.23111573391085594
5,OLS,0.0003767080052057281,0.23111798331364264
6,Minimize,0.005380510992836207,0.219027529169095
6,OLS,0.00030871600029058754,0.21902975301774305
7,Minimize,0.005403142989962362,0.22285828409970354
7,OLS,0.0003111260011792183,0.2228573254578786
8,Minimize,0.005384819989558309,0.23857908002180586
8,OLS,0.0003154059959342703,0.23857781283770624
9,Minimize,0.005250982998404652,0.20988517708283672
9,OLS,0.0003095959982601926,0.20988180645142088
10,Minimize,0.005165589012904093,0.2073415178768484
10,OLS,0.0003140780027024448,0.2073397788864631
11,Minimize,0.005231465998804197,0.2341545885134302
11,OLS,0.00031667899747844785,0.23415428542993805
12,Minimize,0.005272483991575427,0.24595795511316335
12,OLS,0.0002764390083029866,0.24596110664146734
13,Minimize,0.005231003990047611,0.22324864874241832
13,OLS,0.00031115500314626843,0.22324557337821915
14,Minimize,0.005504751999978907,0.22797050297637417
14,OLS,0.00031947100069373846,0.22797065528689112
15,Minimize,0.005484761000843719,0.19985405406102583
15,OLS,0.0003285320126451552,0.1998551309709282
16,Minimize,0.004856177009060048,0.20153977129694584
16,OLS,0.00031134599703364074,0.2015381546302999
17,Minimize,0.004870902004768141,0.22197422041016557
17,OLS,0.0003448729985393584,0.22197360448905343
18,Minimize,0.005290959001285955,0.22263935062134554
18,OLS,0.00033144099870696664,0.22264250668162525
19,Minimize,0.005240591999609023,0.2456939379788224
19,OLS,0.00035407699760980904,0.2456940535312889
20,Minimize,0.005359556002076715,0.21814458041239543
20,OLS,0.0003207400004612282,0.2181454815697431
21,Minimize,0.005490802999702282,0.22299456970327933
21,OLS,0.0003250029985792935,0.2229932906579106
22,Minimize,0.0053860909974901006,0.2059055788634329
22,OLS,0.00032655999530106783,0.2059091715381301
23,Minimize,0.0058659319911384955,0.24174022600112016
23,OLS,0.000372963011614047,0.2417399855171893
24,Minimize,0.0058244779938831925,0.2327150661796517
24,OLS,0.0003139159962302074,0.23271623790774784
25,Minimize,0.005489764997037128,0.2395527304399782
25,OLS,0.00031099100306164473,0.2395511468004095
26,Minimize,0.005962141003692523,0.21357799767930669
26,OLS,0.00030881100974511355,0.21357787167746842
27,Minimize,0.0047759119916008785,0.21595328572011482
27,OLS,0.0003110309917246923,0.21595306904837322
28,Minimize,0.004663657004130073,0.2191716527615628
28,OLS,0.00027786400460172445,0.2191719693730242
29,Minimize,0.005479757994180545,0.20823288600700637
29,OLS,0.00029062099929433316,0.20823281015626502
30,Minimize,0.005740553009673022,0.23536520952384196
30,OLS,0.0003145380032947287,0.2353690733421521
31,Minimize,0.005557283002417535,0.21463595302714508
31,OLS,0.000310353992972523,0.21463542041681155
32,Minimize,0.004916934005450457,0.2333570568525676
32,OLS,0.00030878699908498675,0.2333574510779534
33,Minimize,0.005222407999099232,0.20629678483846836
33,OLS,0.0002993300004163757,0.20629634605341043
34,Minimize,0.004953565992764197,0.22592222189155695
34,OLS,0.0002716060116654262,0.22592303469181635
35,Minimize,0.004891474003670737,0.23247336261968857
35,OLS,0.00027150800451636314,0.23246937923576214
36,Minimize,0.005039632989792153,0.20555282567970143
36,OLS,0.00027495299582369626,0.20555636477005132
37,Minimize,0.005564167004195042,0.24073452369797346
37,OLS,0.00027409598988015205,0.24073359843296532
38,Minimize,0.00633258098969236,0.2027416359279205
38,OLS,0.0002730590058490634,0.20274128066303698
39,Minimize,0.005907247992581688,0.23508125582764858
39,OLS,0.00031097300234250724,0.2350814883324555
40,Minimize,0.0055301310057984665,0.21557233827737216
40,OLS,0.00030775000050198287,0.21557404742102745
41,Minimize,0.0052400050044525415,0.23741194955448508
41,OLS,0.0003106849908363074,0.23741050000568129
42,Minimize,0.00470738900185097,0.21734158159211464
42,OLS,0.00027239799965173006,0.21734255401539146
43,Minimize,0.006333233992336318,0.2640601664228455
43,OLS,0.0003147450042888522,0.26405641483828274
44,Minimize,0.004833902989048511,0.22883550733141206
44,OLS,0.0002830580051522702,0.22883714245908846
45,Minimize,0.007390319005935453,0.22226976803057663
45,OLS,0.00031779300479684025,0.22227145660947248
46,Minimize,0.0053831539989914745,0.21508963426865038
46,OLS,0.0003039700095541775,0.21509010148462224
47,Minimize,0.007230389004689641,0.21473292783973286
47,OLS,0.0003247079876018688,0.2147335812081101
48,Minimize,0.005349707993445918,0.2085405690860353
48,OLS,0.00030174599669408053,0.20853889903858744
49,Minimize,0.00501763699867297,0.2330409095378402
49,OLS,0.0003179869963787496,0.23304064367753055
50,Minimize,0.004993020003894344,0.22440911994793467
50,OLS,0.0003061070019612089,0.22440963400987163
51,Minimize,0.005293844995321706,0.21312523388397053
51,OLS,0.00030131499806884676,0.21312443359974304
52,Minimize,0.005497222009580582,0.21839848506817675
52,OLS,0.0003107350057689473,0.2183998430521465
53,Minimize,0.006875578008475713,0.20491006864137912
53,OLS,0.000306283007375896,0.20490795337487538
54,Minimize,0.005378638001275249,0.21713348726426038
54,OLS,0.0003104070055996999,0.21713354939381255
55,Minimize,0.00624314000015147,0.23113968881222502
55,OLS,0.00030359199445229024,0.23113938223785277
56,Minimize,0.004695714000263251,0.20968413681140152
56,OLS,0.00031468499219045043,0.20968512697943092
57,Minimize,0.005044314006227069,0.24530294296743435
57,OLS,0.0002931280032498762,0.2453048099386525
58,Minimize,0.004930442999466322,0.22196133082598052
58,OLS,0.00030679599149152637,0.2219594711613679
59,Minimize,0.005542817001696676,0.21798589271960023
59,OLS,0.0003097529988735914,0.21798647885111694
60,Minimize,0.00524019000295084,0.22601876555127628
60,OLS,0.0003231570008210838,0.22601803009156185
61,Minimize,0.0052201309881638736,0.2124679400084563
61,OLS,0.0003165529924444854,0.21246754488091357
62,Minimize,0.005631184991216287,0.21064499761627467
62,OLS,0.0002985150058520958,0.2106454878687862
63,Minimize,0.005178712992346846,0.23792006592050247
63,OLS,0.0004341199964983389,0.23791941008780024
64,Minimize,0.004927040994516574,0.21275675506339195
64,OLS,0.0002879130042856559,0.2127567428239648
65,Minimize,0.005186495007365011,0.2053147732081779
65,OLS,0.0003256010095356032,0.20531593092246456
66,Minimize,0.006264499010285363,0.2239593010471823
66,OLS,0.0003214570024283603,0.2239581451599746
67,Minimize,0.005179947009310126,0.24353025812327003
67,OLS,0.0003097869921475649,0.24352900640270264
68,Minimize,0.004929080998408608,0.2477186051342267
68,OLS,0.000313719006953761,0.24771854796899295
69,Minimize,0.004798467009095475,0.22621014574352433
69,OLS,0.00028622399258892983,0.2262095421466645
70,Minimize,0.005504561006091535,0.24540554056772382
70,OLS,0.0003217799967387691,0.24540589458581583
71,Minimize,0.005683003997546621,0.2072283196045505
71,OLS,0.0002948050096165389,0.20722882662635084
72,Minimize,0.005235413002083078,0.23073805556304372
72,OLS,0.00031266300356946886,0.2307373730221146
73,Minimize,0.0050204469880554825,0.2456892502069766
73,OLS,0.0002769510028883815,0.24568828885249347
74,Minimize,0.005086115997983143,0.21962347369965757
74,OLS,0.00027853299980051816,0.21962482906634784
75,Minimize,0.004870616001426242,0.223869748645125
75,OLS,0.0002688329986995086,0.22387010036262983
76,Minimize,0.00494984800752718,0.22397833329437916
76,OLS,0.0002718350006034598,0.22397765198386715
77,Minimize,0.005270751993521117,0.24698067119246686
77,OLS,0.0002710210101213306,0.24697969149217652
78,Minimize,0.0049474529951112345,0.22066643757313945
78,OLS,0.0002758979971986264,0.22066560544998587
79,Minimize,0.0052636949985753745,0.2193768447767943
79,OLS,0.0002829849981935695,0.2193773430101664
80,Minimize,0.005596046001301147,0.21678360112677417
80,OLS,0.0002738719922490418,0.21678330149912428
81,Minimize,0.005158728003152646,0.22752393806711493
81,OLS,0.00027853900974150747,0.22752250331130333
82,Minimize,0.008572056001867168,0.23219687050904955
82,OLS,0.00029743099003098905,0.23220051555998775
83,Minimize,0.005347622005501762,0.23521496520928162
83,OLS,0.00028155400650575757,0.23521559608133313
84,Minimize,0.006284251998295076,0.22426660294299028
84,OLS,0.0002845429989974946,0.22426563507945294
85,Minimize,0.005775840996648185,0.22216240676981847
85,OLS,0.0003091200051130727,0.22216278986681226
86,Minimize,0.005631039006402716,0.22676994762056277
86,OLS,0.00031394700636155903,0.22677116491361085
87,Minimize,0.005892709988984279,0.22574333575845754
87,OLS,0.00030883400177117437,0.22574405134435277
88,Minimize,0.005661404007696547,0.22397167064004772
88,OLS,0.00031607299752067775,0.22397173781678886
89,Minimize,0.0048315699968952686,0.21544635292942893
89,OLS,0.0002757339971140027,0.21544650476301078
90,Minimize,0.006013847989379428,0.24066382494243194
90,OLS,0.00032623199513182044,0.2406631898515546
91,Minimize,0.005536523996852338,0.22750527716023425
91,OLS,0.0002994009992107749,0.22750559182386682
92,Minimize,0.005358000998967327,0.23148095726883983
92,OLS,0.0004033100121887401,0.23148089793684093
93,Minimize,0.005010783002944663,0.24113865877818322
93,OLS,0.00030673098808620125,0.2411382602170456
94,Minimize,0.005239045000053011,0.23117349777639942
94,OLS,0.0003027659986400977,0.23117282481874907
95,Minimize,0.005142269001225941,0.2118965431001115
95,OLS,0.0003262650134274736,0.21189620537135598
96,Minimize,0.0063274459971580654,0.23234029433186099
96,OLS,0.00029124699358362705,0.23234038321908135
97,Minimize,0.005300065997289494,0.2335741819696345
97,OLS,0.0003134440048597753,0.233571837057237
98,Minimize,0.0050469940033508465,0.2226364664385403
98,OLS,0.0002843340043909848,0.22263618384499576
99,Minimize,0.005098943001939915,0.22399073769802177
99,OLS,0.00031556400062981993,0.22399101293628113
