iteration,max,test-rmse,numKnots,knotLoc,iterations,time
0,True,0.1654997351901009,5,[0.61162655 0.18288089 0.38929297 0.65321051 0.41115139],327,0.4574069629998121
0,False,0.16214822166096152,6,[0.65881816 0.45660348 0.13213342 0.80155876 0.77791339 0.45663359],449,1.7249708060007833
1,True,0.16286088635092608,2,[-0.69413408  0.61164762],210,0.16411495499960438
1,False,0.1629041457264086,2,[-0.75467007  0.61049548],133,0.22549796900057117
2,True,0.17442151982428783,1,[-0.08535892],71,0.04447249599979841
2,False,0.17442151982428783,1,[-0.08535892],71,0.07501054299973475
3,True,0.17320598005893117,5,[0.69264209 0.70758024 0.88371206 0.12264661 0.84425112],587,0.5488115810003364
3,False,0.1732129571229684,5,[0.69120348 0.70626744 0.87341555 0.13879382 0.87341554],398,1.4396959349996905
4,True,0.16027153909307118,5,[0.1710083  0.53023758 0.90966529 0.36660399 0.48392502],331,0.4313892650006892
4,False,0.16061287515152772,5,[0.21352131 0.53171214 0.9089244  0.34602308 0.48349582],562,1.7705378540013044
5,True,0.16121161689079508,4,[ 0.55246112  0.90965043 -0.22744236  0.60795235],279,0.35469528199973865
5,False,0.16121089925518758,4,[ 0.55208183  0.9083286  -0.2765945   0.6133282 ],265,0.7684705169995141
6,True,0.16557859752421933,6,[0.33830613 0.31674617 0.44242109 0.9574265  0.52949346 0.21065427],360,0.638966986000014
6,False,0.16558094682924882,4,[-0.05580184  0.83083775  0.9568638   0.60564624],460,0.9800738470003125
7,True,0.17176740019770165,1,[-0.40914184],74,0.04563592399972549
7,False,0.17176740019770165,1,[-0.40914184],74,0.07660600300005171
8,True,0.16348819703569265,3,[0.8639729  0.14231319 0.56902201],221,0.19179314500070177
8,False,0.16317782391918223,6,[0.80162751 0.77618758 0.20731334 0.67507697 0.56479095 0.17897076],279,1.9129834300001676
9,True,0.16028832452972971,6,[0.68910423 0.28496402 0.90142676 0.19636823 0.69057265 0.66771978],621,0.8409731140000076
9,False,0.15983620530975684,6,[0.69321195 0.32238428 0.83187325 0.16903033 0.66699642 0.68666822],352,1.93392642300023
10,True,0.16213375728329177,4,[0.9590972  0.16361833 0.57530339 0.97972506],235,0.3199971819994971
10,False,0.16336838151008615,2,[0.57489498 0.16446933],103,0.17176108899911924
11,True,0.15442672991504205,6,[0.54894916 0.92934915 0.44550553 0.55223418 0.2980469  0.24303048],238,0.6002263039990794
11,False,0.15424096663381553,6,[0.52942082 0.9307187  0.44410783 0.61652738 0.29636254 0.24232306],608,2.6103791059995274
12,True,0.16107311156772747,2,[0.1600922  0.65376958],106,0.09451443100078905
12,False,0.16107653411042078,2,[0.15884381 0.65568055],168,0.2372636509990116
13,True,0.17248965607580985,2,[0.13982843 0.67395013],75,0.09000726399972336
13,False,0.1725089477585202,2,[0.14046805 0.67450592],96,0.17582941799992113
14,True,0.15100808714790373,3,[0.60437949 0.11728305 0.96537068],216,0.2346803300006286
14,False,0.15096203547351061,3,[ 0.60369581 -0.24421936  0.95291926],155,0.37065955700018094
15,True,0.1630423019115414,2,[0.12681343 0.6864147 ],108,0.10877363400140894
15,False,0.15842976770130696,6,[0.55324805 0.68383013 0.77230608 0.6838287  0.80088615 0.05211754],659,2.567602799001179
16,True,0.16105935554278442,2,[0.65322695 0.13194511],105,0.09272395100015274
16,False,0.16105208354247433,2,[0.65284575 0.13084678],67,0.14264342800015584
17,True,0.16418253949313907,3,[0.86085735 0.5867278  0.07263312],248,0.2470794519995252
17,False,0.16409282211295514,3,[0.86163044 0.58582895 0.09688073],179,0.4051087860007101
18,True,0.16423829047181762,4,[0.6168566  0.18834506 0.27846308 0.90032372],242,0.29370667900002445
18,False,0.16426243232881196,4,[0.61598403 0.18667473 0.28323806 0.89957937],255,0.6374071640002512
19,True,0.17545298283082508,1,[-0.05649208],59,0.0386687529990013
19,False,0.17545298283082508,1,[-0.05649208],59,0.06599884400020528
20,True,0.16468365361235987,2,[0.13251355 0.60749432],104,0.092800595000881
20,False,0.16470489758420975,2,[0.13300801 0.60639284],69,0.13270174600074824
21,True,0.15475868961784317,4,[0.09352034 0.53383888 0.45381427 0.86357705],154,0.30601566299992555
21,False,0.1547871524821364,4,[0.05669642 0.534507   0.45253932 0.86251129],103,0.44379757100068673
22,True,0.16564354197980238,5,[0.27624037 0.11261423 0.83153009 0.21702791 0.58568204],522,0.48398344300039753
22,False,0.16566629985751213,5,[0.27480816 0.11207446 0.8309849  0.21750831 0.58447824],632,1.5314873570005147
23,True,0.1798855144341732,1,[-0.04460043],64,0.041262779999669874
23,False,0.1798855144341732,1,[-0.04460043],64,0.06851992000156315
24,True,0.16127272332781778,2,[ 0.6168399  -0.67488834],175,0.16032322399951227
24,False,0.1612771919060652,2,[ 0.61556496 -0.37658968],114,0.2049143139993248
25,True,0.1592286729044602,2,[-1.03644766  0.6168399 ],196,0.15828765100013698
25,False,0.15922533772809333,2,[-0.95962145  0.61610836],133,0.2297453070004849
26,True,0.16217231645784683,3,[0.65318213 0.28462066 0.16934759],235,0.22515570399991702
26,False,0.1621773812431569,3,[0.6528337  0.28458534 0.16902897],142,0.3557908820002922
27,True,0.16042263216515762,5,[0.54137002 0.27625585 0.17119206 0.36665316 0.44343571],433,0.4833076409995556
27,False,0.16042557154185766,5,[0.54141864 0.27523161 0.1704739  0.36644773 0.44341517],410,1.524671421999301
28,True,0.1615538334957698,6,[0.46316026 0.46318482 0.81417233 0.27721029 0.21633181 0.90091273],269,0.6048197689997323
28,False,0.16147651130133078,6,[0.46387598 0.46393772 0.8043484  0.27639988 0.21627931 0.96570406],424,1.8448748360005993
29,True,0.16276251833484506,3,[0.29493607 0.67706518 0.17149788],207,0.2114417009997851
29,False,0.16269962219594733,3,[0.27756855 0.67602256 0.17842952],163,0.3825079129983351
30,True,0.1585067577726488,5,[0.10942437 0.62150887 0.44239546 0.27129446 0.27007465],231,0.44648346999929345
30,False,0.1574306226198696,10,"[0.10626951 0.77212278 0.471761   0.86250901 0.47176099 0.26677171
 0.30124654 0.52748396 0.30118023 0.99994716]",894,8.452567172998897
31,True,0.15966282628342165,2,[0.07557868 0.61683987],114,0.10148884099908173
31,False,0.1596650384526178,2,[0.07555944 0.61661406],100,0.16668357100024878
32,True,0.15719907736853647,7,"[0.21922463 0.33135031 0.52536489 0.38216705 0.33128792 0.47757936
 0.88058426]",467,1.1607626600016374
32,False,0.15507189609478558,7,"[0.24181728 0.29788891 0.53216236 0.41566171 0.2978889  0.44263542
 0.91376154]",712,3.8149228370002675
33,True,0.1693857828532687,4,[0.67395348 0.18329667 0.2985398  0.29875512],237,0.305230797999684
33,False,0.16970688664048644,4,[0.67517026 0.23792079 0.29768081 0.29768074],238,0.8395090079993679
34,True,0.15845761369583827,2,[ 0.63968372 -0.47942398],119,0.11723252599949774
34,False,0.15846347822103404,2,[ 0.63903359 -0.53770476],113,0.20810162899942952
35,True,0.16857178643992332,7,"[0.27622626 0.378566   0.57524018 0.58772727 0.37770869 0.21928263
 0.27083784]",529,0.7705942930006131
35,False,0.16811265605758582,7,"[0.27392157 0.37697549 0.58135303 0.57406269 0.37697547 0.23027517
 0.2736585 ]",754,3.3246347659987805
36,True,0.15517744106839493,2,[0.61733904 0.17318798],116,0.09133536999979697
36,False,0.1551628909817751,2,[0.61819983 0.17303318],127,0.18235966199972609
37,True,0.16169996231733083,7,"[0.16303153 0.33232386 0.35412952 0.35033851 0.51598129 0.51908237
 0.61090279]",414,0.8412369659999968
37,False,0.162958784709895,4,[0.09781132 0.71516742 0.68375464 0.82333135],252,0.7903716399996483
38,True,0.17107350850451092,3,[0.90031615 0.08206499 0.6025482 ],171,0.22386826900037704
38,False,0.1710561574898709,3,[0.89968926 0.08169965 0.60371012],147,0.36060563099999854
39,True,0.16504416454771675,3,[0.60659622 0.12933765 0.86396971],405,0.28381993399852945
39,False,0.1650528902491434,3,[0.60593335 0.12985505 0.86278649],521,0.7991984359996422
40,True,0.16819425642317354,7,"[0.27406697 0.7757233  0.43376969 0.23976245 0.63655205 0.82502289
 0.38735887]",349,0.7200311659998988
40,False,0.16811788033237368,6,[0.19379298 0.82693536 0.36939535 0.78146304 0.44209235 0.5347669 ],333,1.956279423999149
41,True,0.1600625038232559,6,[ 0.50399577 -0.02576825  0.50326778  0.47562189  0.49043106  0.91485175],617,0.7952523219992145
41,False,0.15912070946469886,3,[0.05420978 0.62835296 0.91413221],257,0.47200293999958376
42,True,0.16669641149050649,2,[0.17005072 0.63529169],95,0.09040983600061736
42,False,0.16667233645718166,2,[0.16964211 0.63389912],93,0.1644661560003442
43,True,0.16464083708932245,3,[0.67394965 0.44247362 0.1231393 ],173,0.20720095300021057
43,False,0.16464615133723132,3,[0.67300237 0.44241611 0.13971375],114,0.34546425200096564
44,True,0.16354457919688295,2,[0.65001939 0.14541865],112,0.09955327500028943
44,False,0.16351303470346487,2,[0.65178861 0.14428258],129,0.2035716919999686
45,True,0.16773266322160107,3,[ 0.6166989  -0.37854061  1.60902019],167,0.15547039899865922
45,False,0.16775289526455772,3,[ 0.61531746 -0.38889905  1.61152133],155,0.308322548000433
46,True,0.16513841778175906,2,[ 0.6770652  -0.67303872],113,0.11278891000074509
46,False,0.1652551177352826,2,[ 0.68242101 -0.53030116],114,0.20617052099987632
47,True,0.16600389808375662,5,[0.69463239 0.27624327 0.69467052 0.22963315 0.52904145],857,0.7856043200008571
47,False,0.16403794948506673,5,[0.56436188 0.27490981 0.81292219 0.22913237 0.5643618 ],485,1.6146140900000319
48,True,0.16649786951024928,5,[0.96183084 0.76325627 0.12105089 0.51508616 0.53376903],346,0.5366009600002144
48,False,0.1674232835334148,3,[ 0.61380947 -0.02608457  0.96252907],450,0.7329707429998962
49,True,0.15385573969707422,9,"[0.68639768 0.90964903 0.6733457  0.66765917 0.65314345 0.48266851
 0.14268015 0.70959779 0.81491692]",501,1.3792768440016516
49,False,0.15439213276819214,8,"[0.69273641 0.90917952 0.5183229  0.41283084 0.18058178 0.69335782
 0.33002429 0.96568888]",616,6.1943311450013425
50,True,0.16454782087007477,2,[0.65213454 0.14228627],84,0.09864910800024518
50,False,0.16452884307603238,2,[0.65163607 0.14094936],107,0.21556187700116425
51,True,0.1561756580040896,8,"[0.69207783 0.69470502 0.29797602 0.86812636 0.27634692 0.88165618
 0.81061401 0.25029171]",805,1.0956722980008635
51,False,0.1561490708789275,8,"[0.75941992 0.68536249 0.30138895 0.87345804 0.27595679 0.87290834
 0.77901432 0.24023659]",421,3.4492962820004323
52,True,0.17480911859765297,1,[-0.04600446],54,0.037456132000443176
52,False,0.17485553112194213,1,[0.04501608],54,0.06032121600037499
53,True,0.16374790228323463,5,[0.46315533 0.23870842 0.62722339 0.60645504 0.32912363],462,0.4772739300005924
53,False,0.1611027011745243,7,"[0.44307638 0.36370451 0.27993461 0.78068975 0.10718284 0.60534167
 0.78239995]",577,4.3771445149996
54,True,0.15823365327280514,7,"[0.21020289 0.44344412 0.82542072 0.4683518  0.29601221 0.38217802
 0.19841167]",296,0.7144546489998902
54,False,0.15852432277456444,7,"[0.21500014 0.4525649  0.82396452 0.46679105 0.29546385 0.34015412
 0.21499123]",457,2.8514382880002813
55,True,0.15770848463478782,5,[0.44547403 0.53391742 0.16931557 0.90966526 0.34815318],266,0.44275932799973816
55,False,0.1569127356722288,8,"[0.38118364 0.36624251 0.74087311 0.81291021 0.35917742 0.81291025
 0.58327373 0.12111129]",725,4.708264073000464
56,True,0.16429805591035804,4,[0.05333389 0.69352391 1.17948096 0.69449194],446,0.39286466799967457
56,False,0.1642831991180265,4,[0.05699215 0.69262987 1.17904229 0.6926298 ],277,0.8633395950000704
57,True,0.17566119685290696,1,[-0.22959798],77,0.04833528699964518
57,False,0.17566119685290696,1,[-0.22959798],77,0.08825100400099473
58,True,0.16252437833578826,4,[0.14154257 0.6050986  0.38234272 0.3890022 ],168,0.34490267200089875
58,False,0.16270389553757866,4,[0.10245673 0.60423166 0.37493448 0.41154123],142,0.46281504099897575
59,True,0.16896324429853604,2,[0.09855347 0.6739494 ],212,0.14215691999925184
59,False,0.16896295620598642,2,[0.09719844 0.67433318],127,0.19818231799945352
60,True,0.17638984592879037,1,[-0.0823476],69,0.043187383000258706
60,False,0.17638984592879037,1,[-0.0823476],69,0.0744092200002342
61,True,0.16257559670805885,3,[0.65331009 0.13699484 0.82451823],93,0.16075111500140338
61,False,0.162610951783867,3,[0.65609899 0.13608702 0.8271139 ],153,0.3518087109987391
62,True,0.15926491447696467,4,[0.09658732 0.78400258 0.78377848 0.68952568],241,0.28147767299924453
62,False,0.15894387859655346,4,[0.09680928 0.7910102  0.77825916 0.67550014],256,0.721393927000463
63,True,0.16262605478937348,5,[0.6016858  0.32604763 0.60135485 0.95870847 0.19916563],302,0.5490725060008117
63,False,0.1627888758704676,7,"[0.62408487 0.70999122 0.44005775 0.6172137  0.38733458 0.21170903
 0.60058501]",611,3.0091638909998437
64,True,0.16299765504331237,3,[0.60544004 0.09870105 0.91482697],193,0.2261059379998187
64,False,0.16298484143019548,3,[0.60523266 0.09753702 0.9135619 ],140,0.38191762099995685
65,True,0.16045611871544416,2,[0.14200693 0.61476278],96,0.09096996399966883
65,False,0.160004374488703,5,[0.13405098 0.94566203 0.19681097 0.61361672 0.13770357],444,1.5465959740013204
66,True,0.16309084949606292,4,[0.10587456 0.83695978 0.66000017 0.77363428],266,0.35752202999901783
66,False,0.16454678644625273,2,[0.124272   0.65673067],126,0.18699627299974964
67,True,0.15607866663257422,5,[0.55245779 0.01017299 0.91005746 0.90913801 0.6168428 ],453,0.5314562149997073
67,False,0.15754970135183713,3,[0.60347313 0.6034673  0.01092998],146,0.3333287530003872
68,True,0.15591947296917907,2,[-0.17446475  0.65318217],83,0.10257653400003619
68,False,0.15591193024725394,2,[-0.17663906  0.65193789],137,0.2157440700011648
69,True,0.16290176855676555,4,[0.90664    0.22953207 0.56889561 0.27624706],275,0.3227640280001651
69,False,0.1628092313653128,4,[0.90809466 0.19434458 0.56658023 0.27575621],209,0.7149969179990876
70,True,0.1679536551618491,3,[0.330248   0.15429415 0.82987898],234,0.2113156909999816
70,False,0.1679767042024654,3,[0.3285743  0.15483507 0.82983993],251,0.4789619019993552
71,True,0.1624010736397141,6,[0.61684849 0.77882454 0.3292096  0.19127655 0.39548423 0.81566877],495,0.7131833399998868
71,False,0.16201751901816583,7,"[0.61617939 0.2155497  0.77918773 0.43647937 0.97269807 0.31606058
 0.80374381]",724,3.7444077610016393
72,True,0.16723299246727577,2,[0.06111394 0.64902864],187,0.1255107910001243
72,False,0.1672350827629111,2,[0.06132813 0.64763642],63,0.13187227500020526
73,True,0.16138288425545907,3,[ 0.61539247  0.95667149 -0.14944294],237,0.21209445199929178
73,False,0.16138064346606015,3,[ 0.61517911  0.95605077 -0.17779251],230,0.4322740690004139
74,True,0.1605141178823256,4,[0.6534777  0.65785337 0.67491876 0.13189634],504,0.42670271799943293
74,False,0.16063229674363616,4,[0.67459286 0.65416277 0.6533489  0.13099691],358,0.8559586280007352
75,True,0.16906577056207941,6,[0.23133516 0.85668721 0.74743911 0.82864786 0.71237349 0.23291708],236,0.4404320920002647
75,False,0.16789400404743804,6,[0.24206984 0.85513634 0.74854827 0.82604792 0.69187261 0.24206984],508,2.108579795998594
76,True,0.15726927802040752,4,[0.1584705  0.85257331 0.59502337 0.78090187],190,0.2700209590002487
76,False,0.1574977564809522,4,[0.16907435 0.84794399 0.58515072 0.77986195],183,0.6692949600001157
77,True,0.15942120916811328,2,[0.6293006 0.1389823],120,0.09397660900140181
77,False,0.1594152374105862,2,[0.628454   0.13981842],115,0.16955360999963887
78,True,0.16330246422088515,7,"[0.99947796 0.08813689 0.59623265 0.69112934 0.90936139 0.68426242
 0.68435174]",398,1.1783617609999055
78,False,0.16478412826397387,5,[0.85851128 0.8587417  0.38079071 0.68399769 0.15466084],416,1.2721173939989967
79,True,0.16783906375413357,3,[0.6492977  0.27629902 0.21449934],180,0.19885485600025277
79,False,0.1678615644135757,3,[0.64854725 0.27553019 0.21356053],204,0.3970751819997531
80,True,0.16530799903341728,2,[0.6365828  0.15767101],125,0.09242727499986358
80,False,0.16527989294694645,2,[0.63073505 0.16755438],117,0.1734462899985374
81,True,0.1623238669336948,7,"[0.81480147 0.81350986 1.1446379  0.92836636 0.94599921 0.15668018
 0.63658059]",1277,1.2786126000009972
81,False,0.16182438355079198,6,[0.76359011 0.86353361 0.69258515 0.69258515 0.55704821 0.10896896],683,2.127164391999031
82,True,0.15921788413324509,4,[0.29604566 0.21794699 0.44342442 0.60747719],175,0.30272988000069745
82,False,0.1591428725391703,5,[0.30123013 0.61467218 0.46509548 0.46506595 0.21794116],339,1.32015490699996
83,True,0.15924468398947686,2,[0.65318724 0.09870787],143,0.10209891500016965
83,False,0.15923304936575522,2,[0.65217156 0.09795658],122,0.1814421190010762
84,True,0.16239720326216078,6,[0.35635297 0.92533071 0.50393475 0.50469379 0.26831329 0.27728853],309,0.6365510539999377
84,False,0.1615936210084693,5,[0.37534828 0.17815444 0.41073076 0.92427546 0.52954272],790,1.6934344339988456
85,True,0.16269552525912392,3,[0.86812556 0.10762674 0.54312048],139,0.16453529000136768
85,False,0.1626862703135414,3,[0.86739639 0.10595395 0.54260382],161,0.3643831980007235
86,True,0.16357390576487024,4,[0.86397187 0.09873717 0.58044212 0.57814115],200,0.29804971699923044
86,False,0.16389836121099757,2,[0.64661888 0.11437155],102,0.16458236399921589
87,True,0.16264964895116032,2,[0.62032891 0.08028431],118,0.09097411999937322
87,False,0.16265418373013482,2,[0.61970106 0.08054789],107,0.16668320300050254
88,True,0.16319965473265746,3,[0.65413703 0.13172678 0.66044924],148,0.16376515599949926
88,False,0.161059088738098,5,[0.43596854 0.27573618 0.94504535 0.62711334 0.23617663],532,1.732170736999251
89,True,0.16663316956035346,7,"[0.09329499 0.46523866 0.29491134 0.60012147 0.46834976 0.95858175
 0.60020906]",549,1.053360148000138
89,False,0.16498570627329315,9,"[0.27477652 0.64085865 0.81542772 0.81542769 0.18385649 0.80241554
 0.7395074  0.44763258 0.4477446 ]",935,7.299755530999391
90,True,0.16232570775446756,2,[0.67602732 0.06631097],209,0.1376784599997336
90,False,0.16231351492475882,2,[0.67532744 0.06663758],120,0.18474142500053858
91,True,0.16105080636838778,4,[0.60437407 0.8698873  0.60429447 0.04917141],228,0.26888764400064247
91,False,0.16174903298089494,3,[0.62847137 0.27551851 0.22139916],154,0.3728356450010324
92,True,0.15535344849038754,2,[0.13697386 0.60646109],141,0.10284146499907365
92,False,0.1553957246038494,2,[0.13604461 0.60517934],112,0.18070702899967728
93,True,0.16714744750009322,4,[0.04240433 0.84424366 0.50988662 0.45803523],173,0.26790584300033515
93,False,0.16708150044214012,4,[0.06438909 0.86192662 0.50351251 0.50220173],199,0.7272448999992775
94,True,0.16153141416984984,6,[0.86239603 0.0463841  0.37815576 0.52961619 0.54934914 0.37864519],977,1.0430930919992534
94,False,0.1631253405887036,6,[0.74458956 0.04377651 0.37708629 0.58553846 0.52815278 0.37708641],550,2.1365605690007214
95,True,0.16383169273652282,8,"[0.37697542 0.41115066 0.56182259 0.41114821 0.54170074 0.80546475
 0.44240353 0.2164816 ]",454,1.3891400500015152
95,False,0.16382986203361488,8,"[0.3627716  0.36281942 0.57286821 0.40907926 0.57295633 0.8060589
 0.49224961 0.19994708]",437,5.407561858999543
96,True,0.1597317698251465,3,[0.90031685 0.11084457 0.61164003],227,0.2211082229987369
96,False,0.15974860228886245,3,[0.89985375 0.11228014 0.61029397],143,0.3770240579997335
97,True,0.1583824856320456,7,"[0.21367924 0.51196339 0.38817874 0.54727826 0.35141981 0.38274008
 0.54311572]",431,0.8507870319990616
97,False,0.15847221749747104,7,"[0.21463548 0.51072437 0.38855317 0.54464063 0.34956541 0.38855324
 0.54544343]",1544,5.455447370000911
98,True,0.17341608030249503,1,[-0.07203648],66,0.041806611998254084
98,False,0.17341608030249503,1,[-0.07203648],66,0.06994811499862408
99,True,0.16428478661576063,6,[0.63242064 0.45727274 0.14549648 0.79294419 0.61701308 0.80194613],250,0.7594694990002608
99,False,0.16433788731368063,6,[0.61844245 0.45053363 0.13985608 0.79870339 0.63128998 0.7987033 ],208,1.6479340749992843
