iteration,max,test-rmse,numKnots,knotLoc,iterations,time
0,True,0.11605568685787374,8,"[0.10778674 0.78369724 0.87230783 0.45217262 0.62905043 0.98119078
 0.19582086 0.24678453]",1398,1.5990193200013891
0,False,0.1161667207091489,8,"[0.12292495 0.83489785 0.83335375 0.45282996 0.62528555 0.98002046
 0.19530183 0.24757552]",601,2.950713189000453
1,True,0.19229238813200975,2,[ 0.91672026 -0.28894367],127,0.10421903700080293
1,False,0.19230430918827648,2,[ 0.91672027 -0.53206476],112,0.1476559239999915
2,True,0.2316126628909634,1,[0.8682308],58,0.03523303399924771
2,False,0.2317099029875111,1,[0.86694014],48,0.04122027499943215
3,True,0.1544589814109279,5,"[ 4.52923185e-01  3.10882073e-03 -6.87376597e-05  1.87362105e-01
  2.60257203e-01]",318,0.3919220440002391
3,False,0.15461243245162018,4,[0.45267859 0.18971067 0.260931   0.14332352],167,0.37589167800069845
4,True,0.1253102450164997,4,[0.8495904  0.34114691 0.15158377 0.33192902],160,0.35426619699865114
4,False,0.21084747695089584,2,[ 0.93567132 -0.04351635],137,0.15133882599911885
5,True,0.11416853024492078,4,[0.89341544 0.18813721 0.26334273 0.43539272],266,0.28042969099988113
5,False,0.11415255374271381,4,[0.89778312 0.18825441 0.26295338 0.4363419 ],370,0.5814411579995067
6,True,0.18902011900696022,2,[0.1906508  0.22788921],133,0.09865660799914622
6,False,0.18903816362140505,2,[0.19039354 0.22765082],112,0.13875127399842313
7,True,0.11554468819577583,7,"[0.69592101 0.62645137 0.07224621 0.24849295 0.47440647 0.19627874
 0.86833637]",560,1.0220205309997255
7,False,0.11546158153491368,7,"[0.64394061 0.64815326 0.07818923 0.24785623 0.47439393 0.19649019
 0.86670836]",384,1.7347039470005257
8,True,0.10978244704089181,6,[0.26063706 0.58620653 0.19010571 0.85828151 0.58619138 0.49535665],709,0.7912395679995825
8,False,0.11100889225634412,6,[0.25994008 0.66322577 0.18772274 0.82710289 0.59176581 0.50041255],642,2.1491107619985996
9,True,0.11985514150155542,5,[0.46341811 0.9217417  0.18849857 0.59872507 0.2632505 ],407,0.5548245409991068
9,False,0.11607158407453222,6,[ 0.26208075  0.46563066  0.18983295 -0.06707306  0.59772033  0.88884252],347,1.6577024870002788
10,True,0.13651590768336572,3,[0.23612653 0.18645028 0.84434112],165,0.17367324000042572
10,False,0.13643355426406248,3,[0.23488344 0.18890065 0.84454908],126,0.25956601799953205
11,True,0.14303219170027917,3,[0.44904244 0.19714878 0.24604779],199,0.20577294999930018
11,False,0.14758437639497546,3,[0.75725537 0.18955502 0.23656644],200,0.32344259999990754
12,True,0.21572917356118645,2,[ 0.95964193 -0.12646258],126,0.10567022900067968
12,False,0.2157270661262628,2,[ 0.95964193 -0.07636379],167,0.17808936499932315
13,True,0.1594365539210604,2,[0.22886416 0.1928273 ],86,0.08360858400010329
13,False,0.1594082121413052,2,[0.19398611 0.22806524],155,0.16386539199993422
14,True,0.22274503800126738,2,[ 0.92407647 -0.05230862],91,0.09583338199990976
14,False,0.22274334147732264,2,[ 0.92368291 -0.04822932],110,0.13610164199963037
15,True,0.11472846023728078,4,[0.44057827 0.19654844 0.87016399 0.24504596],215,0.2643294509998668
15,False,0.11283351432642721,4,[0.42710843 0.18761476 0.86958604 0.26001057],186,0.46986262500104203
16,True,0.10629935583246529,7,"[1.17919101e-01 2.57388788e-01 8.76596840e-01 4.73357690e-01
 1.90770471e-01 5.87084300e-01 4.32643875e-04]",827,1.126497446999565
16,False,0.12037049034675144,5,[0.17928603 1.5488007  0.3934547  0.28302191 0.89679733],494,1.0812286849995871
17,True,0.1301059406124634,4,[0.87078688 0.18919982 0.42715038 0.25922121],587,0.45959759099969233
17,False,0.13019308852142503,4,[0.86998521 0.18897205 0.42761524 0.2595742 ],323,0.6013849650007614
18,True,0.11718690143878335,4,[0.25996684 0.91222597 0.42180112 0.19064252],208,0.2846624929989048
18,False,0.11717815342437586,4,[0.26045114 0.91097843 0.42137651 0.19068571],205,0.47430478099886386
19,True,0.14164067993743276,3,[0.26033714 0.19000728 0.45592544],134,0.16576902300039364
19,False,0.1417144168900128,3,[0.26102848 0.18948065 0.45576027],153,0.271055883000372
20,True,0.1231839625440246,3,[0.19926218 0.45198031 0.24569268],187,0.20074483799908194
20,False,0.12340004094373956,3,[0.19957693 0.4527681  0.2452099 ],163,0.28096953199928976
21,True,0.11787970524872476,4,[0.42950712 0.24776585 0.19370236 0.95369281],522,0.43916329400053655
21,False,0.11268940476959995,7,"[0.96653714 0.9987876  0.7230427  0.44924571 0.64251422 0.18341781
 0.26382671]",713,2.4196733230000973
22,True,0.10914012145819137,5,[0.45638182 0.26411177 0.18582208 0.59247763 0.91222563],390,0.48497302899886563
22,False,0.1148974525996566,5,[0.45172489 0.27826727 0.17228048 0.59172184 0.91183173],260,0.6654129750004358
23,True,0.11008886186666252,4,[0.42947269 0.19304107 0.24958908 0.91536037],344,0.28569457000048715
23,False,0.11014153271207802,4,[0.42901785 0.19281502 0.24957816 0.91464992],259,0.39244721599970944
24,True,0.12445362942954476,5,[0.19224313 0.91531752 0.28212461 0.40663448 0.2302602 ],403,0.44362127899876214
24,False,0.12276613212929267,6,[0.89264045 0.26403757 0.97712233 0.9338783  0.40527024 0.18909385],706,1.4966169469989836
25,True,0.11199690930713045,6,[0.24496174 0.19603979 0.47742762 0.61556628 0.30068379 0.84639467],633,0.7517552850003995
25,False,0.11184094301286224,7,"[0.24987461 0.57895864 0.8443533  0.56318316 0.47457123 0.0231745
 0.18967079]",449,2.8165152499987016
26,True,0.15440063079548386,3,[0.82918827 0.24137892 0.18938149],144,0.16405990299972473
26,False,0.15415943309299954,3,[0.82926536 0.2401405  0.18933982],126,0.22202781099986169
27,True,0.11052205191484839,7,"[0.19534951 0.51052662 0.62702361 0.92101632 0.24828148 0.99593696
 0.62057535]",581,1.116234989000077
27,False,0.11222634976078932,4,[0.19418583 0.89220492 0.44276563 0.24834736],254,0.8132874610000727
28,True,0.13835471613302414,4,[0.26361091 0.19421761 0.43893197 0.16784184],351,0.3827186719991005
28,False,0.13844958361501702,4,[0.26319449 0.19130898 0.43944111 0.06179651],667,0.7685563630002434
29,True,0.1446213403022567,3,[0.2382437  0.82389378 0.19017525],178,0.1501881610001874
29,False,0.14474204409294583,3,[0.23688711 0.82474145 0.19379154],172,0.24015387399958854
30,True,0.21398324730596224,2,[0.86428796 0.70534393],81,0.06983483300064108
30,False,0.21398711762953315,2,[0.86434385 0.70480559],104,0.10572503600087657
31,True,0.10526134723617502,5,[0.19621857 0.90718099 0.57679874 0.24707441 0.50606855],749,0.6768152559998271
31,False,0.10332356006349067,8,"[0.02988272 0.80574718 0.19661879 0.05929806 0.50544335 0.24762893
 0.59096958 0.9795008 ]",979,3.6223310769983073
32,True,0.2183255146476431,4,[0.89026249 0.60863363 0.6115372  0.79552997],209,0.20361721299923374
32,False,0.11229813340222232,5,[0.97990377 0.24618728 0.50223403 0.19912037 0.99470938],606,1.3301396430015302
33,True,0.12016046910179401,3,[0.46627644 0.23991918 0.20246379],116,0.1624299710001651
33,False,0.1196903056061986,3,[0.46578738 0.24099406 0.20190453],132,0.25561889199889265
34,True,0.11412329684990545,7,"[0.89045222 0.24844961 0.08908656 0.49488943 0.19200363 0.59245885
 0.72108616]",275,1.156429549000677
34,False,0.11438659109221103,7,"[0.88998694 0.24819584 0.08228813 0.49613138 0.19155481 0.59112416
 0.72000143]",785,2.225794717000099
35,True,0.12699699096044884,3,[0.25659425 0.19081367 0.44764297],161,0.21574622399930377
35,False,0.12699388191646319,3,[0.25672386 0.19070228 0.4490285 ],158,0.3905699070000992
36,True,0.139206025052347,4,[0.35108921 0.24517314 0.19327623 0.45208984],166,0.26320618399950035
36,False,0.13926155694370532,4,[0.34990041 0.24524114 0.19308411 0.45211596],517,0.6753760299998248
37,True,0.2310449080197012,1,[0.8903556],73,0.040739604000918916
37,False,0.23105310286843156,1,[0.89143319],83,0.05941314799929387
38,True,0.2420875439960184,2,[ 0.91222571 -0.00239028],124,0.12812178500098526
38,False,0.24210842083818884,2,[ 0.91161571 -0.00165417],95,0.11917408100089233
39,True,0.11522166831608333,4,[0.4103492  0.89272807 0.26338622 0.19032611],238,0.2971658060014306
39,False,0.1151252389489912,4,[0.40981266 0.89261703 0.26296203 0.19058206],284,0.4883590790013841
40,True,0.12999490104448913,3,[0.42600836 0.24997719 0.19559284],332,0.22656935600025463
40,False,0.1310001314594929,3,[0.41906997 0.25949613 0.18706722],288,0.3293324539990863
41,True,0.1846546988075748,2,[0.2382227 0.1888905],127,0.08274146999974619
41,False,0.1844366614104487,2,[0.2365721  0.18982087],133,0.12578787799975544
42,True,0.13260592814290625,3,[0.25753717 0.43095614 0.19000734],272,0.1858243010010483
42,False,0.1326378491079117,3,[0.25700831 0.43118321 0.1901884 ],268,0.293661689000146
43,True,0.10588717383089406,6,[0.87236928 0.24666302 0.49393288 0.59560703 0.19609092 0.76175427],542,0.8968092880004406
43,False,0.13847949923006103,3,[0.81024739 0.19303151 0.23679839],164,0.3028899069995532
44,True,0.11878546846020142,6,[0.26331723 0.38871366 0.18600078 0.01325735 0.84055362 0.98119173],277,0.7895758279992151
44,False,0.1149257017282645,6,[0.26179056 0.41167381 0.18558293 0.01904559 0.8875544  0.98032771],208,1.216404185999636
45,True,0.12816102681812216,3,[0.25320538 0.45455385 0.19459705],319,0.2008821089984849
45,False,0.12826336249158415,3,[0.25344253 0.45391579 0.19405936],350,0.3608557589996053
46,True,0.15521973967806613,3,[ 0.28213166  0.87147382 -5.38579047],159,0.24890618200151948
46,False,0.2185281775631791,3,[ 0.87117166  0.93549704 -0.13125012],145,0.2907592139999906
47,True,0.11570167701322263,4,[0.19329648 0.24639648 0.91222489 0.42198248],237,0.29072786399956385
47,False,0.2235546372714201,2,[0.00155326 0.91292893],147,0.18312943000091764
48,True,0.1110980684950553,7,"[0.4983709  0.96863425 0.5987651  0.18680003 0.81983692 0.96870103
 0.24435764]",466,1.0169254709999223
48,False,0.10827420539263917,8,"[0.61867937 0.97914569 0.4726615  0.8250935  0.35930948 0.24756679
 0.91412436 0.19290356]",806,3.587007801999789
49,True,0.13826676244230077,4,[0.19222893 0.84820179 0.23824451 8.43250164],132,0.35207402000014554
49,False,0.13830226039362128,3,[0.19124996 0.23918881 0.84815266],298,0.37538546699943254
50,True,0.22198515004049899,2,[ 0.97785571 -0.01694574],88,0.08924629200009804
50,False,0.22192715013398676,2,[ 0.97741797 -0.04867549],80,0.11615876100040623
51,True,0.12313836174684788,4,[0.42991507 0.25184781 0.89536089 0.19329192],285,0.4316108240000176
51,False,0.12369234546177692,4,[0.4331611  0.25051311 0.91972817 0.19391228],285,0.5791209629987861
52,True,0.10642776396908751,8,"[0.20331833 0.8499332  0.47794078 0.09287405 0.36674568 0.25244662
 0.97491455 0.59247694]",621,1.3584867490008037
52,False,0.11171212519033882,7,"[0.15010717 0.42973563 0.20233819 0.25182296 0.72448122 0.97400974
 0.86737245]",1313,3.2712624160012638
53,True,0.21878370462906618,2,[ 9.94138216e-01 -1.65829834e-04],111,0.08916706499985594
53,False,0.21878370462906618,2,[ 0.99415741 -0.00163856],209,0.20042180500058748
54,True,0.13469821407499935,3,[0.82047407 0.23731447 0.19005375],150,0.18788241599941102
54,False,0.13491871529064878,3,[0.82032009 0.23924209 0.18907678],189,0.31799736299944925
55,True,0.11227616649540913,5,[0.59247634 0.18614648 0.26400036 0.84684595 0.4786616 ],454,0.7089675130009709
55,False,0.11400434817774248,5,[0.84570716 0.18566425 0.26776483 0.63513653 0.43884743],248,0.9489099220008939
56,True,0.23005728609168616,2,[-0.03933651  0.91222571],130,0.13127291099954164
56,False,0.23006454802993542,2,[-0.04694657  0.91166852],120,0.16071650699996098
57,True,0.13746175378217254,3,[0.23374184 0.19206101 0.81966844],253,0.18409103699923435
57,False,0.13718429381155814,3,[0.23569392 0.19046435 0.81944313],204,0.29595251099999587
58,True,0.14208125428868218,3,[0.43473631 0.18817159 0.26075259],180,0.16572076699958416
58,False,0.14213526559285825,3,[0.43453058 0.18789922 0.26114273],215,0.3158936800009542
59,True,0.19438136730816732,3,[0.8466865  0.56314283 0.62068965],172,0.14496656299888855
59,False,0.1942963824216706,3,[0.84733448 0.56262301 0.61974426],91,0.1524333260003914
60,True,0.1445451323594704,4,[0.2371651  0.1894442  0.99578946 0.86791754],255,0.30769406500076
60,False,0.14671347159321926,3,[0.86715956 0.23942181 0.18815156],277,0.29175466200103983
61,True,0.14781328071378927,3,[ 0.26959319 -0.06547993  0.86377467],145,0.17750108200016257
61,False,0.14784037483932017,3,[ 0.26853937 -0.06719421  0.864574  ],156,0.28026252599920554
62,True,0.18118460695047603,3,[0.22912713 0.19220442 0.07337119],244,0.16957126799934485
62,False,0.1812277453811034,3,[0.22971116 0.19129125 0.07423297],143,0.20887204199971166
63,True,0.10981449137921175,4,[0.91477197 0.24690584 0.443646   0.19333808],301,0.29775662799875136
63,False,0.10984186599556886,4,[0.91378664 0.24611722 0.44357047 0.19549867],375,0.5434356220011978
64,True,0.11355416254790571,3,[0.45116113 0.2641145  0.18631854],183,0.17375442699994892
64,False,0.11351251129340707,3,[0.45053833 0.26396058 0.18636589],147,0.23775657400074124
65,True,0.12433769939697285,4,[0.19494624 0.24984882 0.4294957  0.87243041],180,0.4054641990005621
65,False,0.12445433209703172,4,[0.19370009 0.25216206 0.42837383 0.87203369],172,0.6486661660001118
66,True,0.11856790788965618,4,[0.26091843 0.19039863 0.41274383 0.89342225],225,0.29685879400130943
66,False,0.11370149573098651,6,[0.19512582 0.25513223 0.49323819 0.97753852 0.86680773 0.59384464],244,1.3484741489992302
67,True,0.12555533798715637,7,"[0.19106105 0.80250674 0.65831729 0.66998175 0.97604771 0.46960871
 0.25192553]",421,0.8854472759994678
67,False,0.1266175635682775,7,"[0.19473444 0.79288039 0.65757156 0.6720734  0.97611762 0.45630943
 0.25242256]",521,1.8969454189991666
68,True,0.12346424699619776,4,[0.25329863 0.19282819 0.89163838 0.42947426],296,0.30238497299978917
68,False,0.12368834381516863,4,[0.25347642 0.19261614 0.89169541 0.42892983],432,0.6313066890015762
69,True,0.15632671800373307,3,[ 0.86833882 -0.21375158  0.27272735],144,0.14678831799938052
69,False,0.15634184718038252,3,[ 0.86937488 -0.2174551   0.27195867],138,0.21559429800072394
70,True,0.13877219645905814,4,[0.47618083 0.19399946 0.5762222  0.24746062],304,0.3377117250001902
70,False,0.13881656276198817,4,[0.47600896 0.1948775  0.57765698 0.24702764],330,0.5404721079994488
71,True,0.11520789314186294,6,[0.19474461 0.4952977  0.1138865  0.24876126 0.84506251 0.59759673],426,0.5453116289991158
71,False,0.11518046058640655,6,[0.19444089 0.49530725 0.11456585 0.24832086 0.84668632 0.59707878],545,1.2953930300009233
72,True,0.12360308083244716,5,[0.84639773 0.19277175 0.46301952 0.25317156 0.63635902],334,0.41773178900075436
72,False,0.12928526405558413,5,[0.79878961 0.19275997 0.43422678 0.25352676 0.79784414],911,1.4702447949985071
73,True,0.14708490980238556,3,[0.19767327 0.24797513 0.43948347],479,0.3087588289999985
73,False,0.14720463882255042,3,[0.19771704 0.24804064 0.43843866],358,0.39362220000111847
74,True,0.11955300492866648,6,[0.95924702 0.19177318 0.47647917 0.61025786 0.82759113 0.24948689],337,0.5960608450004656
74,False,0.11868658259747644,6,[0.87097488 0.19206538 0.47559244 0.61230384 0.80233268 0.24934963],300,0.9742530309995345
75,True,0.2212689296770301,1,[0.86831958],58,0.030354040000020177
75,False,0.22111623092533933,2,[0.99847089 0.87027536],119,0.1344485909994546
76,True,0.16431800803672597,3,[ 0.26841456  0.82129362 -0.1055475 ],177,0.17798263300028339
76,False,0.14642020354792856,3,[0.23642834 0.76086884 0.18942733],238,0.3272652819996438
77,True,0.21715983659856025,2,[ 0.91414585 -0.07316056],100,0.09641953599930275
77,False,0.2171683453129899,2,[ 0.91377679 -0.04873218],136,0.15778486799899838
78,True,0.11409252171778259,7,"[0.18937776 0.97815377 0.49889514 0.85642568 0.25805031 0.59247604
 0.3640009 ]",391,0.9803770139988046
78,False,0.11706933017515449,5,[0.18861816 0.97932438 0.89010516 0.42209351 0.25771417],229,0.923976579999362
79,True,0.11306930894087151,4,[0.19730545 0.24852411 0.42946878 0.83071139],275,0.3993893820006633
79,False,0.1288263291763076,4,[0.16723113 0.30625262 0.39062571 0.82943578],265,0.6133776699989539
80,True,0.13290261340260942,6,"[-1.90907480e-04  1.48494838e-01  2.60131138e-01  1.46980202e-02
  1.92173068e-01  4.51407407e-01]",409,0.4872845949994371
80,False,0.13299769905204828,6,"[-1.70312901e-04  1.49935646e-01  2.60822073e-01  1.46159505e-02
  1.91913347e-01  4.52053376e-01]",320,0.9253309769992484
81,True,0.1454799152480745,4,[0.19633471 0.24870604 0.4513864  0.055549  ],304,0.34619560000101046
81,False,0.1457519215096926,4,[0.1984499  0.24744804 0.45114283 0.0612527 ],304,0.4958021029997326
82,True,0.11216058163385609,6,[0.24475565 0.19524732 0.47544236 0.65677177 0.82758651 0.95611835],1015,0.9393283520003024
82,False,0.1130363309023599,6,[0.24473611 0.19443517 0.50455394 0.60069955 0.82669971 0.95545011],248,1.4122620029993413
83,True,0.22976551172711604,2,[0.84611076 0.95924795],78,0.055105052999351756
83,False,0.22972028009372852,2,[0.84729678 0.95814422],85,0.08209950600030425
84,True,0.10817943400250754,6,[0.19269325 0.8464694  0.47649347 0.6289784  0.38865687 0.25422284],741,0.7808573610000167
84,False,0.1071685661861247,7,"[ 0.25245387  0.95385375  0.19415603 -0.00398694  0.82683898  0.47507143
  0.6306093 ]",645,2.2858872229990084
85,True,0.1187056334012938,5,[0.05445659 0.25937671 0.18691721 0.89046907 0.42996055],432,0.595762017999732
85,False,0.15195949478027457,3,[0.18617387 0.44917385 0.25860598],362,0.49978607699995337
86,True,0.11512009329463567,5,[0.20064489 0.97733405 0.45139376 0.2447961  0.09423134],225,0.3513095799989969
86,False,0.1161008111931328,8,"[0.16731403 0.20247345 0.45260021 0.87111359 0.56770267 0.32490609
 0.56422021 0.24258859]",594,2.9734150100011902
87,True,0.11651557884885962,9,"[0.62555966 0.31493631 0.07745327 0.24212845 0.97790877 0.46196755
 0.78059242 0.20041347 0.05790235]",864,2.2489441809993878
87,False,0.11187602136853739,8,"[0.63235687 0.46399016 0.18947908 0.98258732 0.25878944 0.77105113
 0.18324657 0.98316739]",749,3.9312120570011757
88,True,0.10322010411742533,10,"[0.38655945 0.24137498 0.4855246  0.60091103 0.19504104 0.28281536
 0.87710878 0.62694167 0.87755281 0.29787446]",645,2.000723402999938
88,False,0.10635913269095285,6,[0.19764336 0.47907443 0.0801562  0.24897314 0.87030928 0.59136418],497,1.5564641490000213
89,True,0.22590827148862624,2,[-0.20570091  0.93416928],111,0.0969512970004871
89,False,0.22591613020536477,2,[-0.06732335  0.93449964],150,0.1549102370008768
90,True,0.2243385023873922,2,[ 0.89341693 -0.04556664],136,0.11413825299860036
90,False,0.22436516993846553,2,[ 0.89282275 -0.02900918],123,0.14224691500021436
91,True,0.15224048667131143,4,[0.80356662 0.23947932 1.01072069 0.18994974],238,0.4344903420005721
91,False,0.15093409159979354,4,[0.86137001 0.23935429 1.01452074 0.18875586],213,0.44019047999972827
92,True,0.22927260877550523,2,[-0.39365194  0.91222571],99,0.10607065100157342
92,False,0.22928939752983576,2,[-0.05569926  0.91142912],90,0.1222298549982952
93,True,0.11385747876032633,4,[0.24706065 0.19195688 0.91222623 0.42917733],554,0.5017126370003098
93,False,0.10231700997324526,8,"[0.47357858 0.61680443 0.19759064 0.24475186 0.80718901 0.92376137
 0.61360183 0.1316396 ]",382,2.613231506000375
94,True,0.11844055431533589,5,[0.25035526 0.194543   0.91535204 0.84629028 0.41249624],269,0.43225274799988256
94,False,0.11849081170066032,5,[0.25045684 0.19419541 0.91380395 0.84474232 0.41259911],347,0.7774826549994032
95,True,0.13012679340403505,4,[0.43219209 0.18703439 0.97604003 0.26093196],327,0.3411206780001521
95,False,0.12963292336084717,4,[0.44963589 0.19579584 0.97614342 0.25023376],459,0.6244210730001214
96,True,0.11796924914256247,5,[0.1869544  0.47228585 0.62188985 0.26018826 0.80524812],320,0.40250864300105604
96,False,0.11788996505471984,5,[0.18785294 0.47221556 0.62223982 0.25948082 0.80442619],181,0.6183180230000289
97,True,0.10756090247096793,7,"[0.19150279 0.5093646  0.71786775 0.41591506 0.9153515  0.25380823
 0.65306785]",741,1.2156950429998687
97,False,0.11150176614562299,4,[0.2539795  0.40893237 0.89417692 0.19072334],264,0.4998818719996052
98,True,0.09820125596707016,7,"[0.38871002 0.51503377 0.97895722 0.2531567  0.59875649 0.19592926
 0.82848196]",484,1.3335180900012347
98,False,0.1670184857143326,3,[ 0.28972942 -0.08192578  0.86977946],176,0.27008631600074295
99,True,0.18410945430241593,2,[ 0.27272727 -0.13605207],117,0.11069439599850739
99,False,0.18397735620379052,2,[ 0.27180518 -0.08319136],140,0.16150072499840462
