iteration,name,useMax,alpha,test-rmse,numKnots,knotLoc,iterations,time
46,Max,True,1e-08,0.0888161551198847,4,[0.69788844 0.02211962 0.9017929  0.30149921],32045,126.36587946600048
46,SofterMax,False,1e-08,0.0888161551198847,4,[0.69788844 0.02211962 0.9017929  0.30149921],32045,900.1140725529986
