iteration,max,test-rmse,numKnots,knotLoc,iterations,time
62,True,0.09842304068149772,7,"[2.83608604e-04 1.95261545e-01 2.45071089e-01 4.27004454e-01
 3.26019352e-01 6.17560457e-01 8.41542805e-01]",1044,1.3418008709995775
62,False,0.09842304068149772,7,"[2.83608604e-04 1.95261545e-01 2.45071089e-01 4.27004454e-01
 3.26019352e-01 6.17560457e-01 8.41542805e-01]",1044,2.6415186200028984
