iteration,max,test-rmse,numKnots,knotLoc,iterations,time
33,True,0.14603338660962412,8,"[0.45070508 0.680828   0.43379409 0.19083932 0.95742054 0.43380268
 0.64275551 0.5404208 ]",651,1.2747136209982273
33,False,0.14603338660962412,8,"[0.45070508 0.680828   0.43379409 0.19083932 0.95742054 0.43380268
 0.64275551 0.5404208 ]",651,3.8278501470012998
