iteration,name,useMax,alpha,test-rmse,numKnots,knotLoc,iterations,time
0,Max,True,1e-08,0.1666012918303753,3,[0.23986628 0.71239585 0.26808125],18685,13.965717797000252
0,SofterMax,False,1e-08,0.1666012918303753,3,[0.23986628 0.71239585 0.26808125],18685,32.02744412699758
1,Max,True,1e-08,0.16403566658234434,2,[0.6532667  0.08775502],9615,5.604011394003464
1,SofterMax,False,1e-08,0.16403566658234434,2,[0.6532667  0.08775502],9615,11.43740930200147
2,Max,True,1e-08,0.1652770054094229,3,[0.1276199  0.56798746 0.47762152],21700,15.660375409002881
2,SofterMax,False,1e-08,0.1652770054094229,3,[0.1276199  0.56798746 0.47762152],21700,35.9134515629994
3,Max,True,1e-08,0.16095613088154037,4,[0.19324043 0.44210786 0.40056259 0.62099806],24069,26.69087248899814
3,SofterMax,False,1e-08,0.16095613088154037,4,[0.19324043 0.44210786 0.40056259 0.62099806],24069,66.4275741829988
4,Max,True,1e-08,0.1669681915592356,4,[0.57254754 0.19629173 0.90831403 0.28605911],32045,41.79864568100311
4,SofterMax,False,1e-08,0.1669681915592356,4,[0.57254754 0.19629173 0.90831403 0.28605911],32045,105.39101865999692
5,Max,True,1e-08,0.1543696741704363,6,[0.35500479 0.60265802 0.24309933 0.44357158 0.14333298 0.32615145],41429,61.77797718099828
5,SofterMax,False,1e-08,0.1543696741704363,6,[0.35500479 0.60265802 0.24309933 0.44357158 0.14333298 0.32615145],41429,178.28613747599957
6,Max,True,1e-08,0.16203269141245363,4,[0.69061259 0.16979353 0.64609072 0.65471199],25123,25.553191761999187
6,SofterMax,False,1e-08,0.16203269141245363,4,[0.69061259 0.16979353 0.64609072 0.65471199],25123,63.12927791799666
7,Max,True,1e-08,0.16313790020611726,3,[0.61678621 0.14169465 0.83299207],17358,13.113028131003375
7,SofterMax,False,1e-08,0.16313790020611726,3,[0.61678621 0.14169465 0.83299207],17358,29.704727520002052
8,Max,True,1e-08,0.1652962387945851,3,[0.04315617 0.95709857 0.59066738],16273,13.626172588999907
8,SofterMax,False,1e-08,0.1652962387945851,3,[0.04315617 0.95709857 0.59066738],16273,30.38736123000126
9,Max,True,1e-08,0.16413306997214586,5,[0.57344311 0.24300418 0.57079211 0.28929995 0.8516529 ],70710,63.536816327999986
9,SofterMax,False,1e-08,0.16413306997214586,5,[0.57344311 0.24300418 0.57079211 0.28929995 0.8516529 ],70710,174.8687417149995
10,Max,True,1e-08,0.15951095279279107,3,[0.82870379 0.13142513 0.65312897],21458,14.750148213999637
10,SofterMax,False,1e-08,0.15951095279279107,3,[0.82870379 0.13142513 0.65312897],21458,33.31990352600042
11,Max,True,1e-08,0.1699892900872585,2,[0.6134421  0.14131511],11430,6.652253599000687
11,SofterMax,False,1e-08,0.1699892900872585,2,[0.6134421  0.14131511],11430,13.445624232997943
12,Max,True,1e-08,0.16161168257042272,4,[0.20094212 0.61168061 0.27612516 0.93046938],33099,34.09624643600182
12,SofterMax,False,1e-08,0.16161168257042272,4,[0.20094212 0.61168061 0.27612516 0.93046938],33099,85.46219617199677
13,Max,True,1e-08,0.16879924222301035,4,[0.18199705 0.27655957 0.84945919 0.5192649 ],26476,27.343315742000414
13,SofterMax,False,1e-08,0.16879924222301035,4,[0.18199705 0.27655957 0.84945919 0.5192649 ],26476,68.30208882100123
14,Max,True,1e-08,0.16316400524143787,8,"[0.87601713 0.81596328 0.35866094 0.47422688 0.60714253 0.19637018
 0.64075997 0.60526303]",122429,177.62635869400037
14,SofterMax,False,1e-08,0.16316400524143787,8,"[0.87601713 0.81596328 0.35866094 0.47422688 0.60714253 0.19637018
 0.64075997 0.60526303]",122429,584.0826206439997
15,Max,True,1e-08,0.16934825080029867,4,[0.05907192 0.48323243 0.46332485 0.74629708],25123,25.42116963100125
15,SofterMax,False,1e-08,0.16934825080029867,4,[0.05907192 0.48323243 0.46332485 0.74629708],25123,62.67432873599682
16,Max,True,1e-08,0.1595525654221095,5,[0.67432118 0.16399636 0.57801438 0.77431812 0.82149897],105712,77.75558994099993
16,SofterMax,False,1e-08,0.1595525654221095,5,[0.67432118 0.16399636 0.57801438 0.77431812 0.82149897],105712,217.77857901200332
17,Max,True,1e-08,0.16563248728758667,5,[0.38469589 0.58557131 0.11204223 0.55233623 0.55098756],60791,55.20006671399824
17,SofterMax,False,1e-08,0.16563248728758667,5,[0.38469589 0.58557131 0.11204223 0.55233623 0.55098756],60791,152.65204566399916
18,Max,True,1e-08,0.16381114306605205,6,[0.36972831 0.60726668 0.27727917 0.40417817 0.21652854 0.8057603 ],63097,102.26407876400117
18,SofterMax,False,1e-08,0.16381114306605205,6,[0.36972831 0.60726668 0.27727917 0.40417817 0.21652854 0.8057603 ],63097,301.48898173600173
19,Max,True,1e-08,0.17037203103461385,3,[0.62927225 0.23745149 0.27547116],20252,14.520589449995896
19,SofterMax,False,1e-08,0.17037203103461385,3,[0.62927225 0.23745149 0.27547116],20252,33.06673942600173
20,Max,True,1e-08,0.16120535812620895,6,[0.58983242 0.17930294 0.2959785  0.73215886 0.43726311 0.91015389],71512,86.95055939099984
20,SofterMax,False,1e-08,0.16120535812620895,6,[0.58983242 0.17930294 0.2959785  0.73215886 0.43726311 0.91015389],71512,253.5738309590015
21,Max,True,1e-08,0.15832008118514065,9,"[0.88816066 0.63792183 0.42052031 0.19024463 0.90023425 0.36813712
 0.82472949 0.71240837 0.53268623]",111084,221.55912221100152
21,SofterMax,False,1e-08,0.15832008118514065,9,"[0.88816066 0.63792183 0.42052031 0.19024463 0.90023425 0.36813712
 0.82472949 0.71240837 0.53268623]",111084,762.3009882009937
22,Max,True,1e-08,0.16235649363637783,4,[0.57469288 0.57621838 0.1190566  0.80458261],29638,27.079451400000835
22,SofterMax,False,1e-08,0.16235649363637783,4,[0.57469288 0.57621838 0.1190566  0.80458261],29638,67.75782764600444
23,Max,True,1e-08,0.15760570623050013,7,"[0.64958897 0.39144573 0.22127624 0.36751208 0.33006202 0.34508758
 0.25871238]",77611,112.49100647900195
23,SofterMax,False,1e-08,0.15760570623050013,7,"[0.64958897 0.39144573 0.22127624 0.36751208 0.33006202 0.34508758
 0.25871238]",77611,349.2324550819976
24,Max,True,1e-08,0.1638789358523084,2,[-0.35338165  0.65178239],10341,5.190614523999102
24,SofterMax,False,1e-08,0.1638789358523084,2,[-0.35338165  0.65178239],10341,10.686710081994534
25,Max,True,1e-08,0.1603529552691123,3,[0.1599693  0.62903894 0.86228362],18925,15.153885808002087
25,SofterMax,False,1e-08,0.1603529552691123,3,[0.1599693  0.62903894 0.86228362],18925,34.448413195998
26,Max,True,1e-08,0.16347468902513998,4,[0.64587521 0.86794129 0.18188477 0.29698103],28282,27.242063989004237
26,SofterMax,False,1e-08,0.16347468902513998,4,[0.64587521 0.86794129 0.18188477 0.29698103],28282,67.3220746099978
27,Max,True,1e-08,0.15448913837295794,3,[0.66394607 0.23791891 0.28985033],18082,16.683567211999616
27,SofterMax,False,1e-08,0.15448913837295794,3,[0.66394607 0.23791891 0.28985033],18082,37.4710134220004
28,Max,True,1e-08,0.16347035979155533,4,[0.64927868 0.31674551 0.34469959 0.19792571],40021,34.502669986999535
28,SofterMax,False,1e-08,0.16347035979155533,4,[0.64927868 0.31674551 0.34469959 0.19792571],40021,87.99480405699433
29,Max,True,1e-08,0.1587013545306,5,[0.39516105 0.83821666 0.61125426 0.18540618 0.31673738],44010,57.86051878899889
29,SofterMax,False,1e-08,0.1587013545306,5,[0.39516105 0.83821666 0.61125426 0.18540618 0.31673738],44010,153.76214732399967
30,Max,True,1e-08,0.16178451923800577,7,"[0.38566615 0.17728026 0.86584055 0.400137   0.57771088 0.76330326
 0.43611605]",72803,121.70008784400125
30,SofterMax,False,1e-08,0.16178451923800577,7,"[0.38566615 0.17728026 0.86584055 0.400137   0.57771088 0.76330326
 0.43611605]",72803,375.8802104089991
31,Max,True,1e-08,0.1639062716716243,2,[0.6292672  0.08843113],10522,5.899223303000326
31,SofterMax,False,1e-08,0.1639062716716243,2,[0.6292672  0.08843113],10522,12.045751960999041
32,Max,True,1e-08,0.16319851114939804,2,[0.12740775 0.62956029],54531,23.795217204999062
32,SofterMax,False,1e-08,0.16319851114939804,2,[0.12740775 0.62956029],54531,50.06967140999768
33,Max,True,1e-08,0.15800258340460144,3,[0.6536561  0.03748763 0.38473877],25197,15.941089685999032
33,SofterMax,False,1e-08,0.15800258340460144,3,[0.6536561  0.03748763 0.38473877],25197,36.587320114005706
34,Max,True,1e-08,0.16855933717692445,3,[0.27429756 0.6805267  0.19655587],18685,13.3288894599973
34,SofterMax,False,1e-08,0.16855933717692445,3,[0.27429756 0.6805267  0.19655587],18685,30.41829869800131
35,Max,True,1e-08,0.15426642681154581,2,[0.62098251 0.14019195],10523,6.0257665579993045
35,SofterMax,False,1e-08,0.15426642681154581,2,[0.62098251 0.14019195],10523,12.386478475003969
36,Max,True,1e-08,0.16362293931391034,5,[0.07191994 0.60160788 0.46239478 0.86334198 0.59972559],41665,41.73683767199691
36,SofterMax,False,1e-08,0.16362293931391034,5,[0.07191994 0.60160788 0.46239478 0.86334198 0.59972559],41665,113.41119644400169
37,Max,True,1e-08,0.16291408859498016,4,[0.27597698 0.61692007 0.66772879 0.17886454],23317,24.98999693899532
37,SofterMax,False,1e-08,0.16291408859498016,4,[0.27597698 0.61692007 0.66772879 0.17886454],23317,62.034070207002515
38,Max,True,1e-08,0.16274954482873272,4,[0.44339885 0.20680258 0.6133913  0.3705572 ],29638,26.735681703998125
38,SofterMax,False,1e-08,0.16274954482873272,4,[0.44339885 0.20680258 0.6133913  0.3705572 ],29638,66.80370777999633
39,Max,True,1e-08,0.16058298728371836,2,[0.61472528 0.14532916],11611,5.895747850998305
39,SofterMax,False,1e-08,0.16058298728371836,2,[0.61472528 0.14532916],11611,12.160066404001554
40,Max,True,1e-08,0.16515648291161938,5,[0.276253   0.80427375 0.23087103 0.42600568 0.57350411],66563,57.08455928100011
40,SofterMax,False,1e-08,0.16515648291161938,5,[0.276253   0.80427375 0.23087103 0.42600568 0.57350411],66563,157.63193912499992
41,Max,True,1e-08,0.16187229618489898,5,[0.18200562 0.60247712 0.38324954 0.1948618  0.38946369],34268,42.94808575099887
41,SofterMax,False,1e-08,0.16187229618489898,5,[0.18200562 0.60247712 0.38324954 0.1948618  0.38946369],34268,116.54142925499764
42,Max,True,1e-08,0.16208036422127353,3,[0.65790793 0.19724036 0.24510679],18564,14.4161362080049
42,SofterMax,False,1e-08,0.16208036422127353,3,[0.65790793 0.19724036 0.24510679],18564,32.68965311699867
43,Max,True,1e-08,0.15717025968261844,3,[0.27514547 0.61825653 0.19571613],23267,15.844953800995427
43,SofterMax,False,1e-08,0.15717025968261844,3,[0.27514547 0.61825653 0.19571613],23267,36.40288482100004
44,Max,True,1e-08,0.16108741507060703,8,"[0.76374753 0.40493161 0.3773735  0.60320279 0.75908343 0.59657118
 0.81891766 0.19571354]",73775,403.92899326099723
44,SofterMax,False,1e-08,0.16108741507060703,8,"[0.76374753 0.40493161 0.3773735  0.60320279 0.75908343 0.59657118
 0.81891766 0.19571354]",73775,1247.7380086119956
45,Max,True,1e-08,0.164854569050801,6,[0.78631196 0.2773303  0.20196115 0.60899706 0.44263972 0.78572511],59731,87.20213717799925
45,SofterMax,False,1e-08,0.164854569050801,6,[0.78631196 0.2773303  0.20196115 0.60899706 0.44263972 0.78572511],59731,252.6831709820035
46,Max,True,1e-08,0.17272515855603648,4,[0.59901133 0.32685946 0.18001654 0.4339814 ],30390,27.73167797899805
46,SofterMax,False,1e-08,0.17272515855603648,4,[0.59901133 0.32685946 0.18001654 0.4339814 ],30390,69.50296624300245
47,Max,True,1e-08,0.1663979459854352,2,[0.13314627 0.67704848],7891,5.037628332996974
47,SofterMax,False,1e-08,0.1663979459854352,2,[0.13314627 0.67704848],7891,10.220788448001258
48,Max,True,1e-08,0.16541591782833,5,[0.60126968 0.30643493 0.27748286 0.22999203 0.86905963],115997,83.80899118899833
48,SofterMax,False,1e-08,0.16541591782833,5,[0.60126968 0.30643493 0.27748286 0.22999203 0.86905963],115997,234.70184753600188
49,Max,True,1e-08,0.16044322709547149,3,[0.12263479 0.86367575 0.61669321],19167,14.108837539999513
49,SofterMax,False,1e-08,0.16044322709547149,3,[0.12263479 0.86367575 0.61669321],19167,32.367594276998716
50,Max,True,1e-08,0.1642927505056368,5,[0.77744275 0.64098944 0.82932304 0.13120854 0.81477867],45635,49.01688860199647
50,SofterMax,False,1e-08,0.1642927505056368,5,[0.77744275 0.64098944 0.82932304 0.13120854 0.81477867],45635,131.8726499819968
51,Max,True,1e-08,0.1566366292070151,5,[0.86666374 0.58492935 0.44219067 0.15652302 0.37689103],43471,48.67268349300139
51,SofterMax,False,1e-08,0.1566366292070151,5,[0.86666374 0.58492935 0.44219067 0.15652302 0.37689103],43471,130.02686175599956
52,Max,True,1e-08,0.1654023260434112,3,[0.65304082 0.14422396 0.56606323],20252,14.226209843000106
52,SofterMax,False,1e-08,0.1654023260434112,3,[0.65304082 0.14422396 0.56606323],20252,32.36227932500333
53,Max,True,1e-08,0.1629703832174634,5,[0.58720612 0.08336696 0.46305203 0.85331089 0.46805547],45816,44.61237645300571
53,SofterMax,False,1e-08,0.1629703832174634,5,[0.58720612 0.08336696 0.46305203 0.85331089 0.46805547],45816,121.61328219400457
54,Max,True,1e-08,0.1570962763765369,4,[0.43433792 0.86827622 0.58180353 0.14017847],28584,26.625877111997397
54,SofterMax,False,1e-08,0.1570962763765369,4,[0.43433792 0.86827622 0.58180353 0.14017847],28584,66.12292021900066
55,Max,True,1e-08,0.16110471684101202,6,[0.4503938  0.61616144 0.44389181 0.21210677 0.36544449 0.57625629],51738,86.28838811500464
55,SofterMax,False,1e-08,0.16110471684101202,6,[0.4503938  0.61616144 0.44389181 0.21210677 0.36544449 0.57625629],51738,247.4572908370028
56,Max,True,1e-08,0.16485662395317624,6,[0.78222558 0.83219496 0.50264136 0.50758708 0.79862021 0.19690386],91497,88.36231385599967
56,SofterMax,False,1e-08,0.16485662395317624,6,[0.78222558 0.83219496 0.50264136 0.50758708 0.79862021 0.19690386],91497,259.4006848630015
57,Max,True,1e-08,0.15405376078061597,5,[0.73579037 0.86390208 0.76582988 0.61333822 0.08511939],38238,73.26598953900248
57,SofterMax,False,1e-08,0.15405376078061597,5,[0.73579037 0.86390208 0.76582988 0.61333822 0.08511939],38238,188.7437957209986
58,Max,True,1e-08,0.16318430055926147,4,[0.08638632 0.65885746 0.77856354 0.82260986],38816,34.14310183499765
58,SofterMax,False,1e-08,0.16318430055926147,4,[0.08638632 0.65885746 0.77856354 0.82260986],38816,85.46014305000426
59,Max,True,1e-08,0.16724737330436193,5,[0.35317067 0.60722931 0.21691413 0.27862461 0.87170333],35531,42.370336070998746
59,SofterMax,False,1e-08,0.16724737330436193,5,[0.35317067 0.60722931 0.21691413 0.27862461 0.87170333],35531,113.60211359900131
60,Max,True,1e-08,0.1646841744938869,5,[0.71417442 0.49787647 0.83726342 0.13723539 0.65810063],44553,66.99657269299496
60,SofterMax,False,1e-08,0.1646841744938869,5,[0.71417442 0.49787647 0.83726342 0.13723539 0.65810063],44553,181.50583190899488
61,Max,True,1e-08,0.16831460739120005,5,[0.2759388  0.51903979 0.46232022 0.86621212 0.23131397],47087,59.06275242200354
61,SofterMax,False,1e-08,0.16831460739120005,5,[0.2759388  0.51903979 0.46232022 0.86621212 0.23131397],47087,164.14766305100056
62,Max,True,1e-08,0.17044252285325182,4,[0.17662765 0.52098936 0.33015689 0.47482531],29937,29.188220891002857
62,SofterMax,False,1e-08,0.17044252285325182,4,[0.17662765 0.52098936 0.33015689 0.47482531],29937,73.66585154699715
63,Max,True,1e-08,0.1638762094231016,4,[0.77745809 0.77953877 0.14589059 0.61712139],25724,26.133976058998087
63,SofterMax,False,1e-08,0.1638762094231016,4,[0.77745809 0.77953877 0.14589059 0.61712139],25724,64.48500498100475
64,Max,True,1e-08,0.15991919034182805,4,[0.60849467 0.38807123 0.16611184 0.44354351],41676,33.014597182002035
64,SofterMax,False,1e-08,0.15991919034182805,4,[0.60849467 0.38807123 0.16611184 0.44354351],41676,83.55165542099712
65,Max,True,1e-08,0.1615717836295786,5,[0.18207151 0.61479869 0.61531324 0.96997063 0.28871363],33005,43.45312134800042
65,SofterMax,False,1e-08,0.1615717836295786,5,[0.18207151 0.61479869 0.61531324 0.96997063 0.28871363],33005,116.67842479499814
66,Max,True,1e-08,0.16224792978421887,2,[0.67292907 0.1639327 ],12065,6.655828486997052
66,SofterMax,False,1e-08,0.16224792978421887,2,[0.67292907 0.1639327 ],12065,13.561562297996716
67,Max,True,1e-08,0.16294584695737574,3,[0.62929783 0.16492163 0.71290136],26401,17.39231988100073
67,SofterMax,False,1e-08,0.16294584695737574,3,[0.62929783 0.16492163 0.71290136],26401,39.41586941100104
68,Max,True,1e-08,0.1578905125293914,4,[ 0.63943183  0.29588483 -0.13532161  0.95522782],27530,32.07415002700145
68,SofterMax,False,1e-08,0.1578905125293914,4,[ 0.63943183  0.29588483 -0.13532161  0.95522782],27530,79.22892894100369
69,Max,True,1e-08,0.1544178547674204,5,[0.19818333 0.44584243 0.91864187 0.49206238 0.28022469],39139,49.76169794299494
69,SofterMax,False,1e-08,0.1544178547674204,5,[0.19818333 0.44584243 0.91864187 0.49206238 0.28022469],39139,133.57568922200153
70,Max,True,1e-08,0.1737851316121062,1,[0.08518947],368,0.5908096809944254
70,SofterMax,False,1e-08,0.1737851316121062,1,[0.08518947],368,0.9048183510021772
71,Max,True,1e-08,0.16058311917451792,4,[0.08476551 0.70278153 0.79367168 0.68053929],26778,24.32145095400483
71,SofterMax,False,1e-08,0.16058311917451792,4,[0.08476551 0.70278153 0.79367168 0.68053929],26778,60.47866825100209
72,Max,True,1e-08,0.16817705777741435,7,"[0.76757218 0.71238496 0.06144464 0.93022905 0.41318048 0.82109115
 0.59328645]",88197,189.48624669999845
72,SofterMax,False,1e-08,0.16817705777741435,7,"[0.76757218 0.71238496 0.06144464 0.93022905 0.41318048 0.82109115
 0.59328645]",88197,544.9949608940005
73,Max,True,1e-08,0.1643396809188862,6,[0.61014231 0.05154599 0.83812857 0.60544356 0.4569279  0.6054571 ],70462,85.89879124800063
73,SofterMax,False,1e-08,0.16433971968101677,6,[0.61014929 0.05151715 0.83812378 0.60544398 0.4569412  0.60545568],70462,247.1984236799981
74,Max,True,1e-08,0.1628649781905003,2,[0.65816972 0.12099212],12246,6.785417977000179
74,SofterMax,False,1e-08,0.1628649781905003,2,[0.65816972 0.12099212],12246,13.882170173004852
75,Max,True,1e-08,0.1703325845141869,6,[0.82427093 0.16924047 0.27533421 0.2220102  0.68626243 0.2210252 ],49844,69.4558012330017
75,SofterMax,False,1e-08,0.1703325845141869,6,[0.82427093 0.16924047 0.27533421 0.2220102  0.68626243 0.2210252 ],49844,201.29490698299924
76,Max,True,1e-08,0.15631335714123937,7,"[0.47240885 0.5847799  0.77466157 0.13004328 0.68455489 0.50237925
 0.7933459 ]",69200,138.30252548700082
76,SofterMax,False,1e-08,0.15631335714123937,7,"[0.47240885 0.5847799  0.77466157 0.13004328 0.68455489 0.50237925
 0.7933459 ]",69200,425.30606441500277
77,Max,True,1e-08,0.16593833502917288,3,[0.17789126 0.54650827 0.19504758],15067,12.918604860002233
77,SofterMax,False,1e-08,0.16593833502917288,3,[0.17789126 0.54650827 0.19504758],15067,29.103797791001853
78,Max,True,1e-08,0.16721602237686833,6,[0.88000836 0.58529366 0.16226581 0.88955406 0.90715372 0.44215559],110005,109.54799289099901
78,SofterMax,False,1e-08,0.16721602237686833,6,[0.88000836 0.58529366 0.16226581 0.88955406 0.90715372 0.44215559],111688,327.2336175429955
79,Max,True,1e-08,0.16383270637315386,7,"[0.56421433 0.77848131 0.61694647 0.67411981 0.21415488 0.83827377
 0.64149662]",80256,142.47023732899834
79,SofterMax,False,1e-08,0.16383270637315386,7,"[0.56421433 0.77848131 0.61694647 0.67411981 0.21415488 0.83827377
 0.64149662]",80256,442.34747728899674
80,Max,True,1e-08,0.1572465430138897,4,[0.62998615 0.82842941 0.7226481  0.14019977],30840,25.991438129996823
80,SofterMax,False,1e-08,0.1572465430138897,4,[0.62998615 0.82842941 0.7226481  0.14019977],30840,65.38773661299638
81,Max,True,1e-08,0.17367472801012412,1,[-0.32916505],368,0.19119488199794432
81,SofterMax,False,1e-08,0.17367472801012412,1,[-0.32916505],368,0.3258846520038787
82,Max,True,1e-08,0.161012819637264,4,[0.71770384 0.12366517 0.68631044 0.92050396],147336,77.08296758799406
82,SofterMax,False,1e-08,0.161012819637264,4,[0.71770384 0.12366517 0.68631044 0.92050396],147336,201.65977420499985
83,Max,True,1e-08,0.15939186359287252,7,"[0.13701376 0.31544964 0.57394193 0.41828729 0.29449961 0.8661998
 0.30897725]",73285,110.54318709799554
83,SofterMax,False,1e-08,0.15939186359287252,7,"[0.13701376 0.31544964 0.57394193 0.41828729 0.29449961 0.8661998
 0.30897725]",73285,341.50161176400434
84,Max,True,1e-08,0.15950675383833857,9,"[0.31297695 0.46528034 0.38314526 0.13765887 0.8379231  0.46281408
 0.62751578 0.55214761 0.77217651]",93967,239.08222524099983
84,SofterMax,False,1e-08,0.15950675383833857,9,"[0.31297695 0.46528034 0.38314526 0.13765887 0.8379231  0.46281408
 0.62751578 0.55214761 0.77217651]",93967,753.2960534200029
85,Max,True,1e-08,0.1655319280659574,6,[0.20245624 0.77627888 0.4202267  0.78328572 0.65942573 0.37692272],56365,80.58661051300442
85,SofterMax,False,1e-08,0.1655319280659574,6,[0.20245624 0.77627888 0.4202267  0.78328572 0.65942573 0.37692272],56365,235.10310461399786
86,Max,True,1e-08,0.1668249672581024,4,[0.06561145 0.769455   0.86382426 0.74561131],23166,26.555404450002243
86,SofterMax,False,1e-08,0.1668249672581024,4,[0.06561145 0.769455   0.86382426 0.74561131],23166,64.4842569609973
87,Max,True,1e-08,0.16179378965478616,4,[0.44271018 0.13093786 0.8676685  0.61199193],30840,30.061012389996904
87,SofterMax,False,1e-08,0.16179378965478616,4,[0.44271018 0.13093786 0.8676685  0.61199193],30840,75.38411055199686
88,Max,True,1e-08,0.1628405819348974,7,"[0.43699111 0.89799565 0.36869422 0.6150497  0.89951007 0.29482946
 0.18600449]",88667,126.94936738099932
88,SofterMax,False,1e-08,0.1628405819348974,7,"[0.43699111 0.89799565 0.36869422 0.6150497  0.89951007 0.29482946
 0.18600449]",88667,397.80157119300566
89,Max,True,1e-08,0.1659687506639044,4,[0.27729468 0.44347596 0.19697642 0.5188931 ],30541,27.55871241600107
89,SofterMax,False,1e-08,0.1659687506639044,4,[0.27729468 0.44347596 0.19697642 0.5188931 ],30541,69.40344918899791
90,Max,True,1e-08,0.1558732681188883,5,[0.54253954 0.8682411  0.09847301 0.67682244 0.97583845],38238,48.835496908002824
90,SofterMax,False,1e-08,0.1558732681188883,5,[0.54253954 0.8682411  0.09847301 0.67682244 0.97583845],38238,131.96532646500418
91,Max,True,1e-08,0.1630935237702266,3,[0.29583748 0.14241036 0.62150302],16876,12.969536709999375
91,SofterMax,False,1e-08,0.1630935237702266,3,[0.29583748 0.14241036 0.62150302],16876,29.478822953002236
92,Max,True,1e-08,0.1692930813760064,6,[0.0895804  0.86236237 0.55830442 0.58532307 0.67604212 0.70920168],59731,71.48952689800353
92,SofterMax,False,1e-08,0.1692930813760064,6,[0.0895804  0.86236237 0.55830442 0.58532307 0.67604212 0.70920168],59731,208.8686064969952
93,Max,True,1e-08,0.16622582435346356,4,[0.65331535 0.38029688 0.16865556 0.32621559],25123,34.18691032700008
93,SofterMax,False,1e-08,0.16622582435346356,4,[0.65331535 0.38029688 0.16865556 0.32621559],25123,82.55351687900111
94,Max,True,1e-08,0.16040817371095017,3,[0.69066826 0.32722856 0.18189322],16273,13.05629074099852
94,SofterMax,False,1e-08,0.16040817371095017,3,[0.69066826 0.32722856 0.18189322],16273,29.49360417299613
95,Max,True,1e-08,0.1629785249747115,3,[0.11740561 0.61429417 0.82438494],20373,15.153553001997352
95,SofterMax,False,1e-08,0.1629785249747115,3,[0.11740561 0.61429417 0.82438494],20373,34.265541163003945
96,Max,True,1e-08,0.15973669599175638,3,[0.62914745 0.0558331  0.82781351],21097,16.10108591899916
96,SofterMax,False,1e-08,0.15973669599175638,3,[0.62914745 0.0558331  0.82781351],21097,36.36164999900211
97,Max,True,1e-08,0.1566173707086162,8,"[0.43696273 0.60189906 0.71605897 0.20856445 0.58575789 0.42007274
 0.4706783  0.74381733]",117565,220.58914218899736
97,SofterMax,False,1e-08,0.1566173707086162,8,"[0.43696273 0.60189906 0.71605897 0.20856445 0.58575789 0.42007274
 0.4706783  0.74381733]",117565,737.5165490360014
98,Max,True,1e-08,0.15310910782318016,6,[0.67398814 0.87836131 0.54309646 0.70047901 0.76890368 0.13236262],53421,73.63785778400052
98,SofterMax,False,1e-08,0.15310910782318016,6,[0.67398814 0.87836131 0.54309646 0.70047901 0.76890368 0.13236262],53421,211.98387789000117
99,Max,True,1e-08,0.15914597662335705,3,[0.1398507  0.62410738 0.95741643],17840,16.383301606001623
99,SofterMax,False,1e-08,0.15914597662335705,3,[0.1398507  0.62410738 0.95741643],17840,37.135693739997805
