iteration,max,test-rmse,numKnots,knotLoc,iterations,time
29,True,0.0889782756028425,6,[ 0.02612484  0.30865625  0.70498876  0.02581076 -0.00327312  0.89789559],436,3.1605022120020294
29,False,0.0889782756028425,6,[ 0.02612484  0.30865625  0.70498876  0.02581076 -0.00327312  0.89789559],436,24.599740726000164
