iteration,max,test-rmse,numKnots,knotLoc,iterations,time
98,True,0.09820125596707016,7,"[0.38871002 0.51503377 0.97895722 0.2531567  0.59875649 0.19592926
 0.82848196]",484,1.3335180900012347
93,False,0.10231700997324526,8,"[0.47357858 0.61680443 0.19759064 0.24475186 0.80718901 0.92376137
 0.61360183 0.1316396 ]",382,2.613231506000375
