iteration,method,test-rmse,time,model
0,Knotilus,0.11022104808342591,1.635264193999319,<matrixMath.Knotilus object at 0x7f772c3d9fa0>
0,GAM,0.09118524476329211,5.320879343999877,"LinearGAM(callbacks=[Deviance(), Diffs()], fit_intercept=True, 
   max_iter=100, scale=None, terms=s(0) + intercept, tol=0.0001, 
   verbose=False)"
0,MARS,0.11283267348407461,0.1663605980002103,Earth()
1,Knotilus,0.1135866661133546,4.262014308000289,<matrixMath.Knotilus object at 0x7f772c3d9cd0>
1,GAM,0.08984181962644876,4.576227298000049,"LinearGAM(callbacks=[Deviance(), Diffs()], fit_intercept=True, 
   max_iter=100, scale=None, terms=s(0) + intercept, tol=0.0001, 
   verbose=False)"
1,MARS,0.10588363929058986,0.6709753409995756,Earth()
2,Knotilus,0.12176524078433629,0.36065426299956016,<matrixMath.Knotilus object at 0x7f772c3bb3d0>
2,GAM,0.09109746377697951,4.1783627980003075,"LinearGAM(callbacks=[Deviance(), Diffs()], fit_intercept=True, 
   max_iter=100, scale=None, terms=s(0) + intercept, tol=0.0001, 
   verbose=False)"
2,MARS,0.09345380476252053,0.17096567699991283,Earth()
3,Knotilus,0.09075014487784483,13.702889924999909,<matrixMath.Knotilus object at 0x7f772c4096a0>
3,GAM,0.09128680945350807,5.171153524000147,"LinearGAM(callbacks=[Deviance(), Diffs()], fit_intercept=True, 
   max_iter=100, scale=None, terms=s(0) + intercept, tol=0.0001, 
   verbose=False)"
3,MARS,0.09103510901705841,0.2273185759995613,Earth()
4,Knotilus,0.09050200667467606,11.24722799400024,<matrixMath.Knotilus object at 0x7f772c3d9460>
4,GAM,0.09106197633578612,4.481585802000154,"LinearGAM(callbacks=[Deviance(), Diffs()], fit_intercept=True, 
   max_iter=100, scale=None, terms=s(0) + intercept, tol=0.0001, 
   verbose=False)"
4,MARS,0.10113034509194173,0.3958497459998398,Earth()
5,Knotilus,0.10912424208966225,1.766148909999174,<matrixMath.Knotilus object at 0x7f772c3a8160>
5,GAM,0.09151908542925188,4.888938989999588,"LinearGAM(callbacks=[Deviance(), Diffs()], fit_intercept=True, 
   max_iter=100, scale=None, terms=s(0) + intercept, tol=0.0001, 
   verbose=False)"
5,MARS,0.09656612279978187,0.4152162029995452,Earth()
6,Knotilus,0.08944944030701352,9.355223526999907,<matrixMath.Knotilus object at 0x7f772c36fd90>
6,GAM,0.08968549705011543,4.5461199139999735,"LinearGAM(callbacks=[Deviance(), Diffs()], fit_intercept=True, 
   max_iter=100, scale=None, terms=s(0) + intercept, tol=0.0001, 
   verbose=False)"
6,MARS,0.09121993557283509,0.301155977000235,Earth()
7,Knotilus,0.10883681646358571,1.9693950660002884,<matrixMath.Knotilus object at 0x7f772c36fe50>
7,GAM,0.09061557548685958,4.942167048000556,"LinearGAM(callbacks=[Deviance(), Diffs()], fit_intercept=True, 
   max_iter=100, scale=None, terms=s(0) + intercept, tol=0.0001, 
   verbose=False)"
7,MARS,0.09304793441282987,0.6505095559996334,Earth()
8,Knotilus,0.11083858334247318,2.1992553270001736,<matrixMath.Knotilus object at 0x7f772c3d19d0>
8,GAM,0.090513218934517,5.236437469000521,"LinearGAM(callbacks=[Deviance(), Diffs()], fit_intercept=True, 
   max_iter=100, scale=None, terms=s(0) + intercept, tol=0.0001, 
   verbose=False)"
8,MARS,0.11471996366712443,0.5064093210003193,Earth()
9,Knotilus,0.12373321943770377,0.24773699399975158,<matrixMath.Knotilus object at 0x7f772c3fa910>
9,GAM,0.09237256772212608,5.009272020000026,"LinearGAM(callbacks=[Deviance(), Diffs()], fit_intercept=True, 
   max_iter=100, scale=None, terms=s(0) + intercept, tol=0.0001, 
   verbose=False)"
9,MARS,0.10733476250573708,0.33866255799966893,Earth()
10,Knotilus,0.0976816045366569,3.6154388019995167,<matrixMath.Knotilus object at 0x7f772c391520>
10,GAM,0.09026412320139185,5.39416755900038,"LinearGAM(callbacks=[Deviance(), Diffs()], fit_intercept=True, 
   max_iter=100, scale=None, terms=s(0) + intercept, tol=0.0001, 
   verbose=False)"
10,MARS,0.09035873774904085,0.34384615299950383,Earth()
11,Knotilus,0.10867060682533897,1.7853902859997106,<matrixMath.Knotilus object at 0x7f772c36fe20>
11,GAM,0.09125702724126578,5.03844677699999,"LinearGAM(callbacks=[Deviance(), Diffs()], fit_intercept=True, 
   max_iter=100, scale=None, terms=s(0) + intercept, tol=0.0001, 
   verbose=False)"
11,MARS,0.09554219270293415,0.09350352799992834,Earth()
12,Knotilus,0.09127568063382104,14.136207335000108,<matrixMath.Knotilus object at 0x7f772c391340>
12,GAM,0.09143551677078111,4.878960643999562,"LinearGAM(callbacks=[Deviance(), Diffs()], fit_intercept=True, 
   max_iter=100, scale=None, terms=s(0) + intercept, tol=0.0001, 
   verbose=False)"
12,MARS,0.1042709112073597,0.25511504400037666,Earth()
13,Knotilus,0.09031361265284786,11.69748923499992,<matrixMath.Knotilus object at 0x7f772c7e2e20>
13,GAM,0.09070793908459696,4.663690651000252,"LinearGAM(callbacks=[Deviance(), Diffs()], fit_intercept=True, 
   max_iter=100, scale=None, terms=s(0) + intercept, tol=0.0001, 
   verbose=False)"
13,MARS,0.09057759337328282,0.12774295800045365,Earth()
14,Knotilus,0.08944110249661356,11.846802401999412,<matrixMath.Knotilus object at 0x7f772c7e2220>
14,GAM,0.08962223983409447,5.127453662999869,"LinearGAM(callbacks=[Deviance(), Diffs()], fit_intercept=True, 
   max_iter=100, scale=None, terms=s(0) + intercept, tol=0.0001, 
   verbose=False)"
14,MARS,0.10058561018650393,0.19255515900022147,Earth()
15,Knotilus,0.09072900896933093,10.406798570999854,<matrixMath.Knotilus object at 0x7f772c891160>
15,GAM,0.091234079190672,4.956521735999559,"LinearGAM(callbacks=[Deviance(), Diffs()], fit_intercept=True, 
   max_iter=100, scale=None, terms=s(0) + intercept, tol=0.0001, 
   verbose=False)"
15,MARS,0.09197677273822881,0.5282704000001104,Earth()
16,Knotilus,0.10910897641780597,2.367082890999882,<matrixMath.Knotilus object at 0x7f772c380250>
16,GAM,0.09100812184569322,4.639992139000242,"LinearGAM(callbacks=[Deviance(), Diffs()], fit_intercept=True, 
   max_iter=100, scale=None, terms=s(0) + intercept, tol=0.0001, 
   verbose=False)"
16,MARS,0.0951679018442808,0.6868564910000714,Earth()
17,Knotilus,0.08960598580891685,9.420134023999708,<matrixMath.Knotilus object at 0x7f772c380b20>
17,GAM,0.09006259952066537,4.952955609000128,"LinearGAM(callbacks=[Deviance(), Diffs()], fit_intercept=True, 
   max_iter=100, scale=None, terms=s(0) + intercept, tol=0.0001, 
   verbose=False)"
17,MARS,0.09169823690792882,0.4737784349999856,Earth()
18,Knotilus,0.0913825607162159,10.211193940000157,<matrixMath.Knotilus object at 0x7f772c382e50>
18,GAM,0.09202525012424972,4.68814138200014,"LinearGAM(callbacks=[Deviance(), Diffs()], fit_intercept=True, 
   max_iter=100, scale=None, terms=s(0) + intercept, tol=0.0001, 
   verbose=False)"
18,MARS,0.10777877766222378,0.4624468279998837,Earth()
19,Knotilus,0.0891862452694513,9.886940893999963,<matrixMath.Knotilus object at 0x7f772c380220>
19,GAM,0.08987560350007885,4.7297069949991055,"LinearGAM(callbacks=[Deviance(), Diffs()], fit_intercept=True, 
   max_iter=100, scale=None, terms=s(0) + intercept, tol=0.0001, 
   verbose=False)"
19,MARS,0.10904280184903048,0.35033489699981146,Earth()
20,Knotilus,0.08931119342591473,8.288198045999707,<matrixMath.Knotilus object at 0x7f772c32dee0>
20,GAM,0.09008519041526353,4.588662979000219,"LinearGAM(callbacks=[Deviance(), Diffs()], fit_intercept=True, 
   max_iter=100, scale=None, terms=s(0) + intercept, tol=0.0001, 
   verbose=False)"
20,MARS,0.09560496926107391,0.2726942589997634,Earth()
21,Knotilus,0.09799232016328359,6.035794286000055,<matrixMath.Knotilus object at 0x7f772c32df10>
21,GAM,0.09083461515980118,4.8497948590002125,"LinearGAM(callbacks=[Deviance(), Diffs()], fit_intercept=True, 
   max_iter=100, scale=None, terms=s(0) + intercept, tol=0.0001, 
   verbose=False)"
21,MARS,0.09458743966019836,0.7040893329995015,Earth()
22,Knotilus,0.0909739445356442,15.260067495999465,<matrixMath.Knotilus object at 0x7f772c350c70>
22,GAM,0.09131682123807477,4.667943186999764,"LinearGAM(callbacks=[Deviance(), Diffs()], fit_intercept=True, 
   max_iter=100, scale=None, terms=s(0) + intercept, tol=0.0001, 
   verbose=False)"
22,MARS,0.09158553340795166,0.27237918399987393,Earth()
23,Knotilus,0.11084625778640171,1.4374571489997834,<matrixMath.Knotilus object at 0x7f772c350700>
23,GAM,0.09221505511010518,4.67286963800052,"LinearGAM(callbacks=[Deviance(), Diffs()], fit_intercept=True, 
   max_iter=100, scale=None, terms=s(0) + intercept, tol=0.0001, 
   verbose=False)"
23,MARS,0.10450814691103681,0.22039967300042917,Earth()
24,Knotilus,0.11730635585675965,1.4926220809993538,<matrixMath.Knotilus object at 0x7f772c32d070>
24,GAM,0.09046668281157753,4.610028500000226,"LinearGAM(callbacks=[Deviance(), Diffs()], fit_intercept=True, 
   max_iter=100, scale=None, terms=s(0) + intercept, tol=0.0001, 
   verbose=False)"
24,MARS,0.09976378174222524,0.2493787040002644,Earth()
25,Knotilus,0.11537395959999731,3.6890281679998225,<matrixMath.Knotilus object at 0x7f772c32db50>
25,GAM,0.09111838856169055,5.128431576999901,"LinearGAM(callbacks=[Deviance(), Diffs()], fit_intercept=True, 
   max_iter=100, scale=None, terms=s(0) + intercept, tol=0.0001, 
   verbose=False)"
25,MARS,0.09236133064476629,0.5210100110007261,Earth()
26,Knotilus,0.08975327156595206,10.558528667000246,<matrixMath.Knotilus object at 0x7f772c7f35b0>
26,GAM,0.09002053401734485,4.369146863999958,"LinearGAM(callbacks=[Deviance(), Diffs()], fit_intercept=True, 
   max_iter=100, scale=None, terms=s(0) + intercept, tol=0.0001, 
   verbose=False)"
26,MARS,0.0905110350873498,0.29578654899978574,Earth()
27,Knotilus,0.09125782152450082,10.886625685999206,<matrixMath.Knotilus object at 0x7f772c3c8ca0>
27,GAM,0.09170274935442042,5.099654227999963,"LinearGAM(callbacks=[Deviance(), Diffs()], fit_intercept=True, 
   max_iter=100, scale=None, terms=s(0) + intercept, tol=0.0001, 
   verbose=False)"
27,MARS,0.10071203674165982,0.28767164600049,Earth()
28,Knotilus,0.08902641649682486,36.969753334000416,<matrixMath.Knotilus object at 0x7f772c873250>
28,GAM,0.0898440597140901,4.698674551999829,"LinearGAM(callbacks=[Deviance(), Diffs()], fit_intercept=True, 
   max_iter=100, scale=None, terms=s(0) + intercept, tol=0.0001, 
   verbose=False)"
28,MARS,0.09137403427717458,0.24468023300050845,Earth()
29,Knotilus,0.09935510849377471,5.134689823999906,<matrixMath.Knotilus object at 0x7f772c3a8790>
29,GAM,0.09168959040804525,4.705050328000652,"LinearGAM(callbacks=[Deviance(), Diffs()], fit_intercept=True, 
   max_iter=100, scale=None, terms=s(0) + intercept, tol=0.0001, 
   verbose=False)"
29,MARS,0.09448193953290082,0.19081681799980288,Earth()
30,Knotilus,0.12459237794358691,0.37147198200000275,<matrixMath.Knotilus object at 0x7f772c3c8c70>
30,GAM,0.09106325639507416,4.28858830199988,"LinearGAM(callbacks=[Deviance(), Diffs()], fit_intercept=True, 
   max_iter=100, scale=None, terms=s(0) + intercept, tol=0.0001, 
   verbose=False)"
30,MARS,0.09098107734640308,0.2592324599991116,Earth()
31,Knotilus,0.0905398735157848,49.164378371000566,<matrixMath.Knotilus object at 0x7f772c8db4c0>
31,GAM,0.09127725034349689,4.318372551999346,"LinearGAM(callbacks=[Deviance(), Diffs()], fit_intercept=True, 
   max_iter=100, scale=None, terms=s(0) + intercept, tol=0.0001, 
   verbose=False)"
31,MARS,0.09630681513909357,0.2600133959995219,Earth()
32,Knotilus,0.10018919355057075,4.384993058999498,<matrixMath.Knotilus object at 0x7f772c3320d0>
32,GAM,0.09116860476727703,4.377760483000202,"LinearGAM(callbacks=[Deviance(), Diffs()], fit_intercept=True, 
   max_iter=100, scale=None, terms=s(0) + intercept, tol=0.0001, 
   verbose=False)"
32,MARS,0.09757059627266566,0.589171431000068,Earth()
33,Knotilus,0.11819229584455168,6.6761747950004064,<matrixMath.Knotilus object at 0x7f772c2c26d0>
33,GAM,0.09031308251066575,4.485036203000163,"LinearGAM(callbacks=[Deviance(), Diffs()], fit_intercept=True, 
   max_iter=100, scale=None, terms=s(0) + intercept, tol=0.0001, 
   verbose=False)"
33,MARS,0.09236160564851172,0.7277904429993214,Earth()
34,Knotilus,0.12538999188974698,0.25012916199921165,<matrixMath.Knotilus object at 0x7f772c45b340>
34,GAM,0.09141485322574322,5.2780519150001055,"LinearGAM(callbacks=[Deviance(), Diffs()], fit_intercept=True, 
   max_iter=100, scale=None, terms=s(0) + intercept, tol=0.0001, 
   verbose=False)"
34,MARS,0.119997909594494,0.25206367400005547,Earth()
35,Knotilus,0.11106646588462024,1.8787452879996636,<matrixMath.Knotilus object at 0x7f772c3516d0>
35,GAM,0.09198411366776177,4.746366819999821,"LinearGAM(callbacks=[Deviance(), Diffs()], fit_intercept=True, 
   max_iter=100, scale=None, terms=s(0) + intercept, tol=0.0001, 
   verbose=False)"
35,MARS,0.09205032244972243,0.36429908700029046,Earth()
36,Knotilus,0.10784814257714526,3.138523861000067,<matrixMath.Knotilus object at 0x7f772c330130>
36,GAM,0.09079786072203519,4.801459660999171,"LinearGAM(callbacks=[Deviance(), Diffs()], fit_intercept=True, 
   max_iter=100, scale=None, terms=s(0) + intercept, tol=0.0001, 
   verbose=False)"
36,MARS,0.09208437723836052,0.4615518480004539,Earth()
37,Knotilus,0.0903246024650325,12.42073558300035,<matrixMath.Knotilus object at 0x7f772c712790>
37,GAM,0.09099208293147976,4.83688533700024,"LinearGAM(callbacks=[Deviance(), Diffs()], fit_intercept=True, 
   max_iter=100, scale=None, terms=s(0) + intercept, tol=0.0001, 
   verbose=False)"
37,MARS,0.09441815416791817,0.19868381400010549,Earth()
38,Knotilus,0.09063390608007646,17.04423539599975,<matrixMath.Knotilus object at 0x7f772c524190>
38,GAM,0.09118777578377653,4.890971322999576,"LinearGAM(callbacks=[Deviance(), Diffs()], fit_intercept=True, 
   max_iter=100, scale=None, terms=s(0) + intercept, tol=0.0001, 
   verbose=False)"
38,MARS,0.09386463979548015,0.4565015919997677,Earth()
39,Knotilus,0.09875502267944622,4.993589319000421,<matrixMath.Knotilus object at 0x7f772c2e0760>
39,GAM,0.08973026450239548,4.997626426000352,"LinearGAM(callbacks=[Deviance(), Diffs()], fit_intercept=True, 
   max_iter=100, scale=None, terms=s(0) + intercept, tol=0.0001, 
   verbose=False)"
39,MARS,0.10720091577050408,0.34156783300022653,Earth()
40,Knotilus,0.09031439131880804,9.241317117999643,<matrixMath.Knotilus object at 0x7f772c2c2220>
40,GAM,0.09088763768890291,4.964797248999275,"LinearGAM(callbacks=[Deviance(), Diffs()], fit_intercept=True, 
   max_iter=100, scale=None, terms=s(0) + intercept, tol=0.0001, 
   verbose=False)"
40,MARS,0.10629805625155064,0.2613174420002906,Earth()
41,Knotilus,0.11196571575806967,1.980164519999562,<matrixMath.Knotilus object at 0x7f772c2c24f0>
41,GAM,0.09151246536699563,5.190880455999832,"LinearGAM(callbacks=[Deviance(), Diffs()], fit_intercept=True, 
   max_iter=100, scale=None, terms=s(0) + intercept, tol=0.0001, 
   verbose=False)"
41,MARS,0.0961656713964759,0.5378400039999178,Earth()
42,Knotilus,0.10948119388108239,2.107327646000158,<matrixMath.Knotilus object at 0x7f772c2d8340>
42,GAM,0.09107722664563739,4.516739427000175,"LinearGAM(callbacks=[Deviance(), Diffs()], fit_intercept=True, 
   max_iter=100, scale=None, terms=s(0) + intercept, tol=0.0001, 
   verbose=False)"
42,MARS,0.10119610100191967,0.28979442800027755,Earth()
43,Knotilus,0.09874008397518937,4.37274070300009,<matrixMath.Knotilus object at 0x7f772c2d8940>
43,GAM,0.09042054343658572,4.740837102000114,"LinearGAM(callbacks=[Deviance(), Diffs()], fit_intercept=True, 
   max_iter=100, scale=None, terms=s(0) + intercept, tol=0.0001, 
   verbose=False)"
43,MARS,0.09299309533618365,0.30450921500050754,Earth()
44,Knotilus,0.09223936509193982,11.822028671000226,<matrixMath.Knotilus object at 0x7f772c2c2c70>
44,GAM,0.09259042092635532,4.57334222999998,"LinearGAM(callbacks=[Deviance(), Diffs()], fit_intercept=True, 
   max_iter=100, scale=None, terms=s(0) + intercept, tol=0.0001, 
   verbose=False)"
44,MARS,0.09269350915721125,0.1451686050004355,Earth()
45,Knotilus,0.0899793272884003,8.59337810300076,<matrixMath.Knotilus object at 0x7f772c2e0b80>
45,GAM,0.090293463201985,4.367149489999974,"LinearGAM(callbacks=[Deviance(), Diffs()], fit_intercept=True, 
   max_iter=100, scale=None, terms=s(0) + intercept, tol=0.0001, 
   verbose=False)"
45,MARS,0.09198516550242344,0.39686630699998204,Earth()
46,Knotilus,0.0909943499095021,18.584990098999697,<matrixMath.Knotilus object at 0x7f772c2bbb50>
46,GAM,0.09150819693563376,5.065892530000383,"LinearGAM(callbacks=[Deviance(), Diffs()], fit_intercept=True, 
   max_iter=100, scale=None, terms=s(0) + intercept, tol=0.0001, 
   verbose=False)"
46,MARS,0.09414893017977397,0.22513005400014663,Earth()
47,Knotilus,0.09816396119905502,4.464793785999973,<matrixMath.Knotilus object at 0x7f772c2e0f10>
47,GAM,0.08964360705254766,5.363341496999965,"LinearGAM(callbacks=[Deviance(), Diffs()], fit_intercept=True, 
   max_iter=100, scale=None, terms=s(0) + intercept, tol=0.0001, 
   verbose=False)"
47,MARS,0.11086386236661308,0.5351295840000603,Earth()
48,Knotilus,0.09015330647252523,12.089902839999922,<matrixMath.Knotilus object at 0x7f772c2bb8b0>
48,GAM,0.09051656678540652,4.959785359999842,"LinearGAM(callbacks=[Deviance(), Diffs()], fit_intercept=True, 
   max_iter=100, scale=None, terms=s(0) + intercept, tol=0.0001, 
   verbose=False)"
48,MARS,0.1050222513231944,0.19842123499984154,Earth()
49,Knotilus,0.1102010256591872,1.8307705589995749,<matrixMath.Knotilus object at 0x7f772c380d00>
49,GAM,0.09142247954639225,4.899510649000149,"LinearGAM(callbacks=[Deviance(), Diffs()], fit_intercept=True, 
   max_iter=100, scale=None, terms=s(0) + intercept, tol=0.0001, 
   verbose=False)"
49,MARS,0.10248356884328753,0.2507296049998331,Earth()
50,Knotilus,0.0909083500899593,10.423550473000432,<matrixMath.Knotilus object at 0x7f772c330790>
50,GAM,0.09174013170470831,5.339649837000252,"LinearGAM(callbacks=[Deviance(), Diffs()], fit_intercept=True, 
   max_iter=100, scale=None, terms=s(0) + intercept, tol=0.0001, 
   verbose=False)"
50,MARS,0.09305126669484864,0.22966618099962943,Earth()
51,Knotilus,0.09004313408465972,14.363833248000446,<matrixMath.Knotilus object at 0x7f772c330160>
51,GAM,0.09076758985106062,5.01771344000008,"LinearGAM(callbacks=[Deviance(), Diffs()], fit_intercept=True, 
   max_iter=100, scale=None, terms=s(0) + intercept, tol=0.0001, 
   verbose=False)"
51,MARS,0.09194326130308439,0.3068791670002611,Earth()
52,Knotilus,0.0898435997137441,17.846647850999943,<matrixMath.Knotilus object at 0x7f772c320a90>
52,GAM,0.09053786759155369,5.474450099999558,"LinearGAM(callbacks=[Deviance(), Diffs()], fit_intercept=True, 
   max_iter=100, scale=None, terms=s(0) + intercept, tol=0.0001, 
   verbose=False)"
52,MARS,0.11772085496344163,0.14597668999977031,Earth()
53,Knotilus,0.09007530763801053,14.452493609000157,<matrixMath.Knotilus object at 0x7f772c2e0940>
53,GAM,0.09036339485527527,4.204974681999374,"LinearGAM(callbacks=[Deviance(), Diffs()], fit_intercept=True, 
   max_iter=100, scale=None, terms=s(0) + intercept, tol=0.0001, 
   verbose=False)"
53,MARS,0.09731883214732953,0.306277542999851,Earth()
54,Knotilus,0.0911412997183314,8.807649882999613,<matrixMath.Knotilus object at 0x7f772c304ee0>
54,GAM,0.09159000100394113,4.59980945299958,"LinearGAM(callbacks=[Deviance(), Diffs()], fit_intercept=True, 
   max_iter=100, scale=None, terms=s(0) + intercept, tol=0.0001, 
   verbose=False)"
54,MARS,0.09987684301333051,0.46716562200072076,Earth()
55,Knotilus,0.09094889098393434,12.016896326999813,<matrixMath.Knotilus object at 0x7f772c2e0670>
55,GAM,0.09199476702965238,4.302701624000292,"LinearGAM(callbacks=[Deviance(), Diffs()], fit_intercept=True, 
   max_iter=100, scale=None, terms=s(0) + intercept, tol=0.0001, 
   verbose=False)"
55,MARS,0.09906989559290862,0.23587757099994633,Earth()
56,Knotilus,0.09941582262000559,7.3186259359999895,<matrixMath.Knotilus object at 0x7f772c320310>
56,GAM,0.09041244329007796,4.280935864999265,"LinearGAM(callbacks=[Deviance(), Diffs()], fit_intercept=True, 
   max_iter=100, scale=None, terms=s(0) + intercept, tol=0.0001, 
   verbose=False)"
56,MARS,0.09970464111596675,0.5040697069998714,Earth()
57,Knotilus,0.09073230968404371,9.018430259000525,<matrixMath.Knotilus object at 0x7f772c60cd90>
57,GAM,0.09142150835678681,4.2634796299998925,"LinearGAM(callbacks=[Deviance(), Diffs()], fit_intercept=True, 
   max_iter=100, scale=None, terms=s(0) + intercept, tol=0.0001, 
   verbose=False)"
57,MARS,0.10490211385170646,0.2028079069996238,Earth()
58,Knotilus,0.09672777030274285,5.192210702000011,<matrixMath.Knotilus object at 0x7f772c60c8e0>
58,GAM,0.09047493661917685,4.311348784999609,"LinearGAM(callbacks=[Deviance(), Diffs()], fit_intercept=True, 
   max_iter=100, scale=None, terms=s(0) + intercept, tol=0.0001, 
   verbose=False)"
58,MARS,0.11749312876256965,0.19076149000011355,Earth()
59,Knotilus,0.09003967730179105,10.392460531000324,<matrixMath.Knotilus object at 0x7f772c873280>
59,GAM,0.09029016042451343,4.606514291000167,"LinearGAM(callbacks=[Deviance(), Diffs()], fit_intercept=True, 
   max_iter=100, scale=None, terms=s(0) + intercept, tol=0.0001, 
   verbose=False)"
59,MARS,0.09651408401390252,0.39344694499959587,Earth()
60,Knotilus,0.10743991224065207,2.0356220190005843,<matrixMath.Knotilus object at 0x7f772c3c88e0>
60,GAM,0.08972845287221905,4.631714568999996,"LinearGAM(callbacks=[Deviance(), Diffs()], fit_intercept=True, 
   max_iter=100, scale=None, terms=s(0) + intercept, tol=0.0001, 
   verbose=False)"
60,MARS,0.10808787902923916,0.14144349900016095,Earth()
61,Knotilus,0.11664583742097863,1.372455128999718,<matrixMath.Knotilus object at 0x7f772c320eb0>
61,GAM,0.09118150972230142,5.271363883000049,"LinearGAM(callbacks=[Deviance(), Diffs()], fit_intercept=True, 
   max_iter=100, scale=None, terms=s(0) + intercept, tol=0.0001, 
   verbose=False)"
61,MARS,0.1148401246343674,0.4051140050005415,Earth()
62,Knotilus,0.09880264296119357,4.918649051999637,<matrixMath.Knotilus object at 0x7f772c293820>
62,GAM,0.08999124590278582,4.631424707000406,"LinearGAM(callbacks=[Deviance(), Diffs()], fit_intercept=True, 
   max_iter=100, scale=None, terms=s(0) + intercept, tol=0.0001, 
   verbose=False)"
62,MARS,0.09439764092905979,0.6900980110003729,Earth()
63,Knotilus,0.09038872878563305,8.7436816190002,<matrixMath.Knotilus object at 0x7f772c7a1e20>
63,GAM,0.09109949941682544,5.14593972000057,"LinearGAM(callbacks=[Deviance(), Diffs()], fit_intercept=True, 
   max_iter=100, scale=None, terms=s(0) + intercept, tol=0.0001, 
   verbose=False)"
63,MARS,0.09506878396006381,0.2607725309999296,Earth()
64,Knotilus,0.08874146510761338,9.7110381399998,<matrixMath.Knotilus object at 0x7f772c304640>
64,GAM,0.08918103768159692,4.592948664999312,"LinearGAM(callbacks=[Deviance(), Diffs()], fit_intercept=True, 
   max_iter=100, scale=None, terms=s(0) + intercept, tol=0.0001, 
   verbose=False)"
64,MARS,0.10719692020027911,0.3778181259995108,Earth()
65,Knotilus,0.09018496515046608,8.577389379000124,<matrixMath.Knotilus object at 0x7f772c56f490>
65,GAM,0.09049213178198161,4.871014182000181,"LinearGAM(callbacks=[Deviance(), Diffs()], fit_intercept=True, 
   max_iter=100, scale=None, terms=s(0) + intercept, tol=0.0001, 
   verbose=False)"
65,MARS,0.090826184690033,0.21682101100032014,Earth()
66,Knotilus,0.09002114734297634,7.460689930000626,<matrixMath.Knotilus object at 0x7f772c320c10>
66,GAM,0.09070009667678659,4.870361814999342,"LinearGAM(callbacks=[Deviance(), Diffs()], fit_intercept=True, 
   max_iter=100, scale=None, terms=s(0) + intercept, tol=0.0001, 
   verbose=False)"
66,MARS,0.09329097715675076,0.47130678100074874,Earth()
67,Knotilus,0.10925775762738127,1.549425051000071,<matrixMath.Knotilus object at 0x7f772c27ed00>
67,GAM,0.08973105614803853,5.111710465999749,"LinearGAM(callbacks=[Deviance(), Diffs()], fit_intercept=True, 
   max_iter=100, scale=None, terms=s(0) + intercept, tol=0.0001, 
   verbose=False)"
67,MARS,0.09309796991807182,0.5535029600005146,Earth()
68,Knotilus,0.08870403423380555,12.337983401000201,<matrixMath.Knotilus object at 0x7f772c29a550>
68,GAM,0.0893274035334026,4.91750746300022,"LinearGAM(callbacks=[Deviance(), Diffs()], fit_intercept=True, 
   max_iter=100, scale=None, terms=s(0) + intercept, tol=0.0001, 
   verbose=False)"
68,MARS,0.1023836502225363,0.6107477559999097,Earth()
69,Knotilus,0.09051797725252539,32.35886263100019,<matrixMath.Knotilus object at 0x7f772c267640>
69,GAM,0.09114705890021539,4.756898723000631,"LinearGAM(callbacks=[Deviance(), Diffs()], fit_intercept=True, 
   max_iter=100, scale=None, terms=s(0) + intercept, tol=0.0001, 
   verbose=False)"
69,MARS,0.09273772250204115,0.7866143799992642,Earth()
70,Knotilus,0.09001196109804666,13.73119856500034,<matrixMath.Knotilus object at 0x7f772c27e1f0>
70,GAM,0.09086720533166542,4.964218198999333,"LinearGAM(callbacks=[Deviance(), Diffs()], fit_intercept=True, 
   max_iter=100, scale=None, terms=s(0) + intercept, tol=0.0001, 
   verbose=False)"
70,MARS,0.09446786325762294,0.18058055600067746,Earth()
71,Knotilus,0.108723682499727,1.9547836689998803,<matrixMath.Knotilus object at 0x7f772c29af10>
71,GAM,0.0905760431362715,5.514895565999723,"LinearGAM(callbacks=[Deviance(), Diffs()], fit_intercept=True, 
   max_iter=100, scale=None, terms=s(0) + intercept, tol=0.0001, 
   verbose=False)"
71,MARS,0.11307387528973029,0.4646734039997682,Earth()
72,Knotilus,0.08996717364946459,9.887441971000044,<matrixMath.Knotilus object at 0x7f772c2492b0>
72,GAM,0.09041005210604545,5.403572594000252,"LinearGAM(callbacks=[Deviance(), Diffs()], fit_intercept=True, 
   max_iter=100, scale=None, terms=s(0) + intercept, tol=0.0001, 
   verbose=False)"
72,MARS,0.11727124171702077,0.328023323000707,Earth()
73,Knotilus,0.09106989872170823,11.210419856000044,<matrixMath.Knotilus object at 0x7f772c2492e0>
73,GAM,0.09191223968449863,4.750972104000539,"LinearGAM(callbacks=[Deviance(), Diffs()], fit_intercept=True, 
   max_iter=100, scale=None, terms=s(0) + intercept, tol=0.0001, 
   verbose=False)"
73,MARS,0.1064578724373458,0.6294169159991725,Earth()
74,Knotilus,0.09063080032618878,12.699522155000523,<matrixMath.Knotilus object at 0x7f772c249ee0>
74,GAM,0.0909387105265436,4.993860166000559,"LinearGAM(callbacks=[Deviance(), Diffs()], fit_intercept=True, 
   max_iter=100, scale=None, terms=s(0) + intercept, tol=0.0001, 
   verbose=False)"
74,MARS,0.097366041115054,0.28272211799958313,Earth()
75,Knotilus,0.09924354259809089,5.58392062799976,<matrixMath.Knotilus object at 0x7f772c3bcc10>
75,GAM,0.0902615934462062,4.744764796999334,"LinearGAM(callbacks=[Deviance(), Diffs()], fit_intercept=True, 
   max_iter=100, scale=None, terms=s(0) + intercept, tol=0.0001, 
   verbose=False)"
75,MARS,0.09314135436624366,0.20745882200026244,Earth()
76,Knotilus,0.1101573936931311,1.520889626999633,<matrixMath.Knotilus object at 0x7f772c28ddf0>
76,GAM,0.09168858740848282,5.1296299790001285,"LinearGAM(callbacks=[Deviance(), Diffs()], fit_intercept=True, 
   max_iter=100, scale=None, terms=s(0) + intercept, tol=0.0001, 
   verbose=False)"
76,MARS,0.09180549793851678,0.3272277870000835,Earth()
77,Knotilus,0.1176682604053148,5.9160280720006995,<matrixMath.Knotilus object at 0x7f772c29aac0>
77,GAM,0.09050100789319117,5.126475905000007,"LinearGAM(callbacks=[Deviance(), Diffs()], fit_intercept=True, 
   max_iter=100, scale=None, terms=s(0) + intercept, tol=0.0001, 
   verbose=False)"
77,MARS,0.09340333931665255,0.4465709310006787,Earth()
78,Knotilus,0.08946305263981265,18.76150831799987,<matrixMath.Knotilus object at 0x7f772c28d940>
78,GAM,0.08976290856724871,4.862611174000449,"LinearGAM(callbacks=[Deviance(), Diffs()], fit_intercept=True, 
   max_iter=100, scale=None, terms=s(0) + intercept, tol=0.0001, 
   verbose=False)"
78,MARS,0.09053790892395702,0.1570809670001836,Earth()
79,Knotilus,0.10918799997840253,1.88804565800001,<matrixMath.Knotilus object at 0x7f772c304af0>
79,GAM,0.09103728935552555,4.836317498000426,"LinearGAM(callbacks=[Deviance(), Diffs()], fit_intercept=True, 
   max_iter=100, scale=None, terms=s(0) + intercept, tol=0.0001, 
   verbose=False)"
79,MARS,0.10114605559525662,0.2290974540001116,Earth()
80,Knotilus,0.09890376211043435,4.531564509000418,<matrixMath.Knotilus object at 0x7f772c29a490>
80,GAM,0.09069751441113691,5.140631250000297,"LinearGAM(callbacks=[Deviance(), Diffs()], fit_intercept=True, 
   max_iter=100, scale=None, terms=s(0) + intercept, tol=0.0001, 
   verbose=False)"
80,MARS,0.10909859344619821,0.3607286739998017,Earth()
81,Knotilus,0.09865208249552723,4.580378532000395,<matrixMath.Knotilus object at 0x7f772c28d670>
81,GAM,0.0905013643146169,4.935587031999603,"LinearGAM(callbacks=[Deviance(), Diffs()], fit_intercept=True, 
   max_iter=100, scale=None, terms=s(0) + intercept, tol=0.0001, 
   verbose=False)"
81,MARS,0.09999051664567189,0.14355077899926982,Earth()
82,Knotilus,0.10745268586650614,5.2376989719996345,<matrixMath.Knotilus object at 0x7f772c8b3a30>
82,GAM,0.09063417669739131,4.779796881000038,"LinearGAM(callbacks=[Deviance(), Diffs()], fit_intercept=True, 
   max_iter=100, scale=None, terms=s(0) + intercept, tol=0.0001, 
   verbose=False)"
82,MARS,0.09055596034957394,0.3316852210000434,Earth()
83,Knotilus,0.09851134040667439,5.102400757999931,<matrixMath.Knotilus object at 0x7f772c2c2550>
83,GAM,0.09055050239558185,5.067323732999284,"LinearGAM(callbacks=[Deviance(), Diffs()], fit_intercept=True, 
   max_iter=100, scale=None, terms=s(0) + intercept, tol=0.0001, 
   verbose=False)"
83,MARS,0.09508258276048345,0.7150709640000059,Earth()
84,Knotilus,0.0897506766783659,29.93485239200072,<matrixMath.Knotilus object at 0x7f772c36fee0>
84,GAM,0.09021968276675167,5.413194829000531,"LinearGAM(callbacks=[Deviance(), Diffs()], fit_intercept=True, 
   max_iter=100, scale=None, terms=s(0) + intercept, tol=0.0001, 
   verbose=False)"
84,MARS,0.093603973329653,0.7185304779995931,Earth()
85,Knotilus,0.10954680135640125,1.5020994839997002,<matrixMath.Knotilus object at 0x7f772c258b50>
85,GAM,0.0911039168880276,4.495480147000308,"LinearGAM(callbacks=[Deviance(), Diffs()], fit_intercept=True, 
   max_iter=100, scale=None, terms=s(0) + intercept, tol=0.0001, 
   verbose=False)"
85,MARS,0.09451338789176582,0.3916627009994045,Earth()
86,Knotilus,0.0911626959385144,16.673943970000437,<matrixMath.Knotilus object at 0x7f772c2581f0>
86,GAM,0.09196226395090337,4.6220445899998595,"LinearGAM(callbacks=[Deviance(), Diffs()], fit_intercept=True, 
   max_iter=100, scale=None, terms=s(0) + intercept, tol=0.0001, 
   verbose=False)"
86,MARS,0.09995005827541042,0.39220753900008276,Earth()
87,Knotilus,0.09103940469732817,13.372809325000162,<matrixMath.Knotilus object at 0x7f772c28d040>
87,GAM,0.09173491383068329,4.802381741999852,"LinearGAM(callbacks=[Deviance(), Diffs()], fit_intercept=True, 
   max_iter=100, scale=None, terms=s(0) + intercept, tol=0.0001, 
   verbose=False)"
87,MARS,0.0930446975212315,0.16644410299977608,Earth()
88,Knotilus,0.09089071113286426,10.555859074000182,<matrixMath.Knotilus object at 0x7f772c748130>
88,GAM,0.09152479539794112,4.629836909000005,"LinearGAM(callbacks=[Deviance(), Diffs()], fit_intercept=True, 
   max_iter=100, scale=None, terms=s(0) + intercept, tol=0.0001, 
   verbose=False)"
88,MARS,0.09571714187373466,0.3427172049996443,Earth()
89,Knotilus,0.09835348887828756,9.244584135999503,<matrixMath.Knotilus object at 0x7f772c1fcbe0>
89,GAM,0.09131606145808428,4.580855680000241,"LinearGAM(callbacks=[Deviance(), Diffs()], fit_intercept=True, 
   max_iter=100, scale=None, terms=s(0) + intercept, tol=0.0001, 
   verbose=False)"
89,MARS,0.09655867119307163,0.3003394750003281,Earth()
90,Knotilus,0.09857562887904346,6.278836907999903,<matrixMath.Knotilus object at 0x7f772c2e0b50>
90,GAM,0.09020807927267607,4.767979095000555,"LinearGAM(callbacks=[Deviance(), Diffs()], fit_intercept=True, 
   max_iter=100, scale=None, terms=s(0) + intercept, tol=0.0001, 
   verbose=False)"
90,MARS,0.112842704760397,0.3598364950003088,Earth()
91,Knotilus,0.08965652445901205,10.412601152999741,<matrixMath.Knotilus object at 0x7f772c20b130>
91,GAM,0.09039836478630506,5.125085328999376,"LinearGAM(callbacks=[Deviance(), Diffs()], fit_intercept=True, 
   max_iter=100, scale=None, terms=s(0) + intercept, tol=0.0001, 
   verbose=False)"
91,MARS,0.10112123998402718,0.10153204800008098,Earth()
92,Knotilus,0.08967349388624486,13.81559565599946,<matrixMath.Knotilus object at 0x7f772c216640>
92,GAM,0.09014296572293978,4.524280104000354,"LinearGAM(callbacks=[Deviance(), Diffs()], fit_intercept=True, 
   max_iter=100, scale=None, terms=s(0) + intercept, tol=0.0001, 
   verbose=False)"
92,MARS,0.09403047761198993,0.30851659200016,Earth()
93,Knotilus,0.09025883822196187,14.768160411999816,<matrixMath.Knotilus object at 0x7f772c216d60>
93,GAM,0.09085905592417305,4.864350302000275,"LinearGAM(callbacks=[Deviance(), Diffs()], fit_intercept=True, 
   max_iter=100, scale=None, terms=s(0) + intercept, tol=0.0001, 
   verbose=False)"
93,MARS,0.09780550296280695,0.2817043749992081,Earth()
94,Knotilus,0.08971179389775077,10.695863989999452,<matrixMath.Knotilus object at 0x7f772c825d90>
94,GAM,0.09012040711638067,4.650805539999965,"LinearGAM(callbacks=[Deviance(), Diffs()], fit_intercept=True, 
   max_iter=100, scale=None, terms=s(0) + intercept, tol=0.0001, 
   verbose=False)"
94,MARS,0.09537424139006107,0.9237500789995465,Earth()
95,Knotilus,0.11609038170254625,4.524945150000349,<matrixMath.Knotilus object at 0x7f772c1fc040>
95,GAM,0.0919168198324943,4.971814677000111,"LinearGAM(callbacks=[Deviance(), Diffs()], fit_intercept=True, 
   max_iter=100, scale=None, terms=s(0) + intercept, tol=0.0001, 
   verbose=False)"
95,MARS,0.10925845899741064,0.38319493099970714,Earth()
96,Knotilus,0.09041051702013995,13.905939680000301,<matrixMath.Knotilus object at 0x7f772c2165b0>
96,GAM,0.09087453712522497,4.926972850999846,"LinearGAM(callbacks=[Deviance(), Diffs()], fit_intercept=True, 
   max_iter=100, scale=None, terms=s(0) + intercept, tol=0.0001, 
   verbose=False)"
96,MARS,0.09168468587271277,0.44850691000010556,Earth()
97,Knotilus,0.09041947605934737,11.188228213000002,<matrixMath.Knotilus object at 0x7f772c4765e0>
97,GAM,0.0909055459667288,4.497196647000237,"LinearGAM(callbacks=[Deviance(), Diffs()], fit_intercept=True, 
   max_iter=100, scale=None, terms=s(0) + intercept, tol=0.0001, 
   verbose=False)"
97,MARS,0.09249505276393409,0.29745108600036474,Earth()
98,Knotilus,0.09086894869690547,11.065255862000413,<matrixMath.Knotilus object at 0x7f772c249850>
98,GAM,0.09129446208817957,4.818137331999424,"LinearGAM(callbacks=[Deviance(), Diffs()], fit_intercept=True, 
   max_iter=100, scale=None, terms=s(0) + intercept, tol=0.0001, 
   verbose=False)"
98,MARS,0.09941617621225238,0.43448483199972543,Earth()
99,Knotilus,0.11805197464148297,1.3768419620000714,<matrixMath.Knotilus object at 0x7f772c20b1c0>
99,GAM,0.09023594499026777,4.8110882880000645,"LinearGAM(callbacks=[Deviance(), Diffs()], fit_intercept=True, 
   max_iter=100, scale=None, terms=s(0) + intercept, tol=0.0001, 
   verbose=False)"
99,MARS,0.11122528153481882,0.5249161900001127,Earth()
