Knotilus,GAM,MARS
85,60,44
Knotilus,GAM,MARS
0.08908047932526975,0.09009207469543686,0.0899023811934629
18.207833434999884,3.279241689999253,0.04904874099975132
<matrixMath.Knotilus object at 0x7f772c4630a0>,"LinearGAM(callbacks=[Deviance(), Diffs()], fit_intercept=True, 
   max_iter=100, scale=None, terms=s(0) + intercept, tol=0.0001, 
   verbose=False)",Earth()
