iteration,method,test-rmse,time,model
0,Knotilus,0.11291475603591891,0.3542788280001332,<matrixMath.Knotilus object at 0x7f772c55ea30>
0,GAM,0.09182936719589671,2.9589464559994667,"LinearGAM(callbacks=[Deviance(), Diffs()], fit_intercept=True, 
   max_iter=100, scale=None, terms=s(0) + intercept, tol=0.0001, 
   verbose=False)"
0,MARS,0.10186933805805387,0.09093544799998199,Earth()
1,Knotilus,0.1129388412470828,0.2612818879997576,<matrixMath.Knotilus object at 0x7f772c55e400>
1,GAM,0.09316024562609873,2.7891325129994584,"LinearGAM(callbacks=[Deviance(), Diffs()], fit_intercept=True, 
   max_iter=100, scale=None, terms=s(0) + intercept, tol=0.0001, 
   verbose=False)"
1,MARS,0.09367542876370934,0.1099061230006555,Earth()
2,Knotilus,0.09137612554539581,1.7094501660003516,<matrixMath.Knotilus object at 0x7f772c5c3730>
2,GAM,0.09419718248828539,3.0911843670000962,"LinearGAM(callbacks=[Deviance(), Diffs()], fit_intercept=True, 
   max_iter=100, scale=None, terms=s(0) + intercept, tol=0.0001, 
   verbose=False)"
2,MARS,0.09765998174303137,0.33346176800023386,Earth()
3,Knotilus,0.09415933907651684,0.8386280550002994,<matrixMath.Knotilus object at 0x7f772c5c34f0>
3,GAM,0.0964352765830536,2.9468100710000726,"LinearGAM(callbacks=[Deviance(), Diffs()], fit_intercept=True, 
   max_iter=100, scale=None, terms=s(0) + intercept, tol=0.0001, 
   verbose=False)"
3,MARS,0.09795721998122649,0.189165468000283,Earth()
4,Knotilus,0.1148817637628382,0.23536237000007532,<matrixMath.Knotilus object at 0x7f772c58db80>
4,GAM,0.09466105255469968,2.954967380999733,"LinearGAM(callbacks=[Deviance(), Diffs()], fit_intercept=True, 
   max_iter=100, scale=None, terms=s(0) + intercept, tol=0.0001, 
   verbose=False)"
4,MARS,0.0961229949273192,0.07274215100005677,Earth()
5,Knotilus,0.10335623399546709,0.38766143300017575,<matrixMath.Knotilus object at 0x7f772c52a760>
5,GAM,0.097358210993433,2.73588716499944,"LinearGAM(callbacks=[Deviance(), Diffs()], fit_intercept=True, 
   max_iter=100, scale=None, terms=s(0) + intercept, tol=0.0001, 
   verbose=False)"
5,MARS,0.09724584669734938,0.1416039979994821,Earth()
6,Knotilus,0.11672273940159743,0.25126660200021433,<matrixMath.Knotilus object at 0x7f772c52ac70>
6,GAM,0.09419928623130162,2.8276457550000487,"LinearGAM(callbacks=[Deviance(), Diffs()], fit_intercept=True, 
   max_iter=100, scale=None, terms=s(0) + intercept, tol=0.0001, 
   verbose=False)"
6,MARS,0.0937847839874696,0.1347641289994499,Earth()
7,Knotilus,0.11460491438701162,0.32792721499936306,<matrixMath.Knotilus object at 0x7f772c882ac0>
7,GAM,0.0936704462584741,2.677056077999623,"LinearGAM(callbacks=[Deviance(), Diffs()], fit_intercept=True, 
   max_iter=100, scale=None, terms=s(0) + intercept, tol=0.0001, 
   verbose=False)"
7,MARS,0.09501033161105282,0.14731988099993032,Earth()
8,Knotilus,0.09160543392626068,0.9138985379995574,<matrixMath.Knotilus object at 0x7f772c537fd0>
8,GAM,0.09248225514629888,2.7807490490004056,"LinearGAM(callbacks=[Deviance(), Diffs()], fit_intercept=True, 
   max_iter=100, scale=None, terms=s(0) + intercept, tol=0.0001, 
   verbose=False)"
8,MARS,0.09771843623185789,0.07886639299977105,Earth()
9,Knotilus,0.0924446794815359,1.0050315779999437,<matrixMath.Knotilus object at 0x7f772c537df0>
9,GAM,0.0934601420086323,2.8195263839998006,"LinearGAM(callbacks=[Deviance(), Diffs()], fit_intercept=True, 
   max_iter=100, scale=None, terms=s(0) + intercept, tol=0.0001, 
   verbose=False)"
9,MARS,0.09408265817344891,0.04301658400072483,Earth()
10,Knotilus,0.09566974424529803,2.6405599230001826,<matrixMath.Knotilus object at 0x7f772c5690d0>
10,GAM,0.09738502110553574,2.504425527999956,"LinearGAM(callbacks=[Deviance(), Diffs()], fit_intercept=True, 
   max_iter=100, scale=None, terms=s(0) + intercept, tol=0.0001, 
   verbose=False)"
10,MARS,0.09763302070266285,0.07525178000014421,Earth()
11,Knotilus,0.09424309897148862,4.596901896000418,<matrixMath.Knotilus object at 0x7f772c53d5e0>
11,GAM,0.09570783357570496,2.9320220079998762,"LinearGAM(callbacks=[Deviance(), Diffs()], fit_intercept=True, 
   max_iter=100, scale=None, terms=s(0) + intercept, tol=0.0001, 
   verbose=False)"
11,MARS,0.09483774351810356,0.12871035400075925,Earth()
12,Knotilus,0.12579986015455294,0.19668943600026978,<matrixMath.Knotilus object at 0x7f772c53d3d0>
12,GAM,0.09326531924053139,2.7098400100003346,"LinearGAM(callbacks=[Deviance(), Diffs()], fit_intercept=True, 
   max_iter=100, scale=None, terms=s(0) + intercept, tol=0.0001, 
   verbose=False)"
12,MARS,0.09392279369414476,0.02513194899984228,Earth()
13,Knotilus,0.09021548585632025,1.9497307120000187,<matrixMath.Knotilus object at 0x7f772c53d3a0>
13,GAM,0.09174152710162936,2.746395589999338,"LinearGAM(callbacks=[Deviance(), Diffs()], fit_intercept=True, 
   max_iter=100, scale=None, terms=s(0) + intercept, tol=0.0001, 
   verbose=False)"
13,MARS,0.09161292127328421,0.03808714200022223,Earth()
14,Knotilus,0.1251943705034373,0.186015509999379,<matrixMath.Knotilus object at 0x7f772c53dbb0>
14,GAM,0.09356633801391702,2.6861111259995596,"LinearGAM(callbacks=[Deviance(), Diffs()], fit_intercept=True, 
   max_iter=100, scale=None, terms=s(0) + intercept, tol=0.0001, 
   verbose=False)"
14,MARS,0.09153701407029484,0.04481788299926848,Earth()
15,Knotilus,0.09248274065699943,0.9990988469999138,<matrixMath.Knotilus object at 0x7f772c53d8b0>
15,GAM,0.09394892923099309,2.952552392999678,"LinearGAM(callbacks=[Deviance(), Diffs()], fit_intercept=True, 
   max_iter=100, scale=None, terms=s(0) + intercept, tol=0.0001, 
   verbose=False)"
15,MARS,0.10389024452237539,0.12436231699939526,Earth()
16,Knotilus,0.09305610816372699,1.6087339409996275,<matrixMath.Knotilus object at 0x7f772c532be0>
16,GAM,0.0950418095722586,2.860079426000084,"LinearGAM(callbacks=[Deviance(), Diffs()], fit_intercept=True, 
   max_iter=100, scale=None, terms=s(0) + intercept, tol=0.0001, 
   verbose=False)"
16,MARS,0.09656064499447313,0.11691962399982003,Earth()
17,Knotilus,0.09680518423722494,1.381924116000846,<matrixMath.Knotilus object at 0x7f772c4fcee0>
17,GAM,0.09776063864733783,2.7845816219996777,"LinearGAM(callbacks=[Deviance(), Diffs()], fit_intercept=True, 
   max_iter=100, scale=None, terms=s(0) + intercept, tol=0.0001, 
   verbose=False)"
17,MARS,0.10148053167770808,0.13987147399984678,Earth()
18,Knotilus,0.10271524931144875,0.6447617230005562,<matrixMath.Knotilus object at 0x7f772c532940>
18,GAM,0.09347893950768049,2.6360950609996507,"LinearGAM(callbacks=[Deviance(), Diffs()], fit_intercept=True, 
   max_iter=100, scale=None, terms=s(0) + intercept, tol=0.0001, 
   verbose=False)"
18,MARS,0.1046556569384936,0.2589822740001182,Earth()
19,Knotilus,0.09171132133892591,1.769221297000513,<matrixMath.Knotilus object at 0x7f772c507d60>
19,GAM,0.09304876940023847,2.799302368000099,"LinearGAM(callbacks=[Deviance(), Diffs()], fit_intercept=True, 
   max_iter=100, scale=None, terms=s(0) + intercept, tol=0.0001, 
   verbose=False)"
19,MARS,0.09315006891823242,0.0551297740003065,Earth()
20,Knotilus,0.12486131366099994,0.07593903599990881,<matrixMath.Knotilus object at 0x7f772c537850>
20,GAM,0.09238681669294854,2.747516137000275,"LinearGAM(callbacks=[Deviance(), Diffs()], fit_intercept=True, 
   max_iter=100, scale=None, terms=s(0) + intercept, tol=0.0001, 
   verbose=False)"
20,MARS,0.09192671044294488,0.11346290399978898,Earth()
21,Knotilus,0.11518719468646746,0.23958590399979585,<matrixMath.Knotilus object at 0x7f772c524b80>
21,GAM,0.09091481930391491,2.7040965890000734,"LinearGAM(callbacks=[Deviance(), Diffs()], fit_intercept=True, 
   max_iter=100, scale=None, terms=s(0) + intercept, tol=0.0001, 
   verbose=False)"
21,MARS,0.09166042461130841,0.0769324160000906,Earth()
22,Knotilus,0.09070267213493241,1.1880926359999648,<matrixMath.Knotilus object at 0x7f772c886d00>
22,GAM,0.09139498837477023,2.676147920999938,"LinearGAM(callbacks=[Deviance(), Diffs()], fit_intercept=True, 
   max_iter=100, scale=None, terms=s(0) + intercept, tol=0.0001, 
   verbose=False)"
22,MARS,0.09800535380899324,0.24470014899998205,Earth()
23,Knotilus,0.09340639396576175,3.139388281999345,<matrixMath.Knotilus object at 0x7f772c507760>
23,GAM,0.09612486721847863,3.1686512569995102,"LinearGAM(callbacks=[Deviance(), Diffs()], fit_intercept=True, 
   max_iter=100, scale=None, terms=s(0) + intercept, tol=0.0001, 
   verbose=False)"
23,MARS,0.09787256167077803,0.11531315299998823,Earth()
24,Knotilus,0.0909472237750879,0.9918754939999417,<matrixMath.Knotilus object at 0x7f772c4f4910>
24,GAM,0.09273172062169502,2.802049335999982,"LinearGAM(callbacks=[Deviance(), Diffs()], fit_intercept=True, 
   max_iter=100, scale=None, terms=s(0) + intercept, tol=0.0001, 
   verbose=False)"
24,MARS,0.09173857081987129,0.035479178999594296,Earth()
25,Knotilus,0.09208888512977936,5.068474305000564,<matrixMath.Knotilus object at 0x7f772c4f4a90>
25,GAM,0.09500006798313777,2.924359906999598,"LinearGAM(callbacks=[Deviance(), Diffs()], fit_intercept=True, 
   max_iter=100, scale=None, terms=s(0) + intercept, tol=0.0001, 
   verbose=False)"
25,MARS,0.09604776243059042,0.06083073300032993,Earth()
26,Knotilus,0.09248689640489095,1.1733688690001145,<matrixMath.Knotilus object at 0x7f772c815520>
26,GAM,0.09410224680841642,2.7605946860003314,"LinearGAM(callbacks=[Deviance(), Diffs()], fit_intercept=True, 
   max_iter=100, scale=None, terms=s(0) + intercept, tol=0.0001, 
   verbose=False)"
26,MARS,0.09342805641647088,0.07251675999941654,Earth()
27,Knotilus,0.09128938230528112,2.4831335170001694,<matrixMath.Knotilus object at 0x7f772c5c3bb0>
27,GAM,0.09362085024206136,2.997334200000296,"LinearGAM(callbacks=[Deviance(), Diffs()], fit_intercept=True, 
   max_iter=100, scale=None, terms=s(0) + intercept, tol=0.0001, 
   verbose=False)"
27,MARS,0.09321066947378322,0.07105595400025777,Earth()
28,Knotilus,0.0896211572915695,2.6222833760002686,<matrixMath.Knotilus object at 0x7f772c4a8580>
28,GAM,0.09092733504630864,2.6256063899991204,"LinearGAM(callbacks=[Deviance(), Diffs()], fit_intercept=True, 
   max_iter=100, scale=None, terms=s(0) + intercept, tol=0.0001, 
   verbose=False)"
28,MARS,0.09049048737521587,0.12726994799959357,Earth()
29,Knotilus,0.09118472948993445,1.3696397609992346,<matrixMath.Knotilus object at 0x7f772c4a80a0>
29,GAM,0.09298001726253288,2.642684182999801,"LinearGAM(callbacks=[Deviance(), Diffs()], fit_intercept=True, 
   max_iter=100, scale=None, terms=s(0) + intercept, tol=0.0001, 
   verbose=False)"
29,MARS,0.09432763502101159,0.2310011060008037,Earth()
30,Knotilus,0.09363023091240576,1.834819110999888,<matrixMath.Knotilus object at 0x7f772c4c9dc0>
30,GAM,0.09763213610553247,2.812529781000194,"LinearGAM(callbacks=[Deviance(), Diffs()], fit_intercept=True, 
   max_iter=100, scale=None, terms=s(0) + intercept, tol=0.0001, 
   verbose=False)"
30,MARS,0.10080661594196194,0.15423874499992962,Earth()
31,Knotilus,0.10342431838955367,0.45051392699951975,<matrixMath.Knotilus object at 0x7f772c51acd0>
31,GAM,0.09439785754259347,2.918853813000169,"LinearGAM(callbacks=[Deviance(), Diffs()], fit_intercept=True, 
   max_iter=100, scale=None, terms=s(0) + intercept, tol=0.0001, 
   verbose=False)"
31,MARS,0.09796891797639914,0.1367839799995636,Earth()
32,Knotilus,0.10471931338867868,0.6792210119992887,<matrixMath.Knotilus object at 0x7f772c4a88e0>
32,GAM,0.09379030950594514,2.838908345999698,"LinearGAM(callbacks=[Deviance(), Diffs()], fit_intercept=True, 
   max_iter=100, scale=None, terms=s(0) + intercept, tol=0.0001, 
   verbose=False)"
32,MARS,0.09382437055840952,0.1331238660004601,Earth()
33,Knotilus,0.09990738447100002,0.5293412760001956,<matrixMath.Knotilus object at 0x7f772c4a83d0>
33,GAM,0.09303927523511883,2.8360217669996928,"LinearGAM(callbacks=[Deviance(), Diffs()], fit_intercept=True, 
   max_iter=100, scale=None, terms=s(0) + intercept, tol=0.0001, 
   verbose=False)"
33,MARS,0.09497866079982227,0.06692691900025238,Earth()
34,Knotilus,0.0912672784378208,1.5794378229993526,<matrixMath.Knotilus object at 0x7f772c4c96d0>
34,GAM,0.0946280802204377,3.1947838140004023,"LinearGAM(callbacks=[Deviance(), Diffs()], fit_intercept=True, 
   max_iter=100, scale=None, terms=s(0) + intercept, tol=0.0001, 
   verbose=False)"
34,MARS,0.09743980840339511,0.07078631700005644,Earth()
35,Knotilus,0.09339168554280497,0.9866173890004575,<matrixMath.Knotilus object at 0x7f772c4c9610>
35,GAM,0.09346338162769625,3.232271515999855,"LinearGAM(callbacks=[Deviance(), Diffs()], fit_intercept=True, 
   max_iter=100, scale=None, terms=s(0) + intercept, tol=0.0001, 
   verbose=False)"
35,MARS,0.09469967089396282,0.0488946900004521,Earth()
36,Knotilus,0.09276131874345972,1.050647898000534,<matrixMath.Knotilus object at 0x7f772c4e6040>
36,GAM,0.09309502834717574,3.2853183389997866,"LinearGAM(callbacks=[Deviance(), Diffs()], fit_intercept=True, 
   max_iter=100, scale=None, terms=s(0) + intercept, tol=0.0001, 
   verbose=False)"
36,MARS,0.09556687050682866,0.17368682300002547,Earth()
37,Knotilus,0.09219276028653904,1.132456082000317,<matrixMath.Knotilus object at 0x7f772c4c9370>
37,GAM,0.09400001057969257,3.1482849980002356,"LinearGAM(callbacks=[Deviance(), Diffs()], fit_intercept=True, 
   max_iter=100, scale=None, terms=s(0) + intercept, tol=0.0001, 
   verbose=False)"
37,MARS,0.09762162218143451,0.3908530989992869,Earth()
38,Knotilus,0.09128116450759911,3.3858852439998373,<matrixMath.Knotilus object at 0x7f772c4e6160>
38,GAM,0.09228378966540701,3.2103588720001426,"LinearGAM(callbacks=[Deviance(), Diffs()], fit_intercept=True, 
   max_iter=100, scale=None, terms=s(0) + intercept, tol=0.0001, 
   verbose=False)"
38,MARS,0.09307403092650281,0.07185089700033132,Earth()
39,Knotilus,0.09192857547302687,1.2866687890000321,<matrixMath.Knotilus object at 0x7f772c4e6340>
39,GAM,0.09328111151922121,2.6959360710006877,"LinearGAM(callbacks=[Deviance(), Diffs()], fit_intercept=True, 
   max_iter=100, scale=None, terms=s(0) + intercept, tol=0.0001, 
   verbose=False)"
39,MARS,0.0947991064905709,0.03950930699920718,Earth()
40,Knotilus,0.10434187146022722,0.42922914599967044,<matrixMath.Knotilus object at 0x7f772c7a5280>
40,GAM,0.09540111449025875,2.9485515879996456,"LinearGAM(callbacks=[Deviance(), Diffs()], fit_intercept=True, 
   max_iter=100, scale=None, terms=s(0) + intercept, tol=0.0001, 
   verbose=False)"
40,MARS,0.09597379570902184,0.09159753500080114,Earth()
41,Knotilus,0.09459785424826693,26.641020376000597,<matrixMath.Knotilus object at 0x7f772c8c6040>
41,GAM,0.09580961231339445,3.1294867149999845,"LinearGAM(callbacks=[Deviance(), Diffs()], fit_intercept=True, 
   max_iter=100, scale=None, terms=s(0) + intercept, tol=0.0001, 
   verbose=False)"
41,MARS,0.09551900491187139,0.07317549400067946,Earth()
42,Knotilus,0.09157254269356128,0.8739918869996472,<matrixMath.Knotilus object at 0x7f772c532100>
42,GAM,0.0935067249523259,2.7719219509999675,"LinearGAM(callbacks=[Deviance(), Diffs()], fit_intercept=True, 
   max_iter=100, scale=None, terms=s(0) + intercept, tol=0.0001, 
   verbose=False)"
42,MARS,0.09702319003469626,0.039203880000059144,Earth()
43,Knotilus,0.0925280231997094,1.1759791690001293,<matrixMath.Knotilus object at 0x7f772c4fcc10>
43,GAM,0.09491313981401073,2.664176512999802,"LinearGAM(callbacks=[Deviance(), Diffs()], fit_intercept=True, 
   max_iter=100, scale=None, terms=s(0) + intercept, tol=0.0001, 
   verbose=False)"
43,MARS,0.09546672560608933,0.11862539499998093,Earth()
44,Knotilus,0.08992943430596344,1.335175225999592,<matrixMath.Knotilus object at 0x7f772c4c9af0>
44,GAM,0.09031148933631637,2.7401162790001763,"LinearGAM(callbacks=[Deviance(), Diffs()], fit_intercept=True, 
   max_iter=100, scale=None, terms=s(0) + intercept, tol=0.0001, 
   verbose=False)"
44,MARS,0.0899023811934629,0.04904874099975132,Earth()
45,Knotilus,0.1165643779017927,0.30050901799950225,<matrixMath.Knotilus object at 0x7f772c4c9340>
45,GAM,0.09588306608773232,3.212164522999956,"LinearGAM(callbacks=[Deviance(), Diffs()], fit_intercept=True, 
   max_iter=100, scale=None, terms=s(0) + intercept, tol=0.0001, 
   verbose=False)"
45,MARS,0.09644476432939444,0.11482735600020533,Earth()
46,Knotilus,0.09126909627139286,1.5653170269997645,<matrixMath.Knotilus object at 0x7f772c4d7700>
46,GAM,0.09309403214950457,2.810676768999656,"LinearGAM(callbacks=[Deviance(), Diffs()], fit_intercept=True, 
   max_iter=100, scale=None, terms=s(0) + intercept, tol=0.0001, 
   verbose=False)"
46,MARS,0.09296605027035917,0.35204929200062907,Earth()
47,Knotilus,0.09351379688771358,1.6120184760002303,<matrixMath.Knotilus object at 0x7f772c4d7190>
47,GAM,0.09528425469717207,3.093027076999533,"LinearGAM(callbacks=[Deviance(), Diffs()], fit_intercept=True, 
   max_iter=100, scale=None, terms=s(0) + intercept, tol=0.0001, 
   verbose=False)"
47,MARS,0.09853888056098087,0.02766268499999569,Earth()
48,Knotilus,0.09300334665583479,0.949188337999658,<matrixMath.Knotilus object at 0x7f772c4d77f0>
48,GAM,0.09598118568722139,2.9729850960002295,"LinearGAM(callbacks=[Deviance(), Diffs()], fit_intercept=True, 
   max_iter=100, scale=None, terms=s(0) + intercept, tol=0.0001, 
   verbose=False)"
48,MARS,0.09624495701125542,0.037522169000112626,Earth()
49,Knotilus,0.0941332597542887,2.695355632000428,<matrixMath.Knotilus object at 0x7f772c8b9850>
49,GAM,0.09464321908304676,2.9134149669998806,"LinearGAM(callbacks=[Deviance(), Diffs()], fit_intercept=True, 
   max_iter=100, scale=None, terms=s(0) + intercept, tol=0.0001, 
   verbose=False)"
49,MARS,0.09508195750747228,0.06888204599999881,Earth()
50,Knotilus,0.0946261397091607,1.8710274499999286,<matrixMath.Knotilus object at 0x7f772c8b9490>
50,GAM,0.09640727188578889,3.0007448360001945,"LinearGAM(callbacks=[Deviance(), Diffs()], fit_intercept=True, 
   max_iter=100, scale=None, terms=s(0) + intercept, tol=0.0001, 
   verbose=False)"
50,MARS,0.0963113231566588,0.04974644200046896,Earth()
51,Knotilus,0.10426221528249996,0.5115126429991506,<matrixMath.Knotilus object at 0x7f772c4bbca0>
51,GAM,0.09691673025479822,2.7905914470002244,"LinearGAM(callbacks=[Deviance(), Diffs()], fit_intercept=True, 
   max_iter=100, scale=None, terms=s(0) + intercept, tol=0.0001, 
   verbose=False)"
51,MARS,0.09664692730130565,0.08323270399978355,Earth()
52,Knotilus,0.09241293277886177,0.9958014270005151,<matrixMath.Knotilus object at 0x7f772c47eeb0>
52,GAM,0.0949194610407587,3.1227408129998366,"LinearGAM(callbacks=[Deviance(), Diffs()], fit_intercept=True, 
   max_iter=100, scale=None, terms=s(0) + intercept, tol=0.0001, 
   verbose=False)"
52,MARS,0.09435650111678417,0.14215805799994996,Earth()
53,Knotilus,0.08960179961490833,1.7744625459999952,<matrixMath.Knotilus object at 0x7f772c4ddbb0>
53,GAM,0.09188314148540445,3.1823491409995768,"LinearGAM(callbacks=[Deviance(), Diffs()], fit_intercept=True, 
   max_iter=100, scale=None, terms=s(0) + intercept, tol=0.0001, 
   verbose=False)"
53,MARS,0.09120248781658367,0.043528395000066666,Earth()
54,Knotilus,0.09949943636715297,1.1787794199999553,<matrixMath.Knotilus object at 0x7f772c4dd250>
54,GAM,0.09274418540223438,3.9193683389994476,"LinearGAM(callbacks=[Deviance(), Diffs()], fit_intercept=True, 
   max_iter=100, scale=None, terms=s(0) + intercept, tol=0.0001, 
   verbose=False)"
54,MARS,0.11699747469092897,0.03973337600018567,Earth()
55,Knotilus,0.09818874260377201,0.5674693580003805,<matrixMath.Knotilus object at 0x7f772c47e1c0>
55,GAM,0.09196506257220793,3.2940905879995626,"LinearGAM(callbacks=[Deviance(), Diffs()], fit_intercept=True, 
   max_iter=100, scale=None, terms=s(0) + intercept, tol=0.0001, 
   verbose=False)"
55,MARS,0.09151775311295775,0.06391006900048524,Earth()
56,Knotilus,0.1256236431160551,0.13393595700017613,<matrixMath.Knotilus object at 0x7f772c4d7490>
56,GAM,0.09533106200569288,2.771058766000351,"LinearGAM(callbacks=[Deviance(), Diffs()], fit_intercept=True, 
   max_iter=100, scale=None, terms=s(0) + intercept, tol=0.0001, 
   verbose=False)"
56,MARS,0.09437355873360051,0.17613146400071855,Earth()
57,Knotilus,0.09430298154113059,3.315803829000288,<matrixMath.Knotilus object at 0x7f772c42dee0>
57,GAM,0.09502870162103096,3.538277069000287,"LinearGAM(callbacks=[Deviance(), Diffs()], fit_intercept=True, 
   max_iter=100, scale=None, terms=s(0) + intercept, tol=0.0001, 
   verbose=False)"
57,MARS,0.09629906653303133,0.14629429199976585,Earth()
58,Knotilus,0.09464770348231011,0.9129720060000182,<matrixMath.Knotilus object at 0x7f772c47ea30>
58,GAM,0.09726472477420313,3.3336412539993034,"LinearGAM(callbacks=[Deviance(), Diffs()], fit_intercept=True, 
   max_iter=100, scale=None, terms=s(0) + intercept, tol=0.0001, 
   verbose=False)"
58,MARS,0.09825858351878157,0.13841905299977952,Earth()
59,Knotilus,0.12485147223121865,0.2291883570005666,<matrixMath.Knotilus object at 0x7f772c4766d0>
59,GAM,0.09316641951261363,3.9450362190000305,"LinearGAM(callbacks=[Deviance(), Diffs()], fit_intercept=True, 
   max_iter=100, scale=None, terms=s(0) + intercept, tol=0.0001, 
   verbose=False)"
59,MARS,0.09505346773589861,0.24221594800019375,Earth()
60,Knotilus,0.08910309692462395,2.460549976999573,<matrixMath.Knotilus object at 0x7f772c68d9a0>
60,GAM,0.09009207469543686,3.279241689999253,"LinearGAM(callbacks=[Deviance(), Diffs()], fit_intercept=True, 
   max_iter=100, scale=None, terms=s(0) + intercept, tol=0.0001, 
   verbose=False)"
60,MARS,0.09283304444383624,0.11461441900064528,Earth()
61,Knotilus,0.09543677741864401,1.7857723110000734,<matrixMath.Knotilus object at 0x7f772c490a90>
61,GAM,0.09422659485727142,3.4741162210002585,"LinearGAM(callbacks=[Deviance(), Diffs()], fit_intercept=True, 
   max_iter=100, scale=None, terms=s(0) + intercept, tol=0.0001, 
   verbose=False)"
61,MARS,0.09620988781766099,0.26115233299969987,Earth()
62,Knotilus,0.12081035718247388,0.8677819929998805,<matrixMath.Knotilus object at 0x7f772c440580>
62,GAM,0.09367894071919411,3.457855200999802,"LinearGAM(callbacks=[Deviance(), Diffs()], fit_intercept=True, 
   max_iter=100, scale=None, terms=s(0) + intercept, tol=0.0001, 
   verbose=False)"
62,MARS,0.0946958954363839,0.09181601000000228,Earth()
63,Knotilus,0.08911266468921104,1.2584212930005378,<matrixMath.Knotilus object at 0x7f772c4401f0>
63,GAM,0.09119822853760233,3.553135160999773,"LinearGAM(callbacks=[Deviance(), Diffs()], fit_intercept=True, 
   max_iter=100, scale=None, terms=s(0) + intercept, tol=0.0001, 
   verbose=False)"
63,MARS,0.09691957592211589,0.3013366720006161,Earth()
64,Knotilus,0.09012007975655456,1.8498529009993945,<matrixMath.Knotilus object at 0x7f772c440be0>
64,GAM,0.09143000428512754,3.2671036199999435,"LinearGAM(callbacks=[Deviance(), Diffs()], fit_intercept=True, 
   max_iter=100, scale=None, terms=s(0) + intercept, tol=0.0001, 
   verbose=False)"
64,MARS,0.09320872943406311,0.08663302599961753,Earth()
65,Knotilus,0.09223247279191592,0.9401116870003534,<matrixMath.Knotilus object at 0x7f772c4439d0>
65,GAM,0.09282446134020324,3.247262103999674,"LinearGAM(callbacks=[Deviance(), Diffs()], fit_intercept=True, 
   max_iter=100, scale=None, terms=s(0) + intercept, tol=0.0001, 
   verbose=False)"
65,MARS,0.09283779140683314,0.10080864900010056,Earth()
66,Knotilus,0.09092151964571511,0.8710616890002711,<matrixMath.Knotilus object at 0x7f772c44f220>
66,GAM,0.09233952976485607,3.009540482000375,"LinearGAM(callbacks=[Deviance(), Diffs()], fit_intercept=True, 
   max_iter=100, scale=None, terms=s(0) + intercept, tol=0.0001, 
   verbose=False)"
66,MARS,0.09503047493284493,0.09618172799946478,Earth()
67,Knotilus,0.11063847311582249,0.22499678900021536,<matrixMath.Knotilus object at 0x7f772c44f670>
67,GAM,0.09238988033747053,3.1771052209996924,"LinearGAM(callbacks=[Deviance(), Diffs()], fit_intercept=True, 
   max_iter=100, scale=None, terms=s(0) + intercept, tol=0.0001, 
   verbose=False)"
67,MARS,0.09681921805661399,0.08907249499952741,Earth()
68,Knotilus,0.09129916655496141,4.218858457999886,<matrixMath.Knotilus object at 0x7f772c443550>
68,GAM,0.09234108960183275,3.103610299000138,"LinearGAM(callbacks=[Deviance(), Diffs()], fit_intercept=True, 
   max_iter=100, scale=None, terms=s(0) + intercept, tol=0.0001, 
   verbose=False)"
68,MARS,0.09251782162797619,0.08525034099966433,Earth()
69,Knotilus,0.0899301728591081,1.8833069370002704,<matrixMath.Knotilus object at 0x7f772c45baf0>
69,GAM,0.09125132423662079,3.104291073999775,"LinearGAM(callbacks=[Deviance(), Diffs()], fit_intercept=True, 
   max_iter=100, scale=None, terms=s(0) + intercept, tol=0.0001, 
   verbose=False)"
69,MARS,0.09414729817537208,0.10081743599948823,Earth()
70,Knotilus,0.11876665179856656,0.27327735600010783,<matrixMath.Knotilus object at 0x7f772c443fa0>
70,GAM,0.09619357877444014,3.283241385999645,"LinearGAM(callbacks=[Deviance(), Diffs()], fit_intercept=True, 
   max_iter=100, scale=None, terms=s(0) + intercept, tol=0.0001, 
   verbose=False)"
70,MARS,0.09588537476912112,0.09030746299958992,Earth()
71,Knotilus,0.09472482783396952,1.0600213589996201,<matrixMath.Knotilus object at 0x7f772c44f310>
71,GAM,0.09446203271536782,3.138984045000143,"LinearGAM(callbacks=[Deviance(), Diffs()], fit_intercept=True, 
   max_iter=100, scale=None, terms=s(0) + intercept, tol=0.0001, 
   verbose=False)"
71,MARS,0.09633754716193953,0.14995521399941936,Earth()
72,Knotilus,0.09421802791324739,3.0474863850004112,<matrixMath.Knotilus object at 0x7f772c443a60>
72,GAM,0.0952304635913502,3.498937031999958,"LinearGAM(callbacks=[Deviance(), Diffs()], fit_intercept=True, 
   max_iter=100, scale=None, terms=s(0) + intercept, tol=0.0001, 
   verbose=False)"
72,MARS,0.09822915092261396,0.21654787399984343,Earth()
73,Knotilus,0.1115951053659235,0.304266127000119,<matrixMath.Knotilus object at 0x7f772c4a8670>
73,GAM,0.09355505126393567,3.8296775660001003,"LinearGAM(callbacks=[Deviance(), Diffs()], fit_intercept=True, 
   max_iter=100, scale=None, terms=s(0) + intercept, tol=0.0001, 
   verbose=False)"
73,MARS,0.09399931109535521,0.12279318000037165,Earth()
74,Knotilus,0.09433524168941114,2.1917910429992844,<matrixMath.Knotilus object at 0x7f772c431430>
74,GAM,0.09519612350717929,3.3212785160003477,"LinearGAM(callbacks=[Deviance(), Diffs()], fit_intercept=True, 
   max_iter=100, scale=None, terms=s(0) + intercept, tol=0.0001, 
   verbose=False)"
74,MARS,0.09601898440678996,0.2880261820000669,Earth()
75,Knotilus,0.09287533913607139,1.4099166220003099,<matrixMath.Knotilus object at 0x7f772c42dfd0>
75,GAM,0.09628703416585921,3.450998006000191,"LinearGAM(callbacks=[Deviance(), Diffs()], fit_intercept=True, 
   max_iter=100, scale=None, terms=s(0) + intercept, tol=0.0001, 
   verbose=False)"
75,MARS,0.11578033437334834,0.2609272919999057,Earth()
76,Knotilus,0.09169224660632425,3.3700550280000243,<matrixMath.Knotilus object at 0x7f772c440fa0>
76,GAM,0.09259870721638497,3.2143875319998187,"LinearGAM(callbacks=[Deviance(), Diffs()], fit_intercept=True, 
   max_iter=100, scale=None, terms=s(0) + intercept, tol=0.0001, 
   verbose=False)"
76,MARS,0.09658005275037826,0.2592532870003197,Earth()
77,Knotilus,0.09316746261356229,1.1544497579998279,<matrixMath.Knotilus object at 0x7f772c491af0>
77,GAM,0.09561324130558498,3.2780759100005525,"LinearGAM(callbacks=[Deviance(), Diffs()], fit_intercept=True, 
   max_iter=100, scale=None, terms=s(0) + intercept, tol=0.0001, 
   verbose=False)"
77,MARS,0.0958591338905591,0.217418182000074,Earth()
78,Knotilus,0.09188414010020449,2.8553368859993498,<matrixMath.Knotilus object at 0x7f772c4093d0>
78,GAM,0.09469015889203836,3.292813314000341,"LinearGAM(callbacks=[Deviance(), Diffs()], fit_intercept=True, 
   max_iter=100, scale=None, terms=s(0) + intercept, tol=0.0001, 
   verbose=False)"
78,MARS,0.09523196183309737,0.39912740199997643,Earth()
79,Knotilus,0.09282035554873805,2.548792270999911,<matrixMath.Knotilus object at 0x7f772c47e550>
79,GAM,0.09419108294073379,3.189350032999755,"LinearGAM(callbacks=[Deviance(), Diffs()], fit_intercept=True, 
   max_iter=100, scale=None, terms=s(0) + intercept, tol=0.0001, 
   verbose=False)"
79,MARS,0.09353816799512533,0.036357752999720105,Earth()
80,Knotilus,0.09113970310867339,3.748942733000149,<matrixMath.Knotilus object at 0x7f772c42d1c0>
80,GAM,0.09466709960343703,3.2257895540005848,"LinearGAM(callbacks=[Deviance(), Diffs()], fit_intercept=True, 
   max_iter=100, scale=None, terms=s(0) + intercept, tol=0.0001, 
   verbose=False)"
80,MARS,0.09526948286243597,0.11954182600038621,Earth()
81,Knotilus,0.10153448836974924,0.9520937709994541,<matrixMath.Knotilus object at 0x7f772c406af0>
81,GAM,0.09264558042206189,3.0397768580005504,"LinearGAM(callbacks=[Deviance(), Diffs()], fit_intercept=True, 
   max_iter=100, scale=None, terms=s(0) + intercept, tol=0.0001, 
   verbose=False)"
81,MARS,0.09384039921685074,0.04931773600037559,Earth()
82,Knotilus,0.12814773878946514,0.19423086899951159,<matrixMath.Knotilus object at 0x7f772c78d9a0>
82,GAM,0.09444311015784493,3.206618922999951,"LinearGAM(callbacks=[Deviance(), Diffs()], fit_intercept=True, 
   max_iter=100, scale=None, terms=s(0) + intercept, tol=0.0001, 
   verbose=False)"
82,MARS,0.09520336660919822,0.1370995490005953,Earth()
83,Knotilus,0.11673388412330185,0.38135985100052494,<matrixMath.Knotilus object at 0x7f772c5f6040>
83,GAM,0.09430183495794131,3.321038744999896,"LinearGAM(callbacks=[Deviance(), Diffs()], fit_intercept=True, 
   max_iter=100, scale=None, terms=s(0) + intercept, tol=0.0001, 
   verbose=False)"
83,MARS,0.09479407232126705,0.03178238300006342,Earth()
84,Knotilus,0.09188306816560443,2.7200824249994184,<matrixMath.Knotilus object at 0x7f772c5f69d0>
84,GAM,0.09387274823638622,3.2594826539998394,"LinearGAM(callbacks=[Deviance(), Diffs()], fit_intercept=True, 
   max_iter=100, scale=None, terms=s(0) + intercept, tol=0.0001, 
   verbose=False)"
84,MARS,0.09276498259751476,0.08277218500006711,Earth()
85,Knotilus,0.08908047932526975,18.207833434999884,<matrixMath.Knotilus object at 0x7f772c4630a0>
85,GAM,0.09143010755848706,3.2039902260003146,"LinearGAM(callbacks=[Deviance(), Diffs()], fit_intercept=True, 
   max_iter=100, scale=None, terms=s(0) + intercept, tol=0.0001, 
   verbose=False)"
85,MARS,0.10591954087542924,0.13490209299925482,Earth()
86,Knotilus,0.09528027009045888,1.7967559989992878,<matrixMath.Knotilus object at 0x7f772c3fa040>
86,GAM,0.09712603526766772,2.8776928779998343,"LinearGAM(callbacks=[Deviance(), Diffs()], fit_intercept=True, 
   max_iter=100, scale=None, terms=s(0) + intercept, tol=0.0001, 
   verbose=False)"
86,MARS,0.10817598359677538,0.15261097500024334,Earth()
87,Knotilus,0.09498414909995583,2.6749438910001118,<matrixMath.Knotilus object at 0x7f772c3faa00>
87,GAM,0.09664224534255737,3.1877674879997357,"LinearGAM(callbacks=[Deviance(), Diffs()], fit_intercept=True, 
   max_iter=100, scale=None, terms=s(0) + intercept, tol=0.0001, 
   verbose=False)"
87,MARS,0.10114678935244464,0.15701503199943545,Earth()
88,Knotilus,0.09235527913149208,1.9348398439997254,<matrixMath.Knotilus object at 0x7f772c3bbdf0>
88,GAM,0.09631229090838445,3.636468749999949,"LinearGAM(callbacks=[Deviance(), Diffs()], fit_intercept=True, 
   max_iter=100, scale=None, terms=s(0) + intercept, tol=0.0001, 
   verbose=False)"
88,MARS,0.09320893436416054,0.17993435600055818,Earth()
89,Knotilus,0.10195377820854527,0.5025024040005519,<matrixMath.Knotilus object at 0x7f772c3a84f0>
89,GAM,0.0941098050907537,3.316065833000721,"LinearGAM(callbacks=[Deviance(), Diffs()], fit_intercept=True, 
   max_iter=100, scale=None, terms=s(0) + intercept, tol=0.0001, 
   verbose=False)"
89,MARS,0.10102195056029727,0.10503439300009632,Earth()
90,Knotilus,0.090819127391418,1.6401621329996487,<matrixMath.Knotilus object at 0x7f772c431610>
90,GAM,0.0936091312242268,3.566515550999611,"LinearGAM(callbacks=[Deviance(), Diffs()], fit_intercept=True, 
   max_iter=100, scale=None, terms=s(0) + intercept, tol=0.0001, 
   verbose=False)"
90,MARS,0.09263041302934721,0.19243204000031255,Earth()
91,Knotilus,0.1100027509918692,0.2999238800002786,<matrixMath.Knotilus object at 0x7f772c3bb220>
91,GAM,0.0916665590197841,2.9474048020001646,"LinearGAM(callbacks=[Deviance(), Diffs()], fit_intercept=True, 
   max_iter=100, scale=None, terms=s(0) + intercept, tol=0.0001, 
   verbose=False)"
91,MARS,0.0946463775215605,0.08310323800014885,Earth()
92,Knotilus,0.09047295734343613,0.9996008990001428,<matrixMath.Knotilus object at 0x7f772c463850>
92,GAM,0.09351492536534307,3.231892574000085,"LinearGAM(callbacks=[Deviance(), Diffs()], fit_intercept=True, 
   max_iter=100, scale=None, terms=s(0) + intercept, tol=0.0001, 
   verbose=False)"
92,MARS,0.09269249702394439,0.08579229499991925,Earth()
93,Knotilus,0.09368709920345147,1.0516279230005239,<matrixMath.Knotilus object at 0x7f772c3bb280>
93,GAM,0.09491252617180704,3.135227787000076,"LinearGAM(callbacks=[Deviance(), Diffs()], fit_intercept=True, 
   max_iter=100, scale=None, terms=s(0) + intercept, tol=0.0001, 
   verbose=False)"
93,MARS,0.09516191284580278,0.16545248100010213,Earth()
94,Knotilus,0.11338926898217781,0.2965982069999882,<matrixMath.Knotilus object at 0x7f772c4069a0>
94,GAM,0.0906610363547639,3.346368724999593,"LinearGAM(callbacks=[Deviance(), Diffs()], fit_intercept=True, 
   max_iter=100, scale=None, terms=s(0) + intercept, tol=0.0001, 
   verbose=False)"
94,MARS,0.09279919582057229,0.1621785170000294,Earth()
95,Knotilus,0.11465871634273042,0.15616327400039154,<matrixMath.Knotilus object at 0x7f772c3d1580>
95,GAM,0.09071698091110428,3.062348048999411,"LinearGAM(callbacks=[Deviance(), Diffs()], fit_intercept=True, 
   max_iter=100, scale=None, terms=s(0) + intercept, tol=0.0001, 
   verbose=False)"
95,MARS,0.09174078453874356,0.04284664300030272,Earth()
96,Knotilus,0.09196791944460138,2.1822960540002896,<matrixMath.Knotilus object at 0x7f772c406820>
96,GAM,0.09362939114752925,3.129671882999901,"LinearGAM(callbacks=[Deviance(), Diffs()], fit_intercept=True, 
   max_iter=100, scale=None, terms=s(0) + intercept, tol=0.0001, 
   verbose=False)"
96,MARS,0.09421945079009553,0.039492386000347324,Earth()
97,Knotilus,0.12342345309070968,0.5884781679997104,<matrixMath.Knotilus object at 0x7f772c3bbf70>
97,GAM,0.0936746303042076,3.110619705999852,"LinearGAM(callbacks=[Deviance(), Diffs()], fit_intercept=True, 
   max_iter=100, scale=None, terms=s(0) + intercept, tol=0.0001, 
   verbose=False)"
97,MARS,0.09491361242990506,0.18883255700075097,Earth()
98,Knotilus,0.10496293374657578,0.5774280830000862,<matrixMath.Knotilus object at 0x7f772c3bbe50>
98,GAM,0.09285898638430369,3.1421375989993976,"LinearGAM(callbacks=[Deviance(), Diffs()], fit_intercept=True, 
   max_iter=100, scale=None, terms=s(0) + intercept, tol=0.0001, 
   verbose=False)"
98,MARS,0.09531952483594826,0.13416938099999243,Earth()
99,Knotilus,0.09276572415333076,0.9597077859998535,<matrixMath.Knotilus object at 0x7f772c3d9700>
99,GAM,0.09311528345484082,3.3351200610004526,"LinearGAM(callbacks=[Deviance(), Diffs()], fit_intercept=True, 
   max_iter=100, scale=None, terms=s(0) + intercept, tol=0.0001, 
   verbose=False)"
99,MARS,0.09305115487747792,0.1259577939999872,Earth()
