Knotilus,GAM,MARS
1,51,28
Knotilus,GAM,MARS
0.10489317249157938,0.1055430452320838,0.11627137918275683
0.8332206119994225,0.9188229249994038,0.15008085000044957
<matrixMath.Knotilus object at 0x7f772c897310>,"LinearGAM(callbacks=[Deviance(), Diffs()], fit_intercept=True, 
   max_iter=100, scale=None, terms=s(0) + intercept, tol=0.0001, 
   verbose=False)",Earth()
