iteration,test-rmse,numKnots,knotLoc,iterations,time,method
0,0.11490202982476325,6,[0.59353249 0.24381556 0.98119562 0.84024922 0.49844404 0.19836221],371,1.5772972111590207,Without Coef.
0,0.16153001595150163,2,[ 0.87147335  0.80078671  0.27336747  3.11076512 -0.14775154],1401,0.5607738019898534,With Coef.
1,0.13129292770539006,5,[0.26332218 0.40788735 0.98062571 0.99999502 0.18622687],352,0.8532467382028699,Without Coef.
1,0.11544591431978665,4,"[ 0.26243126  0.84947899  0.17545215  0.46733182  0.05253315 -7.78634644
  1.95421663  6.5065306   1.00997   ]",2201,1.9891875078901649,With Coef.
2,0.12233032612272642,5,[0.18671156 0.42825927 0.26038618 0.97805626 0.04855801],281,0.9228395251557231,Without Coef.
2,0.12097092506302133,6,"[ 1.85894356e-01  2.58497763e-01  9.74253253e-01  4.32455304e-01
  2.28029440e-01  1.86115215e-01 -1.22198312e-02 -2.91816244e+00
 -1.44425230e+01  2.62078192e+01  3.26195085e+00  1.55161432e-01
  1.41599957e+01]",3001,4.63898043287918,With Coef.
3,0.11045778811372758,6,[0.19778981 0.2445127  0.59257575 0.2633223  0.8597704  0.49529916],200,1.1557270549237728,Without Coef.
3,0.14206726301322775,2,"[-1.61196021e-04  9.12225791e-01  2.31368874e-01  1.49028550e-01
  4.53643837e+00]",1058,0.39083406422287226,With Coef.
4,0.23096713007628278,2,[ 0.97556104 -0.02097651],123,0.15920884115621448,Without Coef.
4,0.12517669672402898,3,"[  0.78119405   0.77396066   0.48625041   0.2786317   29.38469688
 -27.10449454   0.16868932]",1801,1.0353547553531826,With Coef.
5,0.11852163551918002,8,"[0.24654547 0.82756681 0.64116765 0.47346504 0.6927849  0.19610417
 0.1031616  0.98119172]",928,2.950309803709388,Without Coef.
5,0.11840942833844857,7,"[  0.2633288    0.82682256   0.16505393   0.62671786   0.45608082
   0.97481347   0.63451765  -0.05249388 -11.43757278   3.21785177
   8.39756594   0.38242964   4.218787     6.74772506  -2.51759501]",3402,6.660601922310889,With Coef.
6,0.12386104307600013,4,[0.84951149 0.42948186 0.19409477 0.24911569],227,0.4107884499244392,Without Coef.
6,0.12648413192856214,4,"[ 8.49527196e-01  4.31142858e-01  2.15988018e-01  2.38005803e-01
  2.15151140e-02  1.89252523e+00  2.69349871e+00  3.51963319e+01
 -3.78756620e+01]",2201,1.9238612749613822,With Coef.
7,0.20618976218780238,1,[-0.02852665],88,0.06376877008005977,Without Coef.
7,0.13795013316761287,3,"[ 2.37354588e-01  8.68338539e-01  1.89728875e-01  2.85941081e-03
 -1.28090180e+01  4.82590817e+00  1.21659989e+01]",1801,1.0539163346402347,With Coef.
8,0.14389307312462285,4,[0.82509155 0.2382446  0.19232544 0.8714724 ],250,0.49580169236287475,Without Coef.
8,0.12247154165582418,4,"[  0.43250637   0.24614436   0.19930106   0.81527167   0.03092235
   1.47158622 -17.4690921   15.51934109   2.34522589]",2201,1.9463196769356728,With Coef.
9,0.21240005417043578,2,[ 0.91068525 -0.01305589],76,0.1144318520091474,Without Coef.
9,0.14909613001546976,2,"[ 9.10685786e-01 -1.51351432e-03  1.87975289e-01  4.08047884e+00
  2.16940981e-01]",995,0.3214474320411682,With Coef.
10,0.22914353155061146,1,[0.54126665],79,0.05454990128055215,Without Coef.
10,0.15812976669083245,3,"[ 0.5422322   0.614432    0.89027881  0.2329847   1.67252259 -2.02452324
  5.16842003]",1461,0.8642734973691404,With Coef.
11,0.14672578162964012,3,[0.18875977 0.42917004 0.25722786],120,0.212938133161515,Without Coef.
11,0.14529244335538663,5,"[ 1.91295274e-01  5.11356580e-01  2.58078124e-01  1.63881180e-01
  4.88260297e-01 -2.35716842e-03  8.30599404e+00 -8.19108439e+00
 -1.38836394e+01  2.54279500e+00  1.15234792e+01]",2601,3.1974013978615403,With Coef.
12,0.10405747831195197,5,[0.18953707 0.26293038 0.45140833 0.86932272 0.62766194],396,1.3663163222372532,Without Coef.
12,0.10814311827731767,9,"[  0.17889797   0.28037765   0.46370229   0.17321027   0.5506162
   0.49003773   0.43748242   0.91835234   0.911432     0.07353054
   3.62246328 -11.03278555  -3.77715481   3.46896166  -4.98969753
   8.10738711   4.18683295  -2.09855927   8.22189581]",4201,12.080547931138426,With Coef.
13,0.1734473589567424,2,[0.19303571 0.22884411],169,0.15021874383091927,Without Coef.
13,0.10826384421707877,9,"[ 0.31453483  0.1749036   0.09407335  0.88609778  0.40919124  0.45311207
  0.59074932  0.49808462  0.25947325 -0.06713221 -5.08650247  3.23631351
  2.77749358  4.61838533  3.37621061  0.94514894 -1.52953025  1.22107187
 -5.33244061]",4201,12.056235389783978,With Coef.
14,0.2378116957964944,2,[0.87143262 0.9811912 ],111,0.11006720922887325,Without Coef.
14,0.14795169696898125,3,"[ 0.88940152  0.80564263  0.98119122  0.26763081  3.48140746  0.17226821
 21.58414097]",1801,1.0697044730186462,With Coef.
15,0.20204987869301683,1,[-0.01661442],62,0.04819148499518633,Without Coef.
15,0.15056854887106622,2,[-0.06880334  0.9122257   0.20821894  0.17823153  3.48145278],1068,0.3821806041523814,With Coef.
16,0.20655019189884183,3,[0.90714277 0.91166773 0.00528993],326,0.35183662362396717,Without Coef.
16,0.12850526946854068,2,[0.91705301 0.4952978  0.26870247 5.87490716 0.11866574],1265,0.4496961599215865,With Coef.
17,0.21254595333979284,2,[ 0.91734148 -0.27020443],99,0.1275131651200354,Without Coef.
17,0.11617864307075365,4,"[ 9.15896344e-01  2.70376476e-01  4.30377834e-01  1.65263548e-01
 -7.22785115e-03  6.64248850e+00 -1.02347863e+01  3.20429582e+00
  7.17714425e+00]",2201,1.8298845230601728,With Coef.
18,0.15010463623561487,3,[0.82208184 0.23466004 0.19295114],156,0.2757968842051923,Without Coef.
18,0.23529749162693558,1,[0.87147338 0.27907459 3.02022044],395,0.09272058634087443,With Coef.
19,0.12373505204816465,4,[0.89028034 0.24986541 0.19750364 0.4325987 ],209,0.5631047659553587,Without Coef.
19,0.11717887779584288,7,"[  0.86775095   0.18790846   0.46095371  -1.31646305   0.58241767
   0.25659889   0.86848764   0.26446552 -36.5674023   12.02893449
   4.33779592  -0.18264616  -1.49496031 -14.90237959  40.34738701]",3401,6.62632563803345,With Coef.
20,0.20732932542003304,2,[ 0.92021289 -1.1060946 ],94,0.13735893508419394,Without Coef.
20,0.15928503490324658,2,[ 0.89341408  0.65522347  0.30627885  4.12862335 -0.20496443],564,0.3588050273247063,With Coef.
21,0.12726719914960558,5,[0.24772693 0.41933498 0.82767326 0.9803121  0.1962886 ],454,1.0547490189783275,Without Coef.
21,0.1903760434064296,2,"[ 2.25705323e-01  1.94831924e-01  4.07469391e-03 -1.47725272e+01
  1.45508107e+01]",923,0.44690431701019406,With Coef.
22,0.21748062572422286,2,[ 0.89028213 -0.13310731],141,0.18055767891928554,Without Coef.
22,0.16006675340667983,2,[ 0.89028213 -0.010164    0.21539508  2.22417166  0.1675452 ],1401,0.42579350527375937,With Coef.
23,0.11718888863209397,8,"[0.2518612  0.04259901 0.65830739 0.56863187 0.83032074 0.49531251
 0.19471461 0.38337954]",1030,2.5373415928333998,Without Coef.
23,0.15239653645326318,2,[ 0.36050167  0.88763161  0.31618893 -0.10406069  5.00160901],1070,0.4315500855445862,With Coef.
24,0.1267016880133957,4,[0.18495187 0.91535137 0.3921487  0.26517781],218,0.43697230797261,Without Coef.
24,0.19091906983441934,1,[-0.01943854  0.15136415  0.29229817],414,0.09547836240381002,With Coef.
25,0.11521337285366103,4,[0.91222708 0.25357915 0.43201459 0.19334851],324,0.5885577481240034,Without Coef.
25,0.13919007812854473,3,"[ 8.60263292e-01  1.90082476e-01  2.38945156e-01  1.83918249e-03
  5.05243521e+00  1.16436175e+01 -1.22791017e+01]",1801,1.1163246957585216,With Coef.
26,0.13929211173083506,3,[0.18657155 0.441829   0.25962291],149,0.28347675083205104,Without Coef.
26,0.1607108328913332,3,"[-0.03083772  0.43004367  0.30610809 -0.33969807  3.09992391  4.52038085
 -7.11403936]",1802,0.8063115710392594,With Coef.
27,0.1123036744155105,6,[0.1938448  0.44538173 0.91535995 0.54262186 0.24952836 0.54899866],406,1.400670989882201,Without Coef.
27,0.16646808703107696,1,[0.0059674  0.18404305 0.2756362 ],332,0.07690412923693657,With Coef.
28,0.11844285271641321,4,[0.40428685 0.87149434 0.18665943 0.26332623],226,0.38185677118599415,Without Coef.
28,0.12700366194331833,4,"[ 0.42946712  0.95329784  0.15311762  0.28154692  0.01124148  3.17300229
 11.15155009  5.32313611 -8.26600868]",2201,1.8861590907908976,With Coef.
29,0.12951611424470064,4,[0.94434219 0.4294511  0.19248723 0.24749893],218,0.5070683159865439,Without Coef.
29,0.13280436513910657,4,"[ 9.70135835e-01  4.20485125e-01  1.88428666e-01  2.48529264e-01
 -1.10054992e-02  2.83957727e+01  3.29464949e+00  1.38803232e+01
 -1.70598772e+01]",2202,1.8597818771377206,With Coef.
30,0.11844454864797933,5,[0.41599665 0.19133342 0.87160646 0.01575622 0.26622739],400,0.6918867160566151,Without Coef.
30,0.1676626901254696,3,"[9.84565818e-01 9.78056420e-01 8.71473348e-01 2.92550355e-01
 4.51496611e-04 2.02155671e+01 2.94246967e+00]",1801,0.9854542077519,With Coef.
31,0.13360042252482734,3,[0.19031641 0.25593982 0.46906085],151,0.25441693514585495,Without Coef.
31,0.18754591883823354,1,[-0.02447405  0.1718022   0.2758767 ],378,0.08921873802319169,With Coef.
32,0.21350193126832867,2,[ 0.9122257  -0.04469133],101,0.1503383293747902,Without Coef.
32,0.14367483989025778,2,[ 0.9122257  -0.04447614  0.17762209  2.7454435   0.21510442],1402,0.49691430805251,With Coef.
33,0.1139666590733721,8,"[0.63901105 0.01012437 0.19075255 0.47641633 0.99249304 0.93730617
 0.25385293 0.78369916]",596,2.671115019824356,Without Coef.
33,0.12691468291578617,4,"[  0.40972169   0.17426794   0.93177472   0.27186359   0.01778324
   3.75132938   8.19467185   8.54921779 -11.95957094]",2201,1.9326993231661618,With Coef.
34,0.10892834618316045,7,"[ 0.25334715  0.89344751  0.19363499  0.61955524  0.48980217 -0.02952958
  0.79225998]",738,2.2346966126933694,Without Coef.
34,0.11638031279054518,4,"[ 0.63027775  0.14635028  0.89349506  0.2758177   0.00702201  0.38268472
  3.94085433  6.57080452 -4.55236097]",2202,1.9207873311825097,With Coef.
35,0.12462696724804209,4,[0.25498211 0.40793972 0.91222767 0.19216815],327,0.7789215440861881,Without Coef.
35,0.14741297251554328,3,"[ 2.38542560e-01  1.87492629e-01  8.88958462e-01  1.52752383e-03
 -1.16350158e+01  1.10005035e+01  7.40273937e+00]",1802,1.1172323878854513,With Coef.
36,0.21359016405130396,2,[ 0.9152219  -0.41510819],195,0.1853819377720356,Without Coef.
36,0.15394121168909083,2,[ 0.91522078 -0.004273    0.16196035  4.21749351  0.24636922],1166,0.4164988799020648,With Coef.
37,0.14252581786403362,4,[ 0.19276081 -0.01021772  0.82189552  0.23762145],386,0.647839788813144,Without Coef.
37,0.15493857152954993,2,[0.00626951 0.9122257  0.13795105 0.29453652 2.49657847],1402,0.48688682494685054,With Coef.
38,0.12498818389878164,3,[0.19488755 0.46548825 0.24700699],179,0.32005675276741385,Without Coef.
38,0.16562431658028356,3,"[ 1.76430723e-01  9.69870691e-01  2.38244508e-01  1.67196082e-02
  6.95576819e+00  3.41722473e+01 -7.14827093e+00]",1802,0.996234049089253,With Coef.
39,0.13176842483532297,3,[0.44702084 0.26005005 0.19300295],200,0.24845034210011363,Without Coef.
39,0.1359934150342482,3,"[ 4.42449818e-01  2.73863121e-01  1.82183935e-01 -8.84037092e-03
  4.72276795e+00 -1.42101741e+01  9.96876449e+00]",1801,1.0601728670299053,With Coef.
40,0.11175420307389898,5,[0.59365765 0.8683389  0.24811829 0.49579549 0.19385057],385,0.7965566930361092,Without Coef.
40,0.20477880015106587,1,[0.87700083 0.26980604 3.51907413],378,0.08797360211610794,With Coef.
41,0.12580982207136004,3,[0.45139849 0.19090871 0.25678818],123,0.2433205870911479,Without Coef.
41,0.10635700317597455,9,"[ 6.01356275e-01 -6.51829190e-02  4.98733908e-01  1.86519594e-01
  2.10922770e-01  8.46436742e-01  2.39734530e-01  2.41476717e-01
  9.12222607e-01 -1.44284744e-02 -3.95423035e+00  1.38794750e-01
  5.77560022e+00  2.95985762e+00  2.30376686e+01  3.03176992e+00
 -3.88387495e+01  9.95886938e+00  3.39019887e+00]",4201,12.46804961701855,With Coef.
42,0.1268070497799113,5,[0.28212708 0.24138037 0.44330739 0.19249328 0.92688126],1109,1.5214228737168014,Without Coef.
42,0.13978076796585104,3,"[ 2.62753838e-01  1.81983267e-01  4.72736331e-01  2.30751774e-03
 -1.22713092e+01  9.42606811e+00  3.50573816e+00]",1801,1.1155490521341562,With Coef.
43,0.10948204502838611,5,[0.19191328 0.49121835 0.59795232 0.80252432 0.2500305 ],368,0.7837273352779448,Without Coef.
43,0.13446145924803246,2,[-0.10489924  0.91222571  0.17654909  0.20879499  2.61455301],1340,0.47692047571763396,With Coef.
44,0.11922519062832446,8,"[-0.03289261  0.49107497  0.66432116  0.24740034  0.42050541  0.1959683
  0.95611213  0.66525995]",888,3.836317758075893,Without Coef.
44,0.15079605994272036,4,"[  0.18516342   0.82763755   0.2401659    0.83136115   0.01739664
   9.73225771  16.25839893 -10.35881216 -13.26229684]",1590,1.765512736979872,With Coef.
45,0.2202717528795789,3,[ 0.9973664  0.9153605 -0.0371528],360,0.4389952509663999,Without Coef.
45,0.16504870396095567,2,"[ 9.99119909e-01  9.11083793e-01  2.84257364e-01 -5.33223104e+02
  6.73156336e+00]",1401,0.5002790801227093,With Coef.
46,0.1433886791535504,3,[0.23840618 0.7617511  0.18971584],223,0.2764588142745197,Without Coef.
46,0.1766543983042241,2,[ 0.62382445  0.63130044  0.25743493 -2.75165766  3.45946706],1102,0.36321785720065236,With Coef.
47,0.10043220485750776,7,"[0.97805691 0.24678589 0.20046874 0.47334991 0.83959933 0.1031785
 0.61763959]",606,2.136704371776432,Without Coef.
47,0.1023473852686491,9,"[  0.97805643   0.83990196   0.6927898    0.4679791    0.63636359
   0.17706549   0.72669381   0.27312241   0.2288401   -0.03700957
  24.15764726   2.5820252    1.64115891   4.96828112  -4.02031284
   9.46200404   0.29794484 -10.82693537  -1.88212649]",4201,11.891872943378985,With Coef.
48,0.1378687841406015,4,[0.99541198 0.86175146 0.2382467  0.19099272],180,0.42537886183708906,Without Coef.
48,0.15794935160353063,2,"[ 8.90282126e-01  2.44113705e-01  3.06021261e-01  4.18402573e+00
 -3.45860108e-04]",980,0.3648053100332618,With Coef.
49,0.21949761435225124,2,[ 0.9253097  -0.04692997],78,0.1238973019644618,Without Coef.
49,0.1676762241293977,2,[ 0.92530986 -2.44270515 -0.5034768   5.56969273  0.26784506],616,0.2767978268675506,With Coef.
50,0.23296133933598745,1,[-0.06739812],103,0.0722482861019671,Without Coef.
50,0.19998451414014373,1,[-0.00916628  0.17414473  0.2482234 ],510,0.1169559140689671,With Coef.
51,0.228530526884649,1,[0.89333366],60,0.05874569108709693,Without Coef.
51,0.12397650659105011,4,"[ 0.84953233  0.63636364  0.50137737  0.98139461  0.29894502  2.56155168
 -0.54095239  0.18570445 41.19590011]",2202,1.7017589616589248,With Coef.
52,0.134398119007885,4,[0.74297582 0.2332688  0.19388457 0.89341652],203,0.617639334872365,Without Coef.
52,0.15649886912402175,2,[ 0.9122257  -0.11711782  0.20846233  4.54824618  0.15257171],915,0.3582115210592747,With Coef.
53,0.14412698765885712,3,[0.18887884 0.84730432 0.24111084],418,0.4666099823080003,Without Coef.
53,0.14409563093410085,3,"[ 1.86141153e-01  8.46184420e-01  2.41378199e-01  1.48121513e-03
  9.71192780e+00  4.17564945e+00 -1.02815610e+01]",1801,1.030939122196287,With Coef.
54,0.12198473001315212,4,[0.2633487  0.91533279 0.41607216 0.1872313 ],179,0.6199675472453237,Without Coef.
54,0.1456526902427749,3,"[ 0.5705329   0.56108693  0.89028213  0.27092919 -9.75375897  9.43823155
  5.23582228]",1035,0.7503929948434234,With Coef.
55,0.1131105902031791,7,"[0.43385915 0.60818427 0.24088462 0.33228855 0.1976715  0.87147299
 0.98119288]",736,2.0617319610901177,Without Coef.
55,0.10826522967737694,5,"[ 4.91131619e-01  5.90802080e-01  1.88844367e-01  8.71493771e-01
  2.53744739e-01  7.18153979e-04  5.73755191e+00 -3.48571128e+00
  1.26053311e+01  6.01326725e+00 -1.55391146e+01]",2602,3.100995789747685,With Coef.
56,0.20499860574017695,1,[0.84579496],62,0.04626632621511817,Without Coef.
56,0.1631251878407245,2,[ 0.47401027  0.37265675  0.31940316  1.42057999 -0.9652136 ],737,0.2984452471137047,With Coef.
57,0.22681226305805113,1,[0.89341693],75,0.05864488519728184,Without Coef.
57,0.16630028815681114,2,[ 0.89341692  0.64263368  0.28498261  4.88728436 -0.08370754],1402,0.481474110390991,With Coef.
58,0.22237449936000311,1,[0.89122257],85,0.06081929104402661,Without Coef.
58,0.11738748804796517,5,"[ 4.29467080e-01  1.84952935e-01  9.12225701e-01  2.67133350e-01
  1.72146186e-01  7.53448343e-03  3.02178775e+00  7.09489515e-01
  5.43611524e+00 -1.06612189e+01  7.05138516e+00]",2601,2.930767913348973,With Coef.
59,0.10495018288490329,5,[0.18639843 0.88974935 0.45490871 0.25493491 0.61755222],300,0.7252862909808755,Without Coef.
59,0.15553759872236364,1,[-0.03761013  0.16590853  0.27392477],579,0.13532507792115211,With Coef.
60,0.12695352481259062,5,[0.5861323  0.45706452 0.2457721  0.93418212 0.19497313],438,1.0109787746332586,Without Coef.
60,0.13474300287985194,5,"[ 6.74522550e-01  4.80432177e-01  2.41390523e-01  6.39166037e-01
  1.77349095e-01 -9.56481454e-03  3.11601038e+00  1.82925081e+00
 -1.14601365e+01 -2.92281532e+00  1.00334571e+01]",2601,2.87556746089831,With Coef.
61,0.2266451666706909,1,[0.89272629],69,0.052080543246120214,Without Coef.
61,0.15499509371710354,2,[ 0.47335423  0.41480308  0.30626707  2.58333328 -1.99174351],698,0.33577654929831624,With Coef.
62,0.22098960758807182,2,[ 0.9122257  -0.36263665],109,0.14928804198279977,Without Coef.
62,0.16658221869451362,3,"[ 0.9783558   0.87149981  0.04508289  0.27119324 25.6984478   2.5330953
  0.02823635]",1801,1.0295812617987394,With Coef.
63,0.14627708881280352,3,[0.86834421 0.18926019 0.23839605],222,0.3213202119804919,Without Coef.
63,0.23845279154915003,1,[0.90565614 0.28674534 6.2787982 ],191,0.052667842246592045,With Coef.
64,0.1540782057837364,3,[0.19355896 0.4547153  0.24855043],192,0.29065329721197486,Without Coef.
64,0.14024893751142967,5,"[  0.07187539   0.70906128   0.38311816   0.33263867   0.8036491
  -0.10334353   3.18512209  -1.64554966   9.2127427  -12.17987308
   3.36500108]",2602,3.011873384937644,With Coef.
65,0.2029264030880456,3,[ 1.45916215  0.93667806 -0.05629309],90,0.19299767585471272,Without Coef.
65,0.14683445495710837,3,"[ 1.06789813e+00  9.36678192e-01 -2.34184754e-03  1.81791757e-01
  1.54295215e-01  7.81207350e+00  2.23476224e-01]",1801,0.7919720583595335,With Coef.
66,0.11866840503909151,4,[0.24965323 0.44345927 0.19173368 0.963658  ],358,0.7988260542042553,Without Coef.
66,0.13131780239618707,3,"[ 2.49812702e-01  4.51410652e-01  1.91634162e-01  1.25224838e-03
 -1.63187813e+01  3.05481363e+00  1.35585030e+01]",1801,1.1409899978898466,With Coef.
67,0.21208310747676457,2,[ 0.89915278 -0.00672756],134,0.14334959536790848,Without Coef.
67,0.15136730051596523,2,"[9.35626468e-01 1.95866339e-03 2.04278885e-01 4.33345960e+00
 1.99356596e-01]",1390,0.4114870671182871,With Coef.
68,0.20897590804185662,1,[0.89573496],63,0.04409070825204253,Without Coef.
68,0.15555040284250266,2,[ 0.93406568 -0.06516645  0.20452572  6.73611915  0.1767356 ],1363,0.43291339091956615,With Coef.
69,0.14123027679399253,4,[1.0975447  0.23391029 0.19188758 0.81726116],243,0.4759146003052592,Without Coef.
69,0.1567003089251176,2,[0.89028213 0.48727618 0.28270521 3.87292088 0.01001858],676,0.2613454437814653,With Coef.
70,0.12185832744669532,7,"[0.75616544 0.1897802  0.63950151 0.36572651 0.98011085 0.49156227
 0.25018479]",448,2.1882238280959427,Without Coef.
70,0.195719571594614,2,[ 0.97832737 -7.92198267 -1.9925037  34.02546971  0.27090258],1401,0.520581214223057,With Coef.
71,0.11288666933730043,4,[0.18836287 0.05047697 0.26216073 0.45455855],314,0.4232476241886616,Without Coef.
71,0.11283880084717308,4,"[  0.18716849  -0.02992325   0.26211421   0.45454545   0.02094282
  11.05935225  -0.12856655 -14.11865709   3.69827318]",2201,1.6356986751779914,With Coef.
72,0.1440236607094036,4,[0.22884053 1.10106541 0.1907039  0.86833957],250,0.3994861440733075,Without Coef.
72,0.14212098079679647,4,"[ 2.37697251e-01  9.79748630e-01  1.80579712e-01  8.25547675e-01
  3.17170661e-03 -9.16508025e+00  2.31492379e+01  8.66339414e+00
  2.68420725e+00]",2201,2.036529050208628,With Coef.
73,0.12380348522051522,3,[0.19066833 0.4630854  0.24877729],655,0.6118456390686333,Without Coef.
73,0.1797609981680461,2,[-0.06250476  0.92393763  0.18007015  0.19417519  4.8364379 ],249,0.1876735920086503,With Coef.
74,0.10846190301681537,4,[0.18638367 0.26393722 0.41994204 0.91393392],371,0.5902950661256909,Without Coef.
74,0.1633026815660016,1,[-0.03691733  0.18641637  0.27621132],384,0.09203134244307876,With Coef.
75,0.2318248342062791,1,[0.89027693],56,0.05184892192482948,Without Coef.
75,0.16621291782956912,2,[0.80564349 0.89028213 0.27525811 0.08126428 4.22220209],1401,0.45542826503515244,With Coef.
76,0.22175859634215855,2,[0.91222812 0.47646035],76,0.087782037910074,Without Coef.
76,0.09894122835466432,6,"[ 8.42331914e-01  5.72999427e-01  2.49445714e-01  5.49615743e-01
  5.09000323e+00  1.87558773e-01  5.73849599e-03  2.94537328e+00
 -1.47803780e+01 -1.42491558e+01  1.64244175e+01  1.92698747e+01
  1.20015032e+01]",3001,4.6993385762907565,With Coef.
77,0.11068881555644433,4,[0.2614436  0.8733865  0.4270335  0.18644387],224,0.5341530092991889,Without Coef.
77,0.15757153679586244,2,"[ 1.95785286e-01  2.28053070e-01  7.00363333e-03  1.43179125e+01
 -1.45418221e+01]",455,0.2751723718829453,With Coef.
78,0.225276135699795,2,[0.94931059 0.00274698],129,0.10763580119237304,Without Coef.
78,0.15470106852939258,3,"[ 0.84969289  0.51538217  0.63636803  0.28070343  3.89434534  0.96523997
 -1.75978196]",1801,1.0678866798989475,With Coef.
79,0.11635923507799383,4,[0.26085267 0.89028505 0.18651025 0.42696575],199,0.4436042499728501,Without Coef.
79,0.13123844769435336,3,"[ 1.89643726e-01  4.48068862e-01  2.60310367e-01  7.15254688e-03
  1.15348711e+01  3.88079282e+00 -1.48672243e+01]",1801,1.0666493396274745,With Coef.
80,0.1457949447576002,3,[0.19282074 0.82845215 0.22950289],113,0.35325434897094965,Without Coef.
80,0.19808861383522106,1,[0.         0.17238735 0.26861647],380,0.08387253619730473,With Coef.
81,0.22282726348528867,1,[0.91539479],107,0.07020412432029843,Without Coef.
81,0.1703468280523072,3,"[ 0.89574423 -0.05123548  0.26696841 -0.33939618  6.99254398  2.63622756
 -3.09348442]",1613,0.878196416888386,With Coef.
82,0.21483237128281588,1,[0.91555214],91,0.057760875672101974,Without Coef.
82,0.15478786177795315,3,"[ 0.90962289  0.28842497  0.03453632  0.11911975  3.93561079 -1.01063779
  0.92337254]",1801,1.1211092812009156,With Coef.
83,0.13880365419469448,4,[ 0.84849741 -0.0855359   0.19403636  0.23197106],191,0.4443382560275495,Without Coef.
83,0.14356053388710094,2,[ 0.90903684 -0.03617339  0.15963968  3.64930418  0.23860901],831,0.3186244620010257,With Coef.
84,0.20994065970297676,2,[ 0.9143259  -1.12715511],118,0.15719280019402504,Without Coef.
84,0.10695374772726908,5,"[ 4.18356828e-01  8.91380855e-01  9.81191226e-01  1.68944831e-01
  2.78202635e-01 -9.37226482e-03  3.53175142e+00  4.47489860e+00
  2.52726484e+01  7.27836142e+00 -1.08168046e+01]",2602,2.920644411817193,With Coef.
85,0.11973934493905132,8,"[0.1973936  0.45731315 0.24303479 0.98119096 0.60885111 0.83569972
 0.60815294 0.28326262]",674,3.0607518018223345,Without Coef.
85,0.1890589715488738,2,[-5.9476158   0.91677544 -1.12910672  0.22108363  5.76768258],463,0.26252497266978025,With Coef.
86,0.11588688504927797,4,[0.89346648 0.26018847 0.18917224 0.43843658],365,0.5994469015859067,Without Coef.
86,0.12433436366489714,4,"[ 4.29467071e-01  2.59501422e-01  1.90522759e-01  4.67710857e-01
  2.13412682e-03  3.19091172e-01 -1.45882701e+01  1.16001341e+01
  3.21491119e+00]",2201,1.737700458150357,With Coef.
87,0.25394583496664436,2,[ 0.97701845 -0.01680218],98,0.13511270005255938,Without Coef.
87,0.18943748454902357,2,[ 0.9122257  -1.58034119 -0.34846145  3.49658546  0.29977657],1401,0.4795682071708143,With Coef.
88,0.11106071814179672,4,[0.26231857 0.18908299 0.43182394 0.89021556],618,0.8474677740596235,Without Coef.
88,0.17941750969707343,1,[-0.01452351  0.15451552  0.26493871],439,0.1000483138486743,With Coef.
89,0.23282287878709623,2,[0.99768245 0.89450698],141,0.1331002633087337,Without Coef.
89,0.16729013224067685,3,"[ 0.97178683  0.66457683  0.87147335  0.29404946  5.76068961 -0.02339386
  2.52571175]",1801,0.8935620291158557,With Coef.
90,0.1477738549145539,3,[0.19028484 0.25558957 0.43779859],313,0.420920436270535,Without Coef.
90,0.15248922191815345,3,"[  0.16651942   0.28360895   0.38667643   0.05044467   7.07605186
 -13.34073952   6.53824135]",1801,1.0321282702498138,With Coef.
91,0.1516222376854102,3,[0.18914313 0.23729482 0.87942884],267,0.4333122130483389,Without Coef.
91,0.15157492342418355,4,"[ 1.60463867e-01  3.06041108e-01  3.29462479e-01  9.11359564e-01
  6.66367471e-03  5.56210315e+00 -2.65664863e+01  2.09464326e+01
  7.25472668e+00]",1039,1.518865364138037,With Coef.
92,0.2041947780538528,2,[ 0.91442656 -0.04546777],146,0.1503727757371962,Without Coef.
92,0.13491499891186576,4,"[ 4.90246603e-02  1.90107154e-01  2.37797849e-01  8.24713833e-01
 -9.06623999e-03  2.57031982e-01  1.09725042e+01 -1.18823994e+01
  3.77682123e+00]",1789,1.5267807436175644,With Coef.
93,0.14196290387121085,3,[0.19084259 0.80324276 0.23716817],261,0.35214574495330453,Without Coef.
93,0.16909894208032372,3,"[ 1.56590871e-01  9.70835841e-01  2.60188031e-01  1.99185853e-03
  4.25823307e+00  3.37814524e+01 -4.50380818e+00]",1801,1.0653734640218318,With Coef.
94,0.12643157269048425,4,[0.93417227 0.19956426 0.43848892 0.24271696],552,0.7014630911871791,Without Coef.
94,0.14920113312752806,3,"[ 0.48577886  0.14533602  0.25334475 -0.05699178  1.53009215  5.50754889
 -6.68137266]",1801,1.1732609886676073,With Coef.
95,0.12902682703639645,5,[0.18654941 0.45105803 0.26398496 0.3449613  0.91536356],360,1.086212077178061,Without Coef.
95,0.14120040356321156,3,"[ 1.88724875e-01  2.60970116e-01  4.51410652e-01  5.83946270e-03
  1.10791271e+01 -1.42482930e+01  3.59610499e+00]",1801,1.0384076619520783,With Coef.
96,0.16920252571760414,5,[ 0.26959282  1.28223181 -0.18893188  0.84953018  1.49755985],225,0.670196897815913,Without Coef.
96,0.16081888452046345,4,"[ 0.55195224  0.93416927  0.61338478  0.71473354  0.25949057  3.62690457
  5.00616204 -6.22940079  3.26642002]",2201,1.755823627114296,With Coef.
97,0.1066363070662611,4,[0.19133188 0.26267938 0.88706676 0.42350284],242,0.5345239541493356,Without Coef.
97,0.13998351532784092,3,"[ 1.81327147e-01  8.09621165e-01  2.47419054e-01  3.27068686e-03
  8.65282792e+00  3.03992385e+00 -9.35319330e+00]",1801,1.0400429219007492,With Coef.
98,0.09539978979572138,7,"[0.47263674 0.77643378 0.98119131 0.19347043 0.98589211 0.25156844
 0.62068587]",1085,2.5695879668928683,Without Coef.
98,0.11185491006144725,5,"[  0.24451406   0.20535793   0.91222571   0.40394261   0.24903525
   0.04728849   1.94482534  20.33888619   4.75914983   4.42990937
 -26.65650161]",2601,3.047147841658443,With Coef.
99,0.15237255051070958,3,[0.79240026 0.23459148 0.19303893],262,0.3086710199713707,Without Coef.
99,0.16698300062463706,3,"[ 0.47056759  0.30750305 -0.20857377 -0.72621733  3.11436742 -5.20437619
  2.60461721]",1801,0.9568754713982344,With Coef.
