iteration,test-rmse,numKnots,knotLoc,iterations,time,method
0,0.17017117565361847,2,[0.6292999  0.13974519],140,0.19209273206070065,Without Coef.
0,0.17013536262020304,2,[ 0.62930037  0.13982254  0.17137145 -1.11791198  1.02287982],667,0.5256456080824137,With Coef.
1,0.15756944922624083,2,[0.65318251 0.11053877],167,0.22611410496756434,Without Coef.
1,0.15718282429476635,3,"[ 0.37923193  0.60335255  0.77570658  0.32536674  1.73771967 -2.17282882
  0.28962641]",860,1.1685569151304662,With Coef.
2,0.1635979877805152,2,[ 0.67706519 -0.49675012],160,0.2740327068604529,Without Coef.
2,0.16239287336747285,4,"[  0.77882699   0.62323775   0.62926787   0.82451392   0.41305934
   1.27572157  42.72638788 -42.90509304  -2.16885917]",1173,2.4864726862870157,With Coef.
3,0.16702809670007426,7,"[0.56700142 0.35123792 0.40271732 0.36400746 0.1406946  0.91482968
 0.39548454]",512,2.4107054541818798,Without Coef.
3,0.16713659207618842,1,[-0.02508477  0.15574205  0.60666272],428,0.19542763102799654,With Coef.
4,0.16406441471291974,2,[-0.01216119  0.60645534],140,0.21391731593757868,Without Coef.
4,0.16369177719084615,2,[ 0.14050511  0.60645535  0.18426876  1.0066473  -1.02582247],1401,1.0776039860211313,With Coef.
5,0.16124782820824057,2,[0.65773556 0.12786482],117,0.18074694368988276,Without Coef.
5,0.16113364951809767,2,[ 0.6577377   0.12784327  0.16686442 -1.34964398  1.02186442],947,0.6882718140259385,With Coef.
6,0.15750614682530412,6,[0.52098761 0.27623628 0.26201325 0.527904   0.13765982 0.26171728],432,1.744294255040586,Without Coef.
6,0.15306094932645437,5,"[ 0.56742316  0.82413441  0.63321335  0.51196372  0.10555117  0.19088107
 -6.54135608 -1.49307347  2.94890058  3.24354099  0.80957329]",2601,5.824232281651348,With Coef.
7,0.16122630099421512,4,[-0.06789522  0.69186051  0.69512986  1.32651728],162,0.654975017067045,Without Coef.
7,0.16024154190980702,2,[ 0.05956156  0.64996221  0.12701804  0.9257771  -1.11606343],824,0.6178027610294521,With Coef.
8,0.16483835558740498,5,[0.18413624 0.37801157 0.3780215  0.39803235 0.61684212],345,1.3053913260810077,Without Coef.
8,0.1654961423350487,3,"[ 0.1635841   0.8278395   0.61683983  0.19172005  1.01085989 -0.86116103
 -0.96050446]",1258,1.4919821238145232,With Coef.
9,0.1677727367810797,6,[0.31889262 0.88782065 0.67291415 0.70921344 0.18434242 0.8878522 ],278,1.4422212531790137,Without Coef.
9,0.16805825383344142,1,[-0.13372101  0.09813689  0.61135747],585,0.25844677025452256,With Coef.
10,0.16082384184795992,2,[0.65006698 0.07626612],101,0.1759581188671291,Without Coef.
10,0.160489141662044,1,[-0.01434574  0.15701591  0.62940345],1002,0.41822754079476,With Coef.
11,0.15997836832567944,4,[0.46266108 0.51723975 0.21499731 0.29507361],202,0.7490822710096836,Without Coef.
11,0.15743234296247616,1,[0.02817227 0.19340746 0.61614468],417,0.1830280628055334,With Coef.
12,0.15801156375995573,2,[-0.64518134  0.65318217],93,0.20074335299432278,Without Coef.
12,0.15793180078059027,1,[0.03023256 0.17590724 0.65309161],1002,0.413098799996078,With Coef.
13,0.16471503568431436,3,[0.12053912 0.82866819 0.62325791],194,0.40149644995108247,Without Coef.
13,0.16404157026244034,3,"[ 0.14155594  0.8245129   0.61688635  0.18760485  0.94551517 -1.46186044
 -0.73660763]",1034,1.6106543932110071,With Coef.
14,0.1592158248725609,3,[ 1.43226733 -0.60028898  0.65318217],249,0.4641692377626896,Without Coef.
14,0.15877105263095118,4,"[ 0.90966245  0.52686786  0.773634    0.42348186  0.33008586 -4.29282396
 -2.88229731  0.16345602  2.95566729]",1248,2.6006920537911355,With Coef.
15,0.1588283745136255,6,[0.10286244 0.61061501 0.61163845 0.94603159 0.42373149 0.31506542],395,2.2017461066134274,Without Coef.
15,0.1574335014459991,3,"[ 0.12852313  0.63227646  0.45796797  0.17958073  0.85894738 -1.43654711
  0.36702543]",1801,1.857704288791865,With Coef.
16,0.16032062816927822,4,[0.37751351 0.17318273 0.37858765 0.66236866],641,1.1054934281855822,Without Coef.
16,0.1607297873748387,1,[-0.02370008  0.16060635  0.63899561],267,0.12537873443216085,With Coef.
17,0.1664154323253155,2,[0.61684031 0.14343541],179,0.2423946368508041,Without Coef.
17,0.16607936832316225,2,[ 0.61684     0.14339194  0.17880719 -1.23687915  1.07101234],802,0.5539139229804277,With Coef.
18,0.16220818999261918,3,[0.629304   0.95846434 0.09929176],125,0.34152120631188154,Without Coef.
18,0.16249733683663287,1,[-0.00943322  0.17415196  0.61420005],464,0.20432229014113545,With Coef.
19,0.15896092731431896,5,[0.29418665 0.77363866 0.18289364 0.83697471 0.60933082],564,1.5603091740049422,Without Coef.
19,0.16010754420533632,2,[ 0.13797987  0.57738147  0.18130353  1.04715578 -1.07506749],1027,0.7577301962301135,With Coef.
20,0.16763418309590888,2,[0.52961702 0.15361438],124,0.19900461100041866,Without Coef.
20,0.1675917242576305,2,[ 0.52961804  0.15365962  0.17250253 -1.17268467  1.22019987],1191,0.7957872697152197,With Coef.
21,0.15421362127812438,3,[0.11828526 0.96358202 0.63508848],299,0.5121643589809537,Without Coef.
21,0.15429631676223987,1,[-0.02041214  0.17038151  0.63423817],726,0.31397985527291894,With Coef.
22,0.1544869689984678,6,[0.56673186 0.56517534 0.95845044 0.27629481 0.42151832 0.17437322],530,2.0282715363427997,Without Coef.
22,0.15395377695935508,4,"[ 0.51194012  0.61167782  0.24596919  0.20537894  0.18646657  0.95671749
 -1.52247104 -3.54288228  4.0888614 ]",2202,3.74088695878163,With Coef.
23,0.1607595379519705,2,[0.65318537 0.13195301],197,0.24512738129124045,Without Coef.
23,0.16048422046801475,3,"[ 0.50261832  0.12684219  0.53095477  0.17675073  4.86012029  0.88193479
 -5.82785147]",1697,1.8220121199265122,With Coef.
24,0.15703086272197037,5,[0.44342771 0.529621   0.36863661 0.86086493 0.16918832],357,1.103574852924794,Without Coef.
24,0.1590472315753172,1,[0.01640547 0.19412108 0.60727589],964,0.38895251601934433,With Coef.
25,0.1515478980952349,8,"[0.24846047 0.46316139 0.27575215 0.48288647 0.7639762  0.85101401
 0.75606848 0.84485767]",797,4.052788672968745,Without Coef.
25,0.15134313948502495,2,[ 0.07071533  0.59607251  0.13522606  0.96404007 -0.9131646 ],799,0.5847485880367458,With Coef.
26,0.1673340243886359,6,[0.29808486 0.34642884 0.55245305 0.20737949 0.61554596 0.2980594 ],414,1.6808929461985826,Without Coef.
26,0.16767556680771428,1,[-0.05652995  0.14467011  0.61353559],582,0.2523862989619374,With Coef.
27,0.15877966702866164,10,"[0.98056508 0.4729476  0.7953465  0.66795451 0.4720666  0.76532469
 0.23022462 0.46316085 0.74616064 0.42893697]",808,9.127356038894504,Without Coef.
27,0.16026729583496713,1,[ 0.96573364  0.53646754 -8.71790804],467,0.24569295579567552,With Coef.
28,0.15912333022874448,3,[0.05683211 0.86397239 0.61683916],170,0.44275983422994614,Without Coef.
28,0.15949508779027896,3,"[ 0.07289133  0.86397393  0.5431149   0.11151779  1.03625588 -2.96901298
 -0.6879991 ]",1036,1.5380408489145339,With Coef.
29,0.16041603094473625,2,[ 0.61683997 -0.64011021],141,0.22603264590725303,Without Coef.
29,0.16041455871673296,2,[ 0.61683993 -0.21720118 -0.15431    -1.05808933  0.96926062],830,0.6428839210420847,With Coef.
30,0.16020339455120844,4,[0.6894883  0.04708115 0.80270556 0.77816467],287,0.740669216029346,Without Coef.
30,0.16273678443488274,1,[-0.00737572  0.18548731  0.59795841],216,0.11107047088444233,With Coef.
31,0.16137986229007792,9,"[0.37912638 0.76534049 0.62590407 0.61674905 0.83625815 0.26389729
 0.37923071 0.22021842 0.44613504]",665,6.126746846362948,Without Coef.
31,0.1648469509266421,1,[-0.03765933  0.15265087  0.62991162],545,0.2357165883295238,With Coef.
32,0.16816335770939675,2,[0.11648302 0.64311464],101,0.15036684880033135,Without Coef.
32,0.16811711810356392,2,[ 0.1164916   0.64311825  0.15053812  1.00841414 -1.23699102],638,0.5172440358437598,With Coef.
33,0.16540205151248827,3,[0.86397237 0.11085323 0.57634435],166,0.4123715269379318,Without Coef.
33,0.16790601196746643,3,"[ 0.84320466  0.42805733  0.4724284   0.3326766  -1.75202127  4.96074238
 -4.62154878]",1802,2.054882714059204,With Coef.
34,0.17035307247241616,1,[0.],66,0.07932981522753835,Without Coef.
34,0.16471858291599548,1,[-0.05898195  0.1551774   0.59732896],267,0.13224809896200895,With Coef.
35,0.16793851590427977,3,[0.83178276 0.47148513 0.15415645],147,0.38314589112997055,Without Coef.
35,0.16873453838266642,4,"[  0.83178337   0.14319387   0.47199303   1.11063005   0.14616691
  -1.6018317    1.2295515   -0.86901552 -10.55404377]",1236,2.876793892122805,With Coef.
36,0.16751890132514088,2,[0.65318275 0.14633027],133,0.197523295879364,Without Coef.
36,0.167156636487217,2,[ 0.62930054  0.15731991  0.18779882 -1.33079365  1.07393708],396,0.4311557090841234,With Coef.
37,0.16102471662378856,3,[ 0.86085642 -0.02162945  0.60646447],160,0.3585506398230791,Without Coef.
37,0.16240032436770335,2,[ 0.82791714 -0.94269155 -0.5056204  -2.22004434  0.69294294],1401,0.9156690491363406,With Coef.
38,0.16518127134700228,2,[0.16565455 0.58257337],167,0.22747185733169317,Without Coef.
38,0.16285510832431963,1,[-0.02238756  0.13723823  0.65026457],492,0.21219410886988044,With Coef.
39,0.14855441225060192,5,[0.21001185 0.44153189 0.90966433 0.29598517 0.53258898],225,1.043143950868398,Without Coef.
39,0.14809678558847172,1,[-0.01337042  0.14583865  0.6455496 ],344,0.16384891141206026,With Coef.
40,0.16856175348820193,6,[0.27875251 0.5764203  0.17769144 0.27143699 0.27683131 0.27461674],328,1.693270133342594,Without Coef.
40,0.16791534026880686,1,[-0.01129797  0.18512753  0.59657848],623,0.27766944700852036,With Coef.
41,0.16550807598961348,3,[0.23210942 0.23143454 0.64996434],248,0.4355927282012999,Without Coef.
41,0.16569199396815043,1,[-0.02584635  0.16266213  0.62301053],430,0.18973035691305995,With Coef.
42,0.16491007101617985,4,[0.12044221 0.65834879 0.74352588 0.71557805],227,0.6089026872068644,Without Coef.
42,0.16491105270158593,4,"[ 0.12998245  0.63626221  0.70302948  0.79543939  0.18404997  0.99647213
 -2.3175031   2.72494619 -2.56190674]",1517,2.9011013959534466,With Coef.
43,0.158595154015486,7,"[0.95808513 0.79855136 0.80071187 0.6946689  0.1710504  0.692706
 0.27628402]",369,2.8733827737160027,Without Coef.
43,0.15941638904751404,2,[ 0.65006696  0.09868891  0.14780828 -1.1027603   0.95899268],667,0.6705679348669946,With Coef.
44,0.17212157420004826,1,[-0.02056437],62,0.06461934000253677,Without Coef.
44,0.16364770956781236,1,[-0.01997555  0.17512904  0.59101467],195,0.10320018790662289,With Coef.
45,0.16279770588137282,4,[0.90962742 0.19630306 0.27631502 0.61683525],164,0.7374762343242764,Without Coef.
45,0.16414815396568858,1,[-0.00152317  0.16919904  0.63564992],489,0.21639494597911835,With Coef.
46,0.16575539439990222,9,"[0.25163555 0.90967324 0.3651347  0.3503284  0.61985494 0.44339568
 0.77563487 0.64072149 0.096308  ]",697,5.861391362268478,Without Coef.
46,0.1671976313160443,1,[-0.01424697  0.15921173  0.65090699],673,0.2888385239057243,With Coef.
47,0.15941563888239502,3,[0.12675645 0.61476599 0.90965211],131,0.318530157674104,Without Coef.
47,0.1601030494797927,1,[0.11118986 0.26990862 0.56700535],574,0.26092630391940475,With Coef.
48,0.16845786871369287,1,[-0.12959588],66,0.06913659023121,Without Coef.
48,0.16018455008550445,4,"[ 0.70642588  0.41475708  0.68436468  0.18025866  0.17581578  4.61507876
 -0.01938576 -5.78954565  1.14410783]",2202,4.017255109734833,With Coef.
49,0.1714823829192468,2,[0.61438295 0.14153384],112,0.18237052205950022,Without Coef.
49,0.17119863122875054,1,[0.09427737 0.23106838 0.63838334],689,0.2986092697829008,With Coef.
50,0.159601986568421,3,[0.12872692 0.56699788 1.12276105],248,0.4835875020362437,Without Coef.
50,0.1577313503739606,1,[-0.01762697  0.17526626  0.6114789 ],461,0.2096639759838581,With Coef.
51,0.16423212383919078,4,[0.70925369 0.11486966 0.69179194 0.83177736],170,0.6454636971466243,Without Coef.
51,0.16409310752310896,1,[-0.01041018  0.19095852  0.58716414],1001,0.41074706381186843,With Coef.
52,0.16589965847017066,2,[0.15692429 0.61866011],106,0.155250808224082,Without Coef.
52,0.16499480100620548,5,"[ 0.16578288  0.58257353  0.79036454  0.71544285  0.82243801  0.16181909
  1.1608575  -1.23876505  1.47164018  0.40072566 -3.01371643]",2602,5.503651035018265,With Coef.
53,0.16654398330136183,2,[0.61856641 0.1454075 ],178,0.22857428202405572,Without Coef.
53,0.1665160440388903,1,[-0.04059061  0.15389323  0.60766597],634,0.2714677266776562,With Coef.
54,0.16443909075442914,6,[0.86371042 0.39548573 0.32506097 0.54396588 0.16921661 0.32288928],605,2.2778479801490903,Without Coef.
54,0.16486857208848985,5,"[ 6.41475302e-01  8.12053432e-01  7.49694789e-01  8.12053432e-01
  4.07104302e-01  3.45408515e-01 -4.09236008e+00 -5.59197215e+13
  6.12198547e+00  5.59197215e+13  1.74321983e+00]",2601,4.918375004082918,With Coef.
55,0.1574749521349157,5,[0.29597848 0.42056478 0.26052452 0.61166336 0.88060032],856,1.6882140031084418,Without Coef.
55,0.15876297263824077,2,"[-4.48089970e-07  8.28985946e-01  1.30883372e-01  7.16981815e-01
 -2.38676743e+00]",1402,0.9479655423201621,With Coef.
56,0.16483472243647473,2,[ 0.6074931  -0.39879598],157,0.22714601084589958,Without Coef.
56,0.16445347272009586,1,[0.04292142 0.2220495  0.59127368],557,0.24806375335901976,With Coef.
57,0.17375226285448062,2,[0.18328449 0.65647639],100,0.15596563694998622,Without Coef.
57,0.16974022366369518,4,"[ 0.44238989  0.59918732  0.61164763  0.16880689  0.20859739  0.48356269
  1.32331505 -2.92816272  0.85667293]",2201,3.436515566892922,With Coef.
58,0.16219102527979204,3,[0.12173244 0.60875098 0.8307438 ],165,0.3816842930391431,Without Coef.
58,0.16359948849806547,1,[-0.01229806  0.1677489   0.63422446],319,0.15200279699638486,With Coef.
59,0.16702747198211998,3,[0.53496866 0.14534177 0.82451345],188,0.3928902610205114,Without Coef.
59,0.16669919827498575,3,"[ 0.54506296  0.14457329  0.8639      0.19940134 -0.5154656   0.90651446
 -1.82278849]",1801,1.998172940686345,With Coef.
60,0.17283325824331644,2,[0.61684746 0.09883448],147,0.20673826523125172,Without Coef.
60,0.17269791347098365,1,[-0.00691242  0.17708847  0.62521341],363,0.18265555892139673,With Coef.
61,0.15328212878212538,4,[0.42993409 0.5054482  0.43720016 0.16926506],364,0.9536030143499374,Without Coef.
61,0.1511322004801083,1,[-0.02781888  0.15542903  0.61829101],766,0.31858050217851996,With Coef.
62,0.1612982225915835,6,[0.52961626 0.27597103 0.42649468 0.18294053 0.41777235 0.8442416 ],378,1.8834071103483438,Without Coef.
62,0.16211909971342958,3,"[ 0.52961006  0.49747441  0.07768649  0.1479178  -4.92252024  4.04791579
  0.81961831]",1461,1.9537356127984822,With Coef.
63,0.16633110728681305,3,[0.86812503 0.12401805 0.64157478],212,0.45551822893321514,Without Coef.
63,0.16713467541239913,1,[-0.01506159  0.16814381  0.63256712],493,0.21593749709427357,With Coef.
64,0.17101659010504058,1,[-0.06116476],66,0.06945691490545869,Without Coef.
64,0.161812104167104,3,"[ 0.66564265  0.29014351 -0.1997642  -0.31494633 -0.94209309 -0.61026969
  1.39669078]",1599,1.761884706094861,With Coef.
65,0.1589682661447517,3,[0.95743367 0.09869216 0.67899356],313,0.5453675999306142,Without Coef.
65,0.1586244836977148,3,"[ 0.86501084  0.098691    0.67602735  0.16819876 -0.76763408  0.89749889
 -1.14399102]",1802,2.0038218777626753,With Coef.
66,0.162672751480357,3,[0.09868856 0.67602669 1.28901636],161,0.3228505621664226,Without Coef.
66,0.16220933580675115,2,[ 0.53277567  0.44343099  0.34356695 -3.34208561  3.32362304],436,0.5404409691691399,With Coef.
67,0.1698663044751581,2,[ 0.84320465 -0.03123718],119,0.1874373839236796,Without Coef.
67,0.16269360378393002,3,"[ 1.27728842  0.09869033  0.66564263  0.17134384 -3.25834097  0.86669868
 -0.94951333]",1801,1.738424769602716,With Coef.
68,0.16491369070223624,4,[0.6947132  0.83179392 0.69470245 0.13556966],290,0.7716430411674082,Without Coef.
68,0.16668330937103695,1,[-0.02777866  0.17454795  0.6109653 ],1001,0.41477853897958994,With Coef.
69,0.16961228294429703,2,[0.09779514 0.65837446],71,0.14224692387506366,Without Coef.
69,0.16971502008947012,2,[-0.40936318  0.67602719 -0.32136513  0.95295125 -1.30689762],536,0.6454687509685755,With Coef.
70,0.16515472980714174,7,"[0.29598238 0.90967953 0.51208707 0.26080993 0.12173793 0.47560835
 0.6490722 ]",308,2.3494766768999398,Without Coef.
70,0.1664195077102682,1,[-0.0227753   0.15160987  0.63546126],560,0.2561676260083914,With Coef.
71,0.15889433506511252,2,[0.09868813 0.65977022],148,0.20420923223719,Without Coef.
71,0.15884882467230627,2,[ 0.09869046  0.6598736   0.14530378  0.97661892 -1.32322376],1401,0.8787685218267143,With Coef.
72,0.163540687036671,8,"[0.74615107 0.70095069 0.70094767 0.04878988 0.37190941 0.42968254
 0.26738488 0.27454944]",347,4.501978357788175,Without Coef.
72,0.16343892455408685,4,"[ 0.71577414  0.68763568  0.27731905  0.18601618  0.1597769   3.16534045
 -4.27090728 -0.95645609  1.92943781]",871,2.6099408543668687,With Coef.
73,0.16140439373318438,2,[0.65318257 0.05729106],148,0.20844788197427988,Without Coef.
73,0.16110383521407853,1,[-0.02316653  0.15899081  0.63103194],330,0.16530187102034688,With Coef.
74,0.16978318959966793,2,[-0.05343968  0.82866824],119,0.21936571830883622,Without Coef.
74,0.160415268108522,5,"[ 0.4215632   0.61060584  0.86147541  0.67557168  0.54527297  0.35382921
  2.28664409  0.65866006 -2.24108661 -0.2633429  -2.35634815]",2601,5.568841546308249,With Coef.
75,0.16569922764588318,2,[0.61684019 0.14332641],164,0.22098725102841854,Without Coef.
75,0.16557205383479534,2,[ 0.61683999  0.14467628  0.18992253 -1.05023875  0.97455573],462,0.39971850672736764,With Coef.
76,0.1597821967170893,4,[0.6911636  0.16063499 0.69372528 0.90965917],236,0.6770655340515077,Without Coef.
76,0.16006566597924482,3,"[ 0.90966144  0.58568867  0.13191829  0.14300039 -4.56490452 -1.11657748
  1.15287257]",1499,1.9583212742581964,With Coef.
77,0.15300332291275295,2,[0.61681238 0.131883  ],131,0.18166057812049985,Without Coef.
77,0.15251135450904665,3,"[ 0.51062601  0.83174996  0.39151186  0.35279535 -2.08431121 -0.46028584
  2.1896233 ]",934,1.539284918922931,With Coef.
78,0.1661373896403165,3,[0.12217122 0.61684395 0.96382605],170,0.41811347799375653,Without Coef.
78,0.16634556689444852,1,[-0.02307216  0.16205781  0.63036602],577,0.2562854578718543,With Coef.
79,0.16179308085781366,2,[0.61683929 0.14538148],110,0.17695092223584652,Without Coef.
79,0.16371011085343315,2,[ 0.67633158 -3.21066186 -2.97409576 -1.22559741  0.94110828],426,0.4825242040678859,With Coef.
80,0.1688808947819398,2,[0.61435716 0.07133618],114,0.17696257727220654,Without Coef.
80,0.1686376529603413,2,[ 0.61476274 -0.92786988 -0.84582581 -1.16727613  0.97597117],968,0.7102331449277699,With Coef.
81,0.16727722862476102,3,[0.65460589 0.18698091 0.27625525],157,0.3815482691861689,Without Coef.
81,0.16648000922456607,5,"[ 0.65318219  0.64279459  0.94725552  0.52504191  0.09451238  0.14636869
 -2.11486625  1.46612977 -2.86440372 -0.43403125  0.97899312]",2602,5.922239576932043,With Coef.
82,0.1691359253601407,5,[0.16929771 0.57734701 0.87443416 0.36862194 0.87205389],359,1.4658164735883474,Without Coef.
82,0.16931679750015166,1,[-0.06639082  0.14099609  0.59653319],1001,0.4098115637898445,With Coef.
83,0.15939027545009782,3,[0.12677371 0.87726926 0.58251752],193,0.38144534220919013,Without Coef.
83,0.15732364292797404,6,"[ 0.29805811  0.14666531  0.62942753  0.81544929  0.39151471  0.8431871
  0.13418004 -1.06252177  1.70016505 -1.1265744   4.88766302  0.23746449
 -6.87398521]",3001,9.787821501959115,With Coef.
84,0.16056020943503255,4,[0.18128906 0.37823453 0.37843962 0.6053932 ],572,1.0399051271378994,Without Coef.
84,0.16207671761542042,1,[-0.03950055  0.15867281  0.60350435],237,0.11895647924393415,With Coef.
85,0.1612628219634407,2,[-0.62322763  0.60634001],105,0.20208447892218828,Without Coef.
85,0.16103594728018317,1,[-0.01571695  0.17763936  0.60200591],845,0.3547485750168562,With Coef.
86,0.1571631881402985,5,[0.12470732 0.50882898 0.70923592 0.67706113 0.94589538],412,1.1875894339755177,Without Coef.
86,0.1578420681987142,1,[-0.06554864  0.15697567  0.58048252],178,0.0967648820951581,With Coef.
87,0.1560967593247141,3,[0.14541691 0.96282853 0.58024967],318,0.5565579617395997,Without Coef.
87,0.15607553558700657,3,"[ 0.21850065  0.60541731  0.27729178  0.17514971  2.83815472 -1.01092921
 -1.89831344]",1188,1.466608694754541,With Coef.
88,0.16102867343702193,2,[0.61475772 0.1322156 ],139,0.20811482658609748,Without Coef.
88,0.16013202979439056,4,"[ 0.83366073  0.61580184  0.13602977  0.77882621  0.15340725 -4.10404668
 -1.45099631  1.08673871  2.86283883]",1816,3.108733050059527,With Coef.
89,0.164226951210204,4,[0.43183492 0.43345355 0.60230396 0.09868024],505,0.9512058263644576,Without Coef.
89,0.16446887185802836,2,[ 0.09869119  0.65318573  0.14896451  0.99203469 -1.27455229],634,0.7130918647162616,With Coef.
90,0.15413895029454625,6,[0.22631328 0.82451442 0.32413204 0.53377153 0.55235779 0.46117781],273,1.6556177218444645,Without Coef.
90,0.15504178927420514,4,"[ 0.29599326  0.29805723  0.68641096  0.0913486   0.1263604  -0.01730095
 -0.28726439 -0.98787231  1.12832087]",2202,3.197319840081036,With Coef.
91,0.16503794159087443,2,[0.15526712 0.62187184],130,0.18086292874068022,Without Coef.
91,0.16252265901853533,6,"[ 0.44239336  0.73626191  0.36866791  0.4829103   0.54151869  0.14569368
  0.19473811  2.86247267 -0.62824099 -0.85784851 -1.37936729 -1.36426901
  0.96030005]",3001,7.851872596889734,With Coef.
92,0.16440477916274213,5,[0.36531564 0.77882859 0.82866502 0.14757427 0.68642489],302,1.3414915730245411,Without Coef.
92,0.1644883116498477,3,"[ 0.33751631  0.67395002  0.30282128  0.27926197 -3.44160257 -1.11924904
  4.20184152]",1768,1.743814533110708,With Coef.
93,0.1645230534781438,2,[0.09606255 0.72275395],113,0.17400548001751304,Without Coef.
93,0.16417661464478955,2,[ 0.09592431  0.7227534   0.1523776   0.90805152 -1.53502852],456,0.43240268994122744,With Coef.
94,0.1669709352340333,2,[0.12095293 0.61513612],197,0.24748255871236324,Without Coef.
94,0.1670326727750598,1,[-0.14913629  0.11141501  0.59197935],902,0.3625879278406501,With Coef.
95,0.17060784015955358,4,[ 0.90031614  0.53148583  0.51196897 -0.08843674],164,0.6163023202680051,Without Coef.
95,0.17050514712256526,2,[ 0.61342381  0.12641676  0.16153346 -1.17760788  1.02460105],642,0.569445145316422,With Coef.
96,0.1655234076294345,4,[0.82364108 0.38736277 0.38742335 0.10912956],249,0.8171818261034787,Without Coef.
96,0.1679560921354507,3,"[ 0.82762906  0.26921324  0.23918211  0.19733348 -2.21198596 -4.65332171
  5.31399191]",1278,1.4608862167224288,With Coef.
97,0.16546789044322896,2,[-0.13606694  0.64591396],115,0.20096285780891776,Without Coef.
97,0.16530988717865486,2,[ 0.07025883  0.64571914  0.11031208  1.00251897 -1.26958667],472,0.4277000417932868,With Coef.
98,0.1648663652793781,6,[0.47675109 0.52681428 0.18599744 0.79543602 0.36866821 0.27541063],317,2.074892349075526,Without Coef.
98,0.16943609797918335,2,[ 0.14154702  0.69517061  0.18704391  0.9538827  -1.4336847 ],594,0.4807932027615607,With Coef.
99,0.15619324245702268,4,[0.61675242 0.91487699 0.27700438 0.21469789],360,0.830929335206747,Without Coef.
99,0.15572698819636843,4,"[ 0.6168378   0.86812562  0.26171614  0.22562824  0.18331566 -0.77080751
 -1.74407633 -3.1854284   4.04918378]",1820,3.047674410045147,With Coef.
