iteration,test-rmse,numKnots,knotLoc,iterations,time,method
0,0.11382717774269517,3,[0.04368341 0.93351622 0.10985643],316,0.6284771310165524,Without Coef.
0,0.09004353931956742,5,"[-0.01060827  0.90650562  0.35794172  0.70972541  0.12971773  0.95494548
 -1.63616602  8.4527287   0.84622537 -2.22183968  0.81406987]",2601,7.5329893552698195,With Coef.
1,0.09772294342771097,4,[-0.22904283  0.93124027  0.8925629   0.75776311],237,0.7540759476833045,Without Coef.
1,0.09714339220903874,2,[ 0.68319781  0.89532918  0.62714464 -2.30412293  7.32523268],1402,1.2517528277821839,With Coef.
2,0.09187609666604094,5,[0.71800244 0.89539166 0.33392354 0.10130225 0.09236546],280,1.4084958005696535,Without Coef.
2,0.12395681346125388,1,[-0.12874704  0.85051942 -0.47693247],1002,0.5069206189364195,With Coef.
3,0.11469783433978348,3,[0.00751777 0.95416757 0.93633719],168,0.4832369019277394,Without Coef.
3,0.10308161463499245,4,"[ 0.22642673  0.54274791  0.44304231  0.02665216  0.82978577  0.58156608
 -0.94965922  0.68646448 -0.98389062]",1409,4.445148000027984,With Coef.
4,0.09081788858581155,5,[0.71391373 0.33684115 0.18978825 0.02879576 0.89518653],671,2.2486742311157286,Without Coef.
4,0.09806752452528178,2,[ 0.66753618  0.89754659  0.62894546 -2.13872068  7.11941054],1391,1.2061545657925308,With Coef.
5,0.11850587332852054,2,[0.00477304 0.92729013],148,0.28857959201559424,Without Coef.
5,0.09306168213565069,7,"[ 3.20682107e-01  3.21352422e-02  4.69125892e-02  9.46536328e-01
  7.01564507e-01  9.44448830e-01  8.80087291e-01  8.35442953e-01
  9.58602168e-01 -1.43892650e+00  4.84298181e-01 -8.17133484e+01
 -2.05006747e+00  8.56880178e+01  2.65187548e+00]",3402,18.070170829072595,With Coef.
6,0.08977614117168152,7,"[0.64192002 0.52020496 0.3321339  0.90036387 0.83063122 0.66404847
 0.00447594]",635,3.479639792814851,Without Coef.
6,0.09628982022701396,2,[ 0.66643636  0.90384117  0.62090703 -1.99669425  7.64497872],446,0.49892827216535807,With Coef.
7,0.09300599185927706,4,[0.30375632 0.7123373  0.89781091 0.01884134],684,1.6572672477923334,Without Coef.
7,0.09280370317279767,4,"[ 0.30370386  0.71230568  0.89786663 -0.04165048  0.89937134  0.93946824
 -2.1390571   7.50941037 -0.98847519]",2201,4.729714221786708,With Coef.
8,0.09066804278262289,5,[0.89811906 0.70492597 0.19919134 0.35155013 0.02822141],338,1.672527686227113,Without Coef.
8,0.09644896387829624,2,[ 0.90308816  0.6636471   0.62947756  8.05812422 -2.11657043],1126,1.0314438841305673,With Coef.
9,0.10368237209653038,3,[ 0.7485484   0.90607651 -0.64228963],110,0.3939563510939479,Without Coef.
9,0.09462786660234171,2,[ 0.20491746 -0.01229118  0.89973189  0.70759547 -1.13018378],676,0.6729988348670304,With Coef.
10,0.09208432152150653,4,[0.70666855 0.03605596 0.29750163 0.90048022],402,1.1463909591548145,Without Coef.
10,0.09197467844738025,4,"[ 0.71147567  0.04595431  0.29768415  0.90050777  0.83950997 -2.31588808
 -1.16297004  1.1877309   8.00705084]",2202,4.824888756033033,With Coef.
11,0.09513466360174627,5,[0.71755996 0.02367112 0.30895993 0.89449638 0.55733496],402,1.671622202731669,Without Coef.
11,0.10162018742133175,2,[ 0.20601482  0.02738784  0.85709143  0.80434295 -1.19807188],700,0.7052557757124305,With Coef.
12,0.11277819057051391,2,[0.00475851 0.93793402],131,0.22271764930337667,Without Coef.
12,0.09088455588282457,5,"[ 0.26913126  0.29910362  0.90579713  0.01220946  0.70876785  0.8665537
 -0.12473075  1.21512891  7.79450454 -1.07856619 -2.21724204]",1739,6.850090604741126,With Coef.
13,0.09306903860309947,4,[0.33592118 0.70126182 0.90526258 0.04170934],332,1.0164464260451496,Without Coef.
13,0.09193469582114674,5,"[ 0.39560396  0.90538966  0.03223708  0.69810026  0.30354558  0.83652592
  0.57967238  8.12387212 -1.01073599 -2.38856555  0.60272199]",2602,8.342655166052282,With Coef.
14,0.092506137562497,4,[0.90039158 0.70962078 0.0225983  0.32835242],253,0.895212366245687,Without Coef.
14,0.09907528137622577,2,[ 0.90990997  0.60896695  0.6389122   7.52506663 -1.54034674],514,0.5470407539978623,With Coef.
15,0.11406355628238048,3,[0.92868499 0.11354607 0.0608596 ],124,0.32005742099136114,Without Coef.
15,0.09883770652938831,2,[ 0.68510192  0.89326193  0.6157586  -2.35070294  7.41692073],615,0.8116089510731399,With Coef.
16,0.09192430602912274,5,[0.0230294  0.29751909 0.71753003 0.15218142 0.89584829],245,1.8401554310694337,Without Coef.
16,0.11682955199098073,2,[-0.10935155  0.25845846  0.97853894 -0.98267747  0.59888817],1244,1.106674836948514,With Coef.
17,0.0930512139556899,4,[0.29823639 0.00382729 0.90565501 0.6982325 ],380,1.146440657787025,Without Coef.
17,0.09285045894394985,5,"[ 0.3024841   0.06517719  0.03182266  0.69810739  0.90551161  0.83145046
  1.05013528  0.72258924 -1.69283062 -2.30006538  8.20873095]",2601,8.59270039293915,With Coef.
18,0.10025382167731822,3,[ 0.90628411  0.75556975 -0.03498907],246,0.5507442690432072,Without Coef.
18,0.09675178456008234,2,[ 0.9065065   0.66370075  0.62124319  8.3287232  -2.06254461],769,0.8891583019867539,With Coef.
19,0.11724450688018453,2,[-0.0070435   0.92611475],139,0.26224785298109055,Without Coef.
19,0.09200220410792453,6,"[-0.64070423  0.71424734  0.33291633  0.6288312   0.66420478  0.90199889
  1.38461155 -0.84140203 -2.08083792  0.7720953   0.45003486 -0.56089919
  8.05692089]",3002,12.664552713744342,With Coef.
20,0.11449509466453257,2,[-0.04311854  0.92951223],119,0.2740942337550223,Without Coef.
20,0.12406075484456189,2,[ 0.00480433  0.66996622  0.76897273 -0.43106288 -0.21760594],1086,1.021527084056288,With Coef.
21,0.09213977336160897,7,"[0.95035299 0.39918621 0.92086918 0.71751072 0.02386097 0.35158331
 0.79383469]",426,3.542331535834819,Without Coef.
21,0.09113248026218121,5,"[ 0.90878953  0.30259159  0.73082836  0.02772846  0.72135988  0.84134162
  8.27704334  1.07782193  5.53092358 -1.06274613 -7.52196469]",2602,8.19547887193039,With Coef.
22,0.0908644581230974,5,[0.05606568 0.90430394 0.31805147 0.69809708 0.04393241],396,1.894195084925741,Without Coef.
22,0.09112799209059355,5,"[-0.07860624  0.90240253  0.30325666  0.70430081  0.27655903  0.9520801
 -1.04492539  8.09490249  1.6138879  -2.35956302 -0.49918118]",2601,7.948843096848577,With Coef.
23,0.09292157119950586,4,[0.03944513 0.32888577 0.89652736 0.71189642],475,1.3606361779384315,Without Coef.
23,0.10221926119603851,3,"[-0.302437    0.77037036  0.89373372  0.89384959 -0.40728227 -2.49358858
  8.2839489 ]",1645,2.0887931347824633,With Coef.
24,0.11111373186395303,3,[-0.6537936   0.93501944  0.12472503],162,0.5180051391944289,Without Coef.
24,0.09868706688194738,2,[ 0.1705718  -0.03510867  0.925271    0.77719579 -1.21492118],1401,1.1597027680836618,With Coef.
25,0.0911626535459486,8,"[0.46256271 0.71001296 0.33732749 0.9043432  0.10630603 0.10544171
 0.86869266 0.01360418]",568,6.051705867052078,Without Coef.
25,0.09128935776179117,6,"[ 0.63843881  0.32271334  0.89732036 -0.01477888  0.3087659   0.69471415
  0.88668409  1.06796082 -2.5398027   7.57290566 -1.12213361  3.58771819
 -3.29681435]",3002,12.824416783172637,With Coef.
26,0.09131629077081728,4,[0.01021768 0.89914092 0.30131289 0.71233672],452,1.177905079908669,Without Coef.
26,0.09966046122566874,2,[-0.04373492  0.19539511  0.93720927 -1.15733072  0.74866027],1401,1.1520737656392157,With Coef.
27,0.09667716643735004,3,[ 0.8957231   0.7512721  -0.00484739],212,0.5662598893977702,Without Coef.
27,0.0912363406862992,5,"[ 0.88728733  0.89039239  0.7348453   0.13851225  0.20274921  0.82018139
 -1.00588705  8.39929294 -2.5417252  -3.62591389  3.52011143]",2602,7.817544728983194,With Coef.
28,0.09028722954873716,4,[0.30769976 0.89499467 0.01747899 0.71955056],246,0.8448413098230958,Without Coef.
28,0.09008791643754363,4,"[ 0.31524986  0.89453734 -0.05654634  0.71992982  0.90386952  0.97493621
  7.85210182 -0.95440022 -2.55946972]",2201,5.189305793028325,With Coef.
29,0.09183469417295978,4,[0.30693046 0.71951855 0.01659391 0.9055214 ],219,0.765076391864568,Without Coef.
29,0.09594071804486913,2,[ 0.202002    0.02546871  0.8552438   0.76940623 -1.15914356],608,0.623894922900945,With Coef.
30,0.09309411811318101,6,[ 0.65333915  1.48259153  0.9044332  -0.46106317  0.3032945   0.65215299],490,2.5076979347504675,Without Coef.
30,0.09344039480554828,5,"[ 8.98772352e-01  3.13217734e-01 -8.32887759e-04  7.61361322e-01
  6.20697191e-01  8.74691213e-01  8.21677310e+00  1.05291261e+00
 -1.04061705e+00 -2.07918671e+00 -5.52422623e-01]",2601,8.049153780099005,With Coef.
31,0.090784970541592,4,[0.89823703 0.01601638 0.29904972 0.71967004],226,0.917196111753583,Without Coef.
31,0.09283075597821137,4,"[ 0.89886852  0.04389785  0.21975082  0.72434508  0.8575729   7.9935665
 -1.47492355  1.34636002 -2.22193613]",2202,4.971775244921446,With Coef.
32,0.10288128591922398,3,[ 0.89848834  0.77235952 -0.02376472],149,0.4497578367590904,Without Coef.
32,0.09889141968728207,2,[ 0.66205069  0.9065065   0.62229269 -2.04796561  8.21696552],1402,1.1881878557614982,With Coef.
33,0.09513608686875356,5,[ 0.6627978   0.90554969  0.65065055  0.29750707 -0.02035477],288,1.4485512911342084,Without Coef.
33,0.10281470692624681,2,[ 0.61371184  0.91071071  0.63247155 -1.56388315  7.62049076],959,0.8742299098521471,With Coef.
34,0.11264532830774528,2,[-0.11406098  0.93103281],119,0.25318205589428544,Without Coef.
34,0.09800209039366531,4,"[ 2.58458453e-01  8.36671006e-01  8.43239176e-01  4.38438502e-02
  8.24366456e-01  7.69076250e-01 -5.78355869e+01  6.12816931e+01
 -1.03318555e+00]",2128,4.665399896912277,With Coef.
35,0.09254436751851544,4,[3.03702689e-01 6.87218763e-01 9.00095040e-01 7.12250484e-04],252,0.9087500860914588,Without Coef.
35,0.09929720257615247,3,"[-0.49267515  0.75137557  0.88329184  0.96628904 -0.3994122  -2.21823548
  6.85438464]",1801,2.8391266190446913,With Coef.
36,0.10132829918431549,3,[ 0.89550195  0.73693695 -0.16513684],232,0.5428407778963447,Without Coef.
36,0.10664589057174179,2,[ 0.92993005  0.01601605  0.81110294  6.34235203 -0.59231204],542,0.7217978211119771,With Coef.
37,0.09245237141975375,6,[0.88331289 0.69626376 0.29328909 0.03368136 0.84842221 0.84732444],481,2.5468669589608908,Without Coef.
37,0.09156242961939487,6,"[ 0.91471481  0.69595668  0.30133855  0.02675685  0.87909738  0.83043044
  0.82547169  2.23613984 -1.76871956  0.93908041 -0.96539663  6.52783646
 -1.89391617]",3002,13.047198096755892,With Coef.
38,0.08954064307010873,6,[0.89700046 0.65624789 0.28376513 0.65065082 0.01880355 0.72656309],531,2.5152903576381505,Without Coef.
38,0.09609013125074863,2,[ 0.90909216  0.58769707  0.64371367  6.76923001 -1.41197783],531,0.5175647041760385,With Coef.
39,0.08863057527827088,4,[0.01664578 0.71879507 0.30610673 0.89658651],460,1.2285091700032353,Without Coef.
39,0.10169898818860688,2,[ 0.01821399  0.17337479  0.84811268 -1.13878415  0.69927963],1197,0.9892306686379015,With Coef.
40,0.1129489043737438,2,[ 0.93422632 -0.03395839],82,0.19807129632681608,Without Coef.
40,0.09138761539036111,5,"[ 8.96128173e-01  1.64591567e+00  2.97497501e-01 -2.01072239e-01
  7.20877377e-01  1.10395647e+00  7.62159997e+00  4.43451568e-15
  1.01457784e+00 -1.07602232e+00 -2.35378289e+00]",2601,6.990860403049737,With Coef.
41,0.10084582668670163,3,[ 0.73955716  0.89594394 -0.05151081],233,0.5923338206484914,Without Coef.
41,0.1163803559644743,2,[ 0.21714099  0.02302354  0.8306657   0.5230726  -0.92366808],1401,1.2264529392123222,With Coef.
42,0.0914400918153701,5,[0.02877691 0.29460009 0.69749751 1.01917754 0.90724592],319,1.337158595211804,Without Coef.
42,0.09789135253992672,3,"[ 0.11951951  0.93291063 -0.05328108  0.93824569  0.70723897  6.19282449
 -1.23675389]",814,1.3388310028240085,With Coef.
43,0.09182738830172757,4,[0.89293191 0.01604389 0.71221996 0.29748193],319,0.9215852902270854,Without Coef.
43,0.09643300961768773,3,"[ 0.91045793  0.54613747  0.95515507  0.64589123  6.34581853 -1.19040505
 -0.16168755]",1801,2.3705420857295394,With Coef.
44,0.11680272158439232,2,[-0.08234612  0.93138617],159,0.305141591001302,Without Coef.
44,0.0935684086884074,6,"[ 0.54142442  0.91071071 -0.35195586  0.69669669  0.32152156  0.52405882
  1.2143703   4.07137576  8.55955759 -0.98820018 -2.45760261  1.13695359
 -3.85155435]",3001,11.540433839894831,With Coef.
45,0.0896355979816171,6,[0.89980015 0.71951062 0.04384079 0.24963471 0.29550946 0.12366217],240,2.8134197988547385,Without Coef.
45,0.08996141902211055,4,"[ 0.90461542  0.71366733  0.29549495 -0.0619109   0.91387054  7.56286595
 -1.8733933   0.79312393 -0.92077674]",2202,5.309913324192166,With Coef.
46,0.09473828359227304,4,[ 0.71390784 -0.02981808  0.89894007  0.33290761],228,0.8699356550350785,Without Coef.
46,0.10040234500878122,2,[ 0.54787409  0.91096734  0.64757311 -1.28468296  7.02041884],826,0.825693944003433,With Coef.
47,0.09123879175656134,5,[0.33215565 0.89810603 0.71938835 0.10173428 0.10305703],350,1.8414579550735652,Without Coef.
47,0.09087937463793035,5,"[ 0.32183071  0.89934875  0.71863645  0.05798021  0.11001456  0.8422994
  0.82862031  8.2185666  -2.41103604 -2.28572289  1.45983642]",2601,8.66550469584763,With Coef.
48,0.1060674890708659,3,[-0.02652584  0.89742882  0.74868206],171,0.49689053324982524,Without Coef.
48,0.10611685176133953,3,"[-0.10751898  0.89932487  0.73771471  0.81026583 -0.39379426  7.55609171
 -1.69891777]",1401,1.7375461040064692,With Coef.
49,0.1030500062427003,3,[ 0.89713298 -0.53820517  0.75579865],113,0.35953665897250175,Without Coef.
49,0.10186479952886626,2,[ 0.69116101  0.8878526   0.62951271 -2.50251452  6.97599234],1401,1.5043626390397549,With Coef.
50,0.098565657877795,3,[ 0.89478546 -0.32053025  0.73175852],245,0.6081210118718445,Without Coef.
50,0.0916131630324072,5,"[ 0.69666599  0.30163992  0.8938015   0.01602171  0.69663867  0.85329899
 -0.67074642  1.23435435  7.18702197 -1.12202669 -1.71354376]",2601,7.941206400282681,With Coef.
51,0.12634041470184604,1,[-0.04758759],56,0.100450508762151,Without Coef.
51,0.12479814325358925,1,[-0.02303545  0.79523556 -0.48928215],1001,0.556649592705071,With Coef.
52,0.11655140268393584,2,[-0.64614457  0.92292292],296,0.4670407981611788,Without Coef.
52,0.11831316119853554,2,[-0.13184677  0.20200165  0.98014089 -0.95969184  0.52579908],937,0.868463282007724,With Coef.
53,0.09412382339628947,4,[ 0.318519    0.89665235 -0.27325817  0.7036369 ],191,0.7847234951332211,Without Coef.
53,0.10026781461070984,3,"[-1.55555619e-04  7.38852780e-01  8.97569790e-01  7.59395793e-01
 -3.83152535e-01 -1.70674033e+00  7.29000245e+00]",1198,1.9064016449265182,With Coef.
54,0.0942009309852048,6,[0.0343067  0.70496445 0.29074354 0.29129011 0.90572501 0.23692915],371,2.311569716781378,Without Coef.
54,0.09421243161053867,4,"[ 0.04823921  0.90627135  0.29851138  0.69933452  0.82224376 -1.05429242
  8.15210648  1.06186511 -2.13915198]",2020,4.932034431025386,With Coef.
55,0.11538300325064595,2,[-0.15387453  0.93413413],127,0.3332714890129864,Without Coef.
55,0.09138617792622614,4,"[ 0.30770767  0.70061926  0.90618096 -0.07579398  0.93647419  0.98900736
 -2.04247367  7.74900851 -0.99533502]",2202,5.012871520128101,With Coef.
56,0.1177787373081893,3,[ 0.33213213  0.6018018  -1.21496585],260,0.6893454748205841,Without Coef.
56,0.10352296587292643,2,[ 0.03486786  0.17417424  0.84497607 -1.27558003  0.85469184],1013,0.9214633507654071,With Coef.
57,0.11428745454095185,2,[-0.06930773  0.93408862],127,0.26129358587786555,Without Coef.
57,0.09685334779227213,3,"[ 0.32750732  0.58898898 -0.03828406  0.87434371  0.89806773 -0.83420367
 -0.85204995]",1802,2.2680701659992337,With Coef.
58,0.09312066044000693,5,[ 0.3012736   0.71939653 -0.03007483  0.90427325  0.96155154],629,2.150434576906264,Without Coef.
58,0.10362176685176573,3,"[-0.66860549  0.89793474  0.75785355  1.03087466 -0.39694651  7.8748217
 -2.04561056]",1801,2.197539027314633,With Coef.
59,0.09400389847495484,4,[0.00384545 0.90068183 0.72171139 0.30768699],307,1.119160951115191,Without Coef.
59,0.11369842948822685,3,"[ 3.78471658e-03  4.21722581e-01  4.35343875e-01  8.38478061e-01
 -8.29563673e-01  9.90008439e+00 -9.64442504e+00]",1415,2.209667179733515,With Coef.
60,0.09224996071980686,6,[-0.00499166  0.8850914   0.30375016  0.44947239  0.71747515  0.97238219],913,3.71566747315228,Without Coef.
60,0.10135534919478816,2,[ 0.04124123  0.17337331  0.84638372 -1.32512159  0.89498377],1027,1.1121487100608647,With Coef.
61,0.09201976381218324,4,[0.00479313 0.3029944  0.89753945 0.72088318],293,1.299367851112038,Without Coef.
61,0.09366435217971095,4,"[ 0.05064968  0.33693713  0.89159051  0.75487676  0.80119827 -0.84997118
  0.8166143   9.12444917 -3.31598432]",1047,4.011519991792738,With Coef.
62,0.11568993635989423,2,[-0.3998702   0.92391673],142,0.3195565789937973,Without Coef.
62,0.09313618284462073,6,"[ 0.33820099  0.1123933   0.03866857  0.90073101  0.71008537  0.89690675
  0.85926907  0.82218105  0.84635272 -1.66856058  1.12224783 -2.24652118
  6.30183647]",3002,12.967514086980373,With Coef.
63,0.1288722350306526,2,[0.67716502 0.89739795],149,0.25585627974942327,Without Coef.
63,0.10304374322260483,2,[ 0.67719023  0.89737679  0.62888384 -2.23354674  7.34537226],892,0.8177303900010884,With Coef.
64,0.09183246726762968,4,[0.30750938 0.89675485 0.01495175 0.69838177],221,0.7715652249753475,Without Coef.
64,0.103246809649596,2,[ 0.20240209 -0.08710114  0.95598067  0.64836782 -1.03897999],294,0.4116084142588079,With Coef.
65,0.1003429503321469,3,[ 0.89952471 -0.33587169  0.74638181],173,0.4575834455899894,Without Coef.
65,0.11642815551802874,2,[-0.03532667 -0.08946801  0.75622003 -1.26067435  0.77817118],615,0.5939173363149166,With Coef.
66,0.13045649408705964,1,[-0.06351351],71,0.08512770431116223,Without Coef.
66,0.09857955571728488,2,[ 0.65757883  0.90665455  0.63225218 -1.89640079  7.50711209],695,0.7311227647587657,With Coef.
67,0.10131165845266638,3,[ 0.75874068  0.89439029 -0.00465083],182,0.48188962740823627,Without Coef.
67,0.10125386352174297,3,"[ 7.58749465e-01  8.94388452e-01  1.57362606e-03  7.78771536e-01
 -2.08300455e+00  7.52911689e+00 -4.19638351e-01]",1802,2.303245303686708,With Coef.
68,0.09365090567572838,5,[0.01127874 0.33735223 0.10665857 0.69380227 0.9070493 ],212,2.2227952512912452,Without Coef.
68,0.1081272911335378,3,"[ 3.80379428e-03 -2.13315630e-01  9.29929925e-01  8.02004126e-01
 -6.28803492e-01  5.87687953e-02  6.21195503e+00]",1801,2.2241849140264094,With Coef.
69,0.09153922708581727,7,"[0.72392529 0.89354493 0.74074679 0.00780403 0.75358566 0.30312604
 0.84484549]",1092,6.238537747878581,Without Coef.
69,0.09304342184128755,4,"[ 0.89677155  0.22138573 -3.23239779  0.71751909  5.6370746   7.13487976
  1.35595159 -1.4628203  -2.05186442]",2201,4.9155808463692665,With Coef.
70,0.12368365829652674,1,[-0.0920045],61,0.10625845985487103,Without Coef.
70,0.09954171517285279,7,"[  0.71246459   0.34369285   0.32622264   0.90481526   0.38731191
   0.71367746   0.32362767   0.70307766   3.63522344  10.35194881
 -10.99202366   8.56922324  -0.4618789   -6.0288049    1.11205707]",3401,19.02160106692463,With Coef.
71,0.0947085310067312,7,"[0.90989932 0.86688252 0.68878228 0.33223419 0.63947632 0.96154909
 0.02303451]",651,4.87167080398649,Without Coef.
71,0.0936366805070982,6,"[ 0.90010039  0.75936237  0.69962085  0.35451469  0.02489783  0.25881309
  0.84363447  7.89248254 -0.20923037 -2.14723559  0.59382122 -1.06357552
  0.54403162]",3001,12.422113680280745,With Coef.
72,0.11223653930484387,2,[ 0.93013012 -0.16569366],145,0.35107687395066023,Without Coef.
72,0.10331572864551647,3,"[ 0.51912021 -0.07292091  0.30370336  0.95030132 -0.84607741 -1.0774249
  1.2609016 ]",1802,2.257670727558434,With Coef.
73,0.11440944631427903,3,[ 0.10630505  0.93413412 -0.32131268],151,0.4845907879061997,Without Coef.
73,0.11049771981753213,3,"[-0.11014368  0.93271247 -0.10276534  0.86096063  0.16141809  6.43122013
 -0.71272024]",1801,2.1399127701297402,With Coef.
74,0.09046491688697317,6,[0.66357379 0.91077121 0.66369984 0.01221242 0.87920658 0.29454979],396,2.56111579015851,Without Coef.
74,0.08991244911106752,5,"[ 0.89588793  0.35527859  0.13116444  0.70055052  0.20193426  0.79696794
  7.05216535  0.19276818 -2.92966673 -2.13858409  2.72899686]",2601,8.152005522046238,With Coef.
75,0.11732193227553728,2,[-0.11658647  0.9314741 ],152,0.3180674691684544,Without Coef.
75,0.11027742293543427,2,"[ 4.80484137e-03  9.31473816e-01  8.08642221e-01 -5.72271783e-01
  6.51482108e+00]",629,0.6596535220742226,With Coef.
76,0.11377114097543052,2,[-0.02944743  0.93420645],149,0.2713735019788146,Without Coef.
76,0.10839601773653669,2,"[ 3.80380107e-03  9.34206050e-01  8.12573305e-01 -5.48410530e-01
  6.47173272e+00]",829,0.8004530481994152,With Coef.
77,0.09452297126815089,6,[0.23051172 0.88966363 0.39558552 0.70972098 0.8895183  0.02215628],248,2.0086892507970333,Without Coef.
77,0.12065557551648202,2,[-0.06632774  0.66426425  0.80949729 -0.44789519 -0.19661065],369,0.45944543881341815,With Coef.
78,0.09224201229048294,5,[0.38971324 0.71406999 0.00477813 0.24240181 0.89558794],311,1.8092057411558926,Without Coef.
78,0.09121864033910863,4,"[ 0.29549568  0.71392106  0.0275862   0.89519008  0.84164161  0.98966875
 -2.25221261 -1.02866026  7.50347853]",2201,4.745916345156729,With Coef.
79,0.1256702317182874,1,[-0.06850225],55,0.09929834213107824,Without Coef.
79,0.10097272102147258,3,"[ 0.76160401 -0.74248085  0.89305033  1.05708093 -2.25940092 -0.3941803
  7.95262963]",1238,1.859213711693883,With Coef.
80,0.09025802392617538,5,[0.10752988 0.05886022 0.71039371 0.32141952 0.8990297 ],490,1.708264575805515,Without Coef.
80,0.08993734362328284,5,"[ 0.1801477   0.04017454  0.89889473  0.32714276  0.70989257  0.84824089
  0.41007719 -1.26099964  7.31183441  0.85285448 -2.09975325]",2601,8.361158574931324,With Coef.
81,0.09209530119719297,4,[0.71079906 0.04330523 0.31877782 0.89761563],208,0.8714856300503016,Without Coef.
81,0.09194390796356255,4,"[ 0.7139139   0.04404141  0.31439014  0.89735688  0.81350573 -2.48538316
 -0.97500169  1.00652195  7.89594505]",2201,4.652270536869764,With Coef.
82,0.11147621307832292,3,[-0.38079992  0.11271267  0.92564815],133,0.4379220041446388,Without Coef.
82,0.09263618760978817,2,[ 0.18999026 -0.00658056  0.88534499  0.73524659 -1.15510703],1402,1.119111086241901,With Coef.
83,0.11943669993488923,2,[0.04224602 0.14287645],108,0.2073791129514575,Without Coef.
83,0.09626589545299309,4,"[ 0.3368249   0.53613595  0.06177838  0.10788653  0.83853571  0.90241234
 -0.80274802 -2.27248075  1.48084411]",2201,4.638346808031201,With Coef.
84,0.09202398921478107,5,[0.01649651 0.69175299 0.2437418  0.89957099 0.63542449],266,1.980283441953361,Without Coef.
84,0.0907696479319712,6,"[ 2.58460576e-01  5.35465610e-03  7.20227348e-01  9.00086111e-01
  1.13825333e-02  3.03548560e-01  8.75609714e-01  2.47192717e-01
 -2.61931963e+00 -2.36278799e+00  8.00687573e+00  1.54052018e+00
  8.12925170e-01]",1718,10.80828522797674,With Coef.
85,0.09236546297150816,6,[0.8991025  0.01307909 0.34563113 0.16837044 0.71390836 0.1704701 ],411,2.4010452199727297,Without Coef.
85,0.09232815547183987,6,"[ 0.89782983  0.02882912  0.33293265  0.10020373  0.71391574  0.10400181
  0.87060051  7.79667071 -1.71969034  0.82925693 -4.50829985 -2.51763851
  5.45979757]",3001,13.083857492078096,With Coef.
86,0.0896458089056049,5,[0.01766324 0.90706882 0.71608558 0.30582647 0.95775952],546,1.9876886303536594,Without Coef.
86,0.08895295718936883,7,"[ 0.05830407  0.89860157  0.71361398  0.33063235  0.11267495  0.3855373
  0.39969079  0.83598161 -1.87336574  7.12377045 -2.16030699  1.43687704
  1.00089362 -3.66610891  3.13296902]",3401,18.913243409246206,With Coef.
87,0.11616983199455588,2,[-0.09930209  0.93413413],130,0.330502572003752,Without Coef.
87,0.09296130414794262,6,"[ 0.33060704  0.32872077  0.69809809  0.90483812  0.12452365  0.01641643
  0.84738048 -0.43850891  1.42851186 -2.13122405  7.77227041  0.09469751
 -1.03231297]",3001,13.050035319291055,With Coef.
88,0.09106721735629661,5,[0.90301791 0.31745043 0.03861071 0.95433123 0.72125789],261,1.3962733326479793,Without Coef.
88,0.09897962706725909,2,[ 0.90660832  0.59703249  0.63768121  6.7472226  -1.50102926],962,0.9604209153912961,With Coef.
89,0.09586305897524891,8,"[0.33379864 0.5845838  0.709727   0.01898162 0.51291342 0.89167856
 0.51576938 0.15455575]",895,8.136417326983064,Without Coef.
89,0.0963940132326759,5,"[  0.02077854   0.89140505   0.4065657    0.72316967   0.40116612
   0.83675429  -0.95360315   7.50445667 -16.88872515  -2.40755925
  17.74756077]",2601,8.887428727932274,With Coef.
90,0.09253528098334894,4,[-0.01752808  0.31854865  0.71305113  0.89008983],231,0.8249004762619734,Without Coef.
90,0.10236556874905382,2,[-0.08625535  0.20418738  0.95291687 -1.04667343  0.66153655],777,0.7454238659702241,With Coef.
91,0.11644395392094237,2,[ 0.92172172 -0.77758745],137,0.2746183034032583,Without Coef.
91,0.09859245628672555,4,"[ 0.6746007   0.89714772  0.58004314  0.02742586  0.78831188 -3.90661243
  7.33654265  2.29388287 -0.58500758]",1922,4.804880066309124,With Coef.
92,0.09168967846424121,4,[0.69809932 0.32833761 0.01350197 0.89649836],353,1.0786013179458678,Without Coef.
92,0.09937477728509052,4,"[ 7.34198905e-01 -1.20394439e-01 -1.43285503e-03  8.96749162e-01
  6.86298310e-01 -1.70438471e+00  6.06002349e-01 -9.92071360e-01
  7.41923647e+00]",1298,2.979105202946812,With Coef.
93,0.09295352631211914,4,[0.02806698 0.30370591 0.69809685 0.89205489],421,1.3855669512413442,Without Coef.
93,0.09481260902598335,4,"[-0.15929398  0.3030342   0.69809809  0.88411095  1.03408941 -1.05047371
  1.07071447 -2.1844824   6.21964895]",1558,3.374109659809619,With Coef.
94,0.10377016618035335,3,[ 0.89462011  0.75580556 -0.05018592],172,0.4694504840299487,Without Coef.
94,0.0998327826649651,2,[ 0.66506495  0.9001001   0.6273352  -2.11911581  7.53745002],765,0.7681422517634928,With Coef.
95,0.09328906217466314,4,[0.0176896  0.89914243 0.20903557 0.71944999],273,0.9868760071694851,Without Coef.
95,0.09544661204388422,4,"[-0.15389309  0.89659406  0.17467895  0.72266646  1.19664859 -1.79914311
  7.45936294  1.65933853 -2.17419203]",2201,4.813127198256552,With Coef.
96,0.11600725826310612,2,[-0.07274132  0.93013012],83,0.25160779198631644,Without Coef.
96,0.10924027410001287,3,"[ 0.34714722  0.48248185 -0.01491757  0.8765542   1.45539821 -1.03509008
 -0.975252  ]",1657,2.145231571048498,With Coef.
97,0.09045332480261778,7,"[0.69810541 0.61043663 0.76832761 0.95830392 0.25846487 0.00749857
 0.89779389]",653,4.091459097340703,Without Coef.
97,0.09077000672237777,5,"[ 0.29128635 -0.10829767  2.05064127  0.89791113  0.71599973  0.97976796
  1.0027871  -1.04537177  8.19539734  7.34032924 -2.15950665]",2601,8.44972283905372,With Coef.
98,0.12454045849019879,2,[0.68290697 0.89294758],95,0.20123781077563763,Without Coef.
98,0.09889042020938978,2,[ 0.68296938  0.8929632   0.62366805 -2.38220943  7.62347582],1401,1.2842128979973495,With Coef.
99,0.1297096525017514,2,[0.68567498 0.89584081],152,0.24705955665558577,Without Coef.
99,0.10162014484814234,2,[ 0.6857118   0.89584427  0.61942768 -2.44019045  7.81984086],743,0.7642926401458681,With Coef.
