predict,predictor
-500.0,639.0804153207745
-496.1992398479696,462.0757551510553
-492.7985597119424,453.88413145777207
-489.79795959191836,589.8467823932488
-488.997799559912,610.2200025670807
-483.7967593518704,421.50180439819235
-482.59651930386076,519.2339865359615
-482.1964392878576,513.6146710457282
-481.1962392478496,479.60687305374483
-476.39527905581116,433.74287337312165
-476.19523904780954,342.9809455611566
-475.79515903180635,595.13005726707
-474.79495899179835,563.4901782679883
-474.39487897579517,513.6670381196695
-473.994798959792,541.8747304961568
-470.99419883976793,549.7761160233612
-468.7937587517504,589.9220372472281
-466.59331866373276,528.1730004849053
-464.79295859171833,486.56283826339836
-462.39247849569915,528.9020487000488
-461.9923984796959,513.6516490493351
-460.79215843168635,346.2631156998855
-460.5921184236847,604.2568749020377
-459.9919983996799,409.50386356006686
-454.3908781756351,386.49500721847954
-446.3892778555711,326.53675789304634
-446.18923784756953,466.6673879486064
-439.1878375675135,386.00530215731595
-435.3870774154831,366.1844128820715
-433.9867973594719,530.4829620443595
-433.9867973594719,446.2511570093737
-430.1860372074415,376.7442031781374
-429.3858771754351,361.0511726230517
-427.58551710342067,354.87825237680056
-426.98539707941586,493.10015096937855
-425.7851570314063,390.1525338041489
-424.5849169833967,317.67659184427293
-421.18423684736945,412.6347740620513
-416.7833566713343,420.2837965509903
-415.98319663932784,502.81323414793883
-415.58311662332466,476.98452563894983
-414.3828765753151,500.0761769605554
-412.1824364872975,547.4761132877908
-409.38187637527506,483.8186447898773
-408.98179635927187,465.64586154138874
-406.9813962792558,352.68864227727056
-406.18123624724944,340.5877771237927
-404.9809961992398,301.0753000755058
-402.380476095219,383.91238489865856
-401.7803560712142,417.78928611000396
-401.58031606321265,382.3337866444749
-401.380276055211,433.0648623233498
-397.57951590318066,311.649268434963
-395.9791958391678,303.19937280752345
-394.17883576715343,334.72196273253394
-392.17843568713744,447.4922750122045
-385.377075415083,310.1470790605766
-380.376075215043,452.1081944276938
-374.374874974995,508.46007087627095
-372.1744348869774,416.90405424090915
-366.9733946789358,438.84759861606847
-364.97299459891974,433.666877227364
-361.57231446289256,229.80623116544635
-357.37147429485896,258.3969007622137
-356.7713542708542,222.14360480772768
-355.5711142228446,266.98397126315587
-351.97039407881573,399.8683735451925
-347.56951390278056,233.549626786303
-346.36927385477094,375.46087277566227
-346.1692338467693,357.5649849879485
-345.56911382276456,375.27373801457287
-344.1688337667533,330.58988032214415
-342.36847369473895,445.6155119226486
-341.36827365473096,458.22966039480286
-340.5681136227246,365.5061439729528
-335.56711342268454,382.4852391113175
-333.3666733346669,302.5262883934191
-333.3666733346669,456.24389126551034
-331.7663532706541,362.5816942637891
-331.56631326265256,393.5610571551764
-331.36627325465093,472.8328356529632
-328.5657131426285,386.78452708852427
-324.1648329665933,246.3903382315671
-324.1648329665933,436.6641121302662
-324.1648329665933,261.191272680814
-323.3646729345869,447.55642630158724
-320.7641528305661,450.25535335798367
-316.1632326465293,396.1429142013176
-315.76315263052606,216.49459727222415
-314.9629925985197,389.6723640617849
-311.3622724544909,362.1805838661093
-309.5619123824765,285.69735952372906
-304.76095219043805,246.77958070654557
-304.76095219043805,430.3363374804836
-301.9603920784157,185.11008411790937
-301.36027205441087,173.76395743505213
-301.36027205441087,257.19168909150505
-301.1602320464093,164.2100134428428
-299.3598719743949,188.67702761163815
-297.7595519103821,218.33809271000956
-294.95899179835965,308.3485155158912
-294.1588317663533,179.47486588237473
-291.55831166233247,156.4248691506547
-290.95819163832766,417.31641111415274
-290.5581116223245,433.3474997392466
-289.95799159831967,375.4856442560372
-287.5575115023005,155.77990917214774
-285.75715143028606,324.03545429145123
-285.3570714142828,376.88577631405394
-283.3566713342668,292.6779925146835
-281.55631126225245,292.1885073706048
-274.9549909981996,145.67159264940105
-273.5547109421884,235.48556822169377
-272.9545909181836,306.3096231710757
-270.55411082216443,355.69588165025823
-270.3540708141628,136.80740718402026
-268.15363072614525,274.07536690982806
-265.9531906381276,321.4441717923395
-263.75275055011,147.3684870937563
-263.55271054210846,168.90301130971952
-262.35247049409884,244.69525735532574
-261.1522304460892,377.8865664507159
-255.5511102220444,387.0579479550229
-253.9507901580316,170.20655995408885
-253.9507901580316,110.5801017357189
-252.5505101020204,152.03861930762463
-240.14802960592118,289.2664389935077
-237.1474294858972,141.15542698941417
-233.74674934986996,128.0105221407461
-229.54590918183635,368.51816605102806
-228.54570914182835,333.9904050408347
-225.14502900580118,173.1504058861662
-224.54490898179637,334.1708822746947
-224.34486897379475,112.32915346151965
-223.14462892578513,239.19954487421666
-221.74434886977394,303.0884893255804
-220.34406881376276,161.13188788064087
-216.74334866973396,277.51602461880975
-216.14322864572915,119.50512447064102
-215.94318863772753,156.30532586829742
-214.54290858171635,102.00334931131543
-212.94258851770354,93.53861717937686
-212.74254850970192,250.82013741754068
-210.94218843768755,290.0969827203577
-210.54210842168436,314.5585895538035
-210.34206841368274,213.68514480094535
-210.14202840568112,247.45427775031737
-207.74154830966194,173.09010853657375
-201.94038807761552,195.65451842982492
-194.33886777355468,245.18141377424635
-193.13862772554512,250.64964685554395
-191.9383876775355,286.4363960845378
-182.33646729345867,142.72345100493067
-181.93638727745548,157.25782732818055
-177.13542708541706,220.79548831092012
-176.73534706941388,84.79177438939992
-175.3350670134027,59.6200245135518
-175.3350670134027,59.772532497633165
-175.13502700540107,290.9519886764757
-172.53450690138027,221.0674449617635
-170.53410682136428,248.810137499059
-169.53390678135628,84.37923726290359
-168.93378675735147,147.40577728595028
-164.13282656531305,175.54104435953852
-160.13202640528107,52.93260786841317
-157.93158631726345,20.95175735906571
-154.93098619723946,80.36066423418598
-154.53090618123622,87.79807979313902
-153.33066613322666,144.97736334887995
-150.13002600520105,233.5099370328293
-148.32966593318662,284.1704022741443
-146.32926585317063,11.736185155179925
-144.52890578115625,283.72179072820313
-136.12722544508904,57.81224241921849
-135.3270654130826,42.277278422367445
-134.92698539707942,124.3713756969935
-133.92678535707142,223.69392942820951
-133.52670534106824,34.625231312386376
-129.5259051810362,211.73283434977515
-129.5259051810362,46.086865200863
-128.5257051410282,62.88603978829423
-127.5255051010202,75.84125029402537
-122.9245849169834,110.17518782597288
-122.72454490898178,259.09649791480103
-118.32366473294661,159.5558936055752
-117.7235447089418,58.367713014417305
-115.92318463692737,30.407701236565586
-114.72294458891776,53.22168641300419
-110.72214442888577,242.76749315882248
-110.72214442888577,-27.634713888251582
-109.52190438087615,158.0616762865057
-108.12162432486497,200.56774296725325
-106.52130426085216,-1.2630876174373356
-104.32086417283455,12.216255272393695
-102.52050410082018,120.37261964051467
-101.32026405281056,167.00391040780886
-99.71994398879775,164.5035292595328
-99.71994398879775,53.237612598493854
-98.91978395679138,32.79089995379921
-97.31946389277857,32.86051713088412
-96.31926385277058,47.24607304895777
-93.51870374074815,227.57045931400066
-91.51830366073216,204.39483875099728
-91.31826365273054,-47.353273330308184
-91.31826365273054,119.88254197643656
-90.51810362072416,23.30699794038175
-88.51770354070811,-39.46522294433451
-86.31726345269055,-14.092122444217779
-82.31646329265851,10.460750392270626
-79.31586317263452,195.25334431857362
-78.31566313262653,200.37444515456116
-77.1154230846169,-47.337857531480196
-75.91518303660729,211.4892648220409
-75.5151030206041,27.282746385215766
-73.31466293258649,-66.266923430079
-72.11442288457692,22.565542422915364
-63.912782556511274,196.98809122781614
-63.51270254050809,-5.855967559581643
-62.51250250050009,14.777175457408987
-62.31246249249847,-18.1198956777571
-61.712342468493716,110.97596413614284
-59.71194238847767,27.934227700645433
-53.11062212442488,-21.948612929465185
-50.51010202040408,30.487446269094715
-44.308861772354476,64.78585791570096
-42.30846169233848,59.469545372502985
-39.30786157231444,87.72486823701708
-38.90778155631125,61.80590808626914
-37.10742148429688,-64.18741594591826
-35.50710142028407,86.84610122921393
-33.90678135627127,61.835731451146465
-27.90558111622323,-78.9084561149243
-27.305461092218422,44.17012248887629
-26.705341068213613,36.04948927275197
-19.703940788157638,-74.99287292960096
-18.50370074014802,140.1260852983336
-14.902980596119221,27.295618553745435
-12.702540508101606,-8.37219953696611
-8.901780356071185,-8.70413530814539
-4.500900180036012,-44.97818465463238
-0.3000600120024046,45.87308220880762
3.500700140028016,142.2446577015983
7.701540308061624,-86.87980017400695
8.301660332066433,-11.166834999561562
8.901780356071242,75.03613944253738
10.102020404080804,90.5857154550253
10.102020404080804,-89.89143040531395
10.302060412082426,-49.18540169217214
11.902380476095232,-72.31168636171373
12.302460492098476,-66.65296421116271
13.50270054010798,152.9763148215272
13.70274054810966,-28.324707866183267
16.90338067613527,125.93046577315371
16.90338067613527,157.12136062078125
18.10362072414489,-29.75588612163296
20.504100820164012,-5.839750393406764
22.704540908181684,-115.7179062178073
23.704740948189624,16.735614911885122
24.704940988197677,-72.25127407212119
26.70534106821367,-53.60518131683766
29.705941188237603,35.90498403626169
32.506501300260084,-11.812530397285066
38.70774154830963,-27.373200694393446
40.70814162832562,24.434190418786542
41.90838167633524,130.79693625931995
43.70874174834967,89.74895893605239
49.709941988397645,55.665562084231595
50.310062012402454,-50.39712809801303
54.31086217243444,143.2809429279527
54.710942188437684,83.01694956882208
55.9111822364473,-15.608021469512153
59.71194238847772,4.6677136290305725
61.31226245249047,148.7934087998737
63.912782556511274,178.45257161301868
64.31286257251452,-46.25639286284573
75.11502300460097,209.394797334713
76.51530306061215,140.833860847866
77.31546309261853,188.79668843202893
77.31546309261853,-46.96978153501637
78.1156231246249,-9.057000573691411
80.51610322064414,-12.717848694330868
84.91698339667937,-32.05098106551162
87.9175835167033,111.21857823057375
88.71774354870979,198.17833557939775
89.51790358071617,165.0229071303754
90.31806361272254,14.340625547792243
93.9187837567514,-36.61053876856664
95.31906381276258,59.44376888450253
95.51910382076414,85.53260539461878
96.31926385277052,197.3010106280322
101.92038407681537,146.44564268659195
102.52050410082018,79.04222288668353
108.9217843568714,98.78099011556887
109.52190438087621,174.18780935582947
110.52210442088415,194.56425765812313
113.12262452490495,248.2149769953912
114.122824564913,247.31372932369143
114.72294458891781,136.79243652700407
115.72314462892575,171.78500810146951
118.7237447489498,225.72067915420018
119.72394478895785,92.22861574970068
121.12422484496904,90.58239583295565
122.12442488497697,102.31136439203084
124.92498499699946,171.21963256263174
125.72514502900583,182.72511929460703
126.12522504500896,131.97803866159774
128.92578515703144,3.226032727928782
129.92598519703938,238.5790427346161
132.12642528505705,222.8487537783901
133.126625325065,263.38001513973813
136.52730546109217,138.0937174830701
139.72794558911778,186.50701996431866
142.9285857171434,196.67609688235143
146.32926585317068,25.035766665037954
146.9293858771755,70.24254298584246
148.92978595719148,215.7352337946696
150.1300260052011,187.20331705988826
153.73074614922984,125.83854273612152
154.53090618123622,92.44953918489512
156.33126625325065,271.83259545843543
157.3314662932587,230.37708842496136
158.33166633326664,218.0236924501716
158.33166633326664,235.06538843487832
158.5317063412682,290.6202511635083
158.93178635727145,189.63607187949617
164.73294658931786,223.87602615371893
167.33346669333866,147.27732630957235
174.13482696539313,129.6267592850904
182.53650730146035,208.23454504556656
183.73674734946985,78.01959310397322
184.53690738147634,125.37481507041879
186.53730746149233,138.61362903402144
186.7373474694939,161.22145707121433
187.93758751750352,130.51180594506178
188.33766753350676,312.1219841830925
189.13782756551313,275.90440571181193
193.53870774154836,176.35370925006592
198.93978795759153,171.31556293382127
202.94058811762352,274.42397638804425
203.34066813362676,114.24293483481658
203.54070814162833,328.1630180949569
203.94078815763157,185.17547678519426
204.9409881976395,339.810226449819
205.1410282056412,215.92893333572178
205.54110822164432,81.80065657313075
207.54150830166031,316.43033917426504
209.741948389678,183.85370421957361
211.94238847769554,225.89580506472495
214.54290858171635,293.80786897442937
221.3442688537708,343.8859611522762
227.54550910182036,267.27975242448383
227.54550910182036,226.77639167660251
227.54550910182036,343.556313528968
230.34606921384272,226.88137872302892
231.54630926185234,93.82460512389363
235.747149429886,242.74945911075073
238.14762952590524,109.28594266593558
239.54790958191643,261.520528710523
241.14822964592918,174.3642187717969
242.74854970994204,190.4276997220399
249.5499099819964,240.7959732018789
251.15023004600926,270.2513411439853
251.75035007001406,310.4167925426769
254.1508301660332,187.5279308920141
256.1512302460492,387.8437159350108
256.95139027805567,350.18415087615546
257.55151030206036,128.50270917270205
258.1516303260652,303.4452636429988
261.1522304460892,123.97390644869839
261.3522704540908,284.3809321597291
267.3534706941389,308.85714584814895
267.3534706941389,184.04305713150598
268.15363072614525,201.3316988867073
274.15483096619323,283.2974295847057
274.3548709741948,374.332242287939
274.9549909981996,149.8671149482671
275.35507101420285,137.15078721961078
276.55531106221247,376.6385392250331
280.55611122224445,329.74900554603784
286.7573514702941,289.10523146112456
289.9579915983197,429.21673290176886
290.5581116223244,396.12254295023814
293.3586717343469,413.2365649998856
294.5589117823565,347.5915544504594
298.15963192638526,421.100438850657
299.55991198239644,316.3506791085602
300.5601120224045,317.161206551243
301.36027205441087,317.6855089619879
301.9603920784157,185.6892807904931
302.96059211842373,431.74359696985374
304.5609121824365,363.9720588514193
304.9609921984397,348.48362711439404
305.7611522304461,271.0307120307667
308.56171234246847,434.21696072673546
308.76175235047015,331.2141769613361
308.9617923584717,234.27497431469249
309.1618323664733,385.860599261737
310.76215243048614,182.50229987042698
311.16223244648927,241.7585143215147
311.7623524704941,415.9813910072495
312.3624724944989,325.0594403417419
312.56251250250045,191.48370961487257
312.9625925185037,298.00741406053265
314.7629525905181,251.82146568997075
315.96319263852774,190.03010837601178
318.36367273454687,317.7800350942229
322.56451290258053,199.17670549101857
323.9647929585917,228.48691382930073
324.36487297459496,331.6560035118806
325.16503300660133,279.9802503088601
325.76515303060614,210.2692306461779
330.36607321464294,355.8079525385201
332.7665533106622,310.718493169064
339.7679535907182,462.3552039553814
340.76815363072615,451.5515737917281
341.1682336467294,325.2397091772731
342.9685937187437,478.6747710933463
344.76895379075813,228.71864896384767
345.36907381476294,329.1905082278051
346.56931386277256,244.39971527614603
346.9693938787758,349.3103702618043
347.96959391878374,239.9355119737966
348.1696339267854,310.5608714237043
348.369673934787,491.20164485271124
352.370474094819,438.4219815656994
355.371074214843,296.7222014472984
356.97139427885577,436.22855558251547
357.17143428685733,482.39282862357186
360.1720344068814,344.94746194579034
362.97259451890375,233.5121365181662
363.1726345269054,460.3325575001954
367.373474694939,291.8548295260254
369.7739547909582,281.4570057489256
371.9743948789758,389.7938965604478
374.374874974995,291.57934730157564
378.77575515103024,340.4459667218061
379.17583516703337,522.5862576749142
379.17583516703337,395.53357688589847
380.9761952390478,428.67289714130516
387.377475495099,443.49253065394157
391.9783956791358,277.1892974830122
393.17863572714543,410.8510294822339
393.5787157431487,453.1491865052767
394.97899579915986,345.987237733719
395.77915583116624,338.1960692324253
398.5797159431886,459.7547407302794
399.3798759751951,426.8376490445845
404.9809961992398,276.89239285786505
406.381276255251,471.21856247896756
407.5815163032606,303.84894234761504
408.5817163432687,520.187562966198
410.18203640728143,474.4399481823651
413.5827165433087,441.84512464730983
413.7827565513103,347.9758926409507
414.18283656731353,505.40962861333156
414.58291658331666,396.9251775997208
416.1832366473295,408.6680254530703
422.9845969193839,389.96191924616426
423.5847169433887,423.9200768977709
424.7849569913983,326.8470298620232
428.38567713542704,411.6789687568525
428.7857571514303,316.5988653747489
428.98579715943185,452.7323817914724
430.5861172234447,304.58836565739205
435.1870374074815,515.8229441819431
436.18723744748957,396.0377046594738
436.78735747149426,530.362880730263
438.5877175435087,549.0120708678073
441.7883576715343,531.9970375417424
442.5885177035407,351.01864467018163
444.78895779155835,487.2361221725287
450.3900780156031,375.9397746397943
450.3900780156031,307.9250893361529
452.1904380876175,497.3516308448735
454.7909581916383,367.2117199924409
456.7913582716543,382.48107175651256
458.59171834366873,505.5952170291435
459.3918783756751,337.8877959797155
461.3922784556911,585.313779134434
467.1934386877375,419.1100373511826
468.19363872774557,328.09768821336945
468.99379875975194,342.2375363087381
470.99419883976793,604.0014181681365
471.994398879776,474.1475729108747
471.994398879776,456.19922580531204
473.7947589517904,361.98277564012625
474.19483896779354,535.4973766241776
478.5957191438288,525.3312645018468
480.79615923184633,502.84084488943745
483.5967193438688,339.98255652636715
484.1968393678736,412.91930427900525
485.39707941588324,352.63412649130396
485.79715943188637,565.0076553329579
487.99759951990404,619.7634978572358
489.79795959191836,486.1754828326037
491.3982796559312,529.7847685496984
492.7985597119424,417.52679902944305
493.19863972794565,350.918264600747
498.7997599519904,370.10074853007256
499.59991998399676,523.1860063072011
