predict,predictor
-499.5999199839968,555.8747969909214
-499.1998399679936,398.1064171009489
-495.7991598319664,557.8233116280387
-494.7989597919584,511.1733777158279
-493.5987197439488,635.596606342116
-491.99839967993597,419.7723395050309
-491.7983596719344,471.58201953180384
-490.5981196239248,439.88291905008714
-489.79795959191836,392.53037385468826
-489.1978395679136,597.8557912519157
-488.3976795359072,380.89729012045126
-487.79755951190236,412.4815890835761
-487.3974794958992,582.0201938911207
-487.19743948789755,526.5917692790429
-484.7969593918784,494.2259370226459
-483.59671934386876,557.1474738044359
-483.19663932786557,621.0957536697457
-481.99639927985595,478.8369502132735
-481.99639927985595,606.206004980625
-481.99639927985595,389.8186321377898
-481.39627925585114,338.1748662562153
-480.7961592318464,606.9895951079851
-479.99599919983996,337.92967584674705
-478.1956391278256,617.8357664396829
-476.99539907981597,510.6860468261116
-476.5953190638128,539.3382746495155
-474.9949989998,501.125106288184
-471.99439887977593,439.3434510868954
-471.59431886377274,407.86322137678553
-470.79415883176637,558.584600880281
-469.99399879975994,381.01026365344507
-469.3938787757551,351.7336171309871
-469.3938787757551,607.8630466172646
-469.19383876775356,409.4667386290455
-467.99359871974394,437.66276425890277
-467.19343868773757,594.7246982282816
-465.1930386077215,583.8905827506444
-464.79295859171833,371.3799940982566
-463.59271854370877,331.9950500496818
-461.79235847169434,422.000589892171
-460.99219843968797,449.64500939217714
-458.3916783356671,588.7442281040512
-457.79155831166236,573.1410258233469
-457.3914782956591,580.3875617491977
-456.9913982796559,410.2818628652674
-455.7911582316463,349.83484924658467
-455.59111822364474,469.1456665635593
-454.99099819963993,460.41906608846836
-452.99059811962394,329.0410911475454
-452.39047809561913,466.3993656942217
-450.9901980396079,347.06798960264956
-450.9901980396079,459.8711255456855
-449.98999799959995,407.89504645654245
-448.9897979595919,441.84782895073823
-444.5889177835567,388.4234954208617
-443.9887977595519,436.5531786315163
-443.5887177435487,551.7145399658809
-443.1886377275455,374.00420191500154
-442.58851770354073,460.226199048599
-440.7881576315263,401.00786367502485
-440.5881176235247,494.282109310647
-439.9879975995199,387.52871462993767
-439.9879975995199,333.5299345932803
-439.9879975995199,383.54891611675714
-438.7877575515103,318.30267484418255
-438.5877175435087,373.3449302102916
-437.9875975195039,458.61120677827347
-437.5875175035007,430.4517883791397
-434.9869973994799,293.92443207506744
-434.78695739147827,322.86008630485617
-434.3868773754751,318.046577796811
-434.18683736747346,508.42985556426476
-433.9867973594719,442.1276788819459
-433.1866373274655,390.24282894161115
-429.58591718343666,308.0862387491705
-429.58591718343666,563.2322451257336
-428.7857571514303,378.4903810565465
-427.7855571114223,477.7462714698797
-425.5851170234047,565.1681780188885
-424.98499699939987,333.5777436790979
-424.98499699939987,557.0486167765482
-424.38487697539506,543.3899522664951
-424.1848369673935,481.4701527464477
-422.1844368873775,421.46960654473907
-417.3834766953391,520.385146493737
-416.3832766553311,506.9369662937708
-415.7831566313263,362.17044917422913
-415.7831566313263,343.15245242331196
-415.18303660732147,489.49114497697593
-414.98299659931985,422.33016498047687
-413.38267653530704,369.13493650843685
-412.38247649529904,336.6901977161633
-411.98239647929586,536.6434906122649
-411.7823564712943,534.7768904208725
-411.1822364472895,270.8497947048726
-410.38207641528305,541.5098254013367
-409.5819163832766,343.124771379124
-407.9815963192639,520.6304848893506
-407.18143628725744,394.32686610616116
-407.18143628725744,345.7204090323921
-407.18143628725744,354.12097068634984
-406.18123624724944,443.5994557669619
-404.18083616723345,479.8799755091674
-402.78055611122227,305.5565161637778
-402.58051610322065,485.85594646528847
-400.7801560312063,374.30580164851574
-399.37987597519503,284.93478293512834
-398.97979595919185,280.18572755096693
-398.7797559511902,370.8160039790172
-398.37967593518704,458.4344053474432
-397.57951590318066,261.54797395612457
-396.97939587917585,300.9278662512521
-396.77935587117423,409.038130654906
-396.5793158631726,434.9198538215859
-395.1790358071614,299.39906533963523
-394.17883576715343,524.9129762209352
-394.17883576715343,510.71891832091666
-393.378675735147,348.3964800902501
-393.17863572714543,319.2413028954904
-392.9785957191438,383.08074813614456
-392.37847569513906,479.112063959262
-388.377675535107,292.41106222458416
-386.97739547909583,267.8875906309441
-381.37627525505104,312.38088747255506
-380.1760352070414,455.65948168911285
-378.77575515103024,298.82547706094033
-377.9755951190238,465.8240329982032
-375.375075015003,473.7849984605113
-375.1750350070014,240.39944534595486
-374.9749949989998,275.7955850661207
-372.9745949189838,422.4546258725437
-372.5745149029806,229.83527878137951
-371.1742348469694,243.62491734207936
-370.5741148229646,322.22434423109326
-370.374074814963,352.65403914128154
-369.9739947989598,385.8328891907691
-369.7739547909582,481.8954235630978
-369.37387477495497,423.94360382934224
-368.77375475095016,445.6279934321432
-366.373274654931,318.05902636066327
-363.17263452690537,433.38955264545956
-361.7723544708942,436.8662920071852
-360.57211442288457,494.1946563308925
-359.9719943988798,313.40599206235714
-359.57191438287657,298.3949682222202
-357.5715143028606,387.6868427016064
-357.17143428685733,499.35248328433227
-356.7713542708542,427.8721960460805
-354.9709941988398,218.33382070401422
-352.9705941188238,286.8205390959126
-352.57051410282054,373.8794583383372
-352.17043408681735,481.83639500786774
-351.3702740548109,303.58822252942196
-350.370074014803,325.5350569119254
-349.7699539907982,231.38298250204116
-349.16983396679336,454.95758695528787
-348.9697939587918,493.18854040713984
-347.36947389477893,327.0736184991059
-347.16943388677737,377.0652949727482
-345.1690338067614,332.16554641399443
-344.96899379875975,433.9631849891774
-343.36867373474695,217.19789908703444
-340.9681936387277,275.0234450289797
-340.9681936387277,348.0491587542856
-340.76815363072615,322.56988220855317
-337.7675535107021,269.2214920619726
-336.56731346269254,311.5601091288885
-335.7671534306861,226.64314678321256
-335.367073414683,337.01246622220486
-335.1670334066813,448.3245804785089
-334.3668733746749,238.23461276893988
-334.16683336667336,451.1821613999773
-333.7667533506701,194.3266110012865
-333.7667533506701,274.417671181478
-333.3666733346669,234.96036119247515
-333.1666333266653,222.11370566794568
-332.7665533106621,394.8908671169895
-332.7665533106621,428.16522762361933
-332.16643328665737,223.9704367702483
-331.7663532706541,297.5599319885247
-331.36627325465093,373.5203194893895
-329.1658331666333,186.7317182172695
-326.36527305461095,393.75077250971873
-325.9651930386077,191.28995430419937
-325.5651130226045,361.75816890030933
-325.5651130226045,356.5065782060261
-324.36487297459496,292.3308537795945
-323.76475295059015,392.94785192089415
-322.9645929185837,256.25039973601326
-320.7641528305661,417.29224089721293
-319.96399279855973,283.1040491584697
-319.5639127825565,314.1280480203553
-319.5639127825565,450.18850665786806
-319.3638727745549,382.4424115527848
-317.7635527105421,373.71212757112676
-317.5635127025405,190.4784119487142
-317.3634726945389,356.0140487101912
-316.5633126625325,449.76560329730194
-316.5633126625325,312.6189213847584
-315.76315263052606,391.33659470982144
-314.3628725745149,339.02126758960424
-313.9627925585117,255.37470926400286
-313.9627925585117,220.53143616498187
-313.5627125425085,194.94855707765242
-312.5625125025005,211.11093122343772
-311.9623924784957,349.8740064732789
-311.5623124624925,243.43470741452956
-309.96199239847965,291.8180482959076
-309.7619523904781,315.77978574441386
-308.1616323264653,440.58431018495577
-306.9613922784557,230.75933099292683
-306.7613522704541,450.19082444981336
-306.7613522704541,396.1041063580958
-305.96119223844767,433.5979409249386
-304.76095219043805,171.8244976599987
-304.3608721744349,170.34018712278535
-301.36027205441087,419.978375078711
-301.1602320464093,184.7595941949129
-297.7595519103821,276.107552584352
-297.3594718943789,228.67489726109238
-296.95939187837564,401.93942896467104
-296.5593118623725,373.0151071567199
-292.55851170234047,343.7220972762365
-290.95819163832766,208.86904611636757
-290.7581516303261,162.41243611894703
-286.75735147029405,389.22527091289135
-285.5571114222845,152.43750821013953
-285.3570714142828,301.00884297197734
-284.3568713742749,373.91588965948625
-282.15643128625726,324.71628286815513
-280.3560712142429,353.3920826790471
-280.1560312062412,409.9729825173934
-277.35547109421884,262.89893035393635
-276.55531106221247,153.1894223245252
-276.55531106221247,252.11638872903444
-276.1552310462092,237.35908897624378
-273.35467093418686,363.58302988327137
-271.55431086217243,200.13526463661617
-270.9541908381676,166.7721371523839
-268.75375075015006,291.0829835373968
-266.15323064612926,161.78262854855427
-265.1530306061212,369.8924772909732
-261.75235047009403,281.96849457254007
-259.1518303660732,336.34571540839187
-259.1518303660732,401.15897214720417
-258.75175035007,227.8325485379978
-258.1516303260652,225.31475750691925
-257.3514702940588,321.38385784893387
-254.5509101820364,349.27528523774146
-253.9507901580316,294.5059788539535
-251.5503100620124,146.28032593643047
-251.3502700540108,258.7860113901246
-250.9501900380076,194.76274014153768
-248.14962992598518,350.28594450930564
-247.9495899179836,106.40722068305851
-245.34906981396279,132.2744189341974
-244.74894978995798,331.6121173037901
-241.748349669934,118.46732124445643
-241.3482696539308,278.0409411989769
-241.3482696539308,141.75876481943243
-239.3478695739148,110.93280399955646
-239.3478695739148,323.2278703319946
-237.54750950190038,95.03032580918276
-236.54730946189238,211.21341041108568
-235.74714942988595,99.39599881821792
-235.34706941388276,302.0957208534263
-233.94678935787158,144.9851542735949
-233.34666933386677,121.57545140759603
-232.94658931786358,216.03300040458663
-232.34646929385877,142.3372856949853
-232.34646929385877,208.10502209358998
-231.74634926985397,185.35343712482535
-231.34626925385078,373.70528809608584
-230.9461892378476,335.76085779967093
-229.94598919783954,241.3498377940058
-229.14582916583316,316.9308810046107
-228.54570914182835,153.21494777535776
-227.74554910982198,284.3358438745404
-225.74514902980593,265.49170431108985
-224.74494898979793,313.8553848203639
-224.74494898979793,293.58375087055407
-223.14462892578513,207.1138964359482
-221.74434886977394,272.7583227252935
-220.74414882976595,292.6805420198574
-220.34406881376276,234.02173512997211
-218.34366873374677,158.8522304983648
-218.14362872574515,352.69129795408077
-215.14302860572116,323.7423209391207
-213.34266853370673,251.18366863666697
-212.94258851770354,120.17121340873419
-212.74254850970192,344.61130779179547
-212.54250850170035,220.5660604013947
-212.34246849369873,250.88304398049286
-209.94198839767955,143.40202990268685
-208.5417083416683,218.48282029791795
-206.54130826165232,308.40161717126057
-206.34126825365075,253.23833979102602
-205.14102820564113,324.14812334065107
-204.74094818963795,72.45735864443913
-204.3408681736347,198.42905623411855
-202.3404680936187,262.0388116482382
-200.7401480296059,304.53849098698345
-199.1398279655931,238.366437268097
-198.5397079415883,236.50587010664697
-197.5395079015803,150.53789591369096
-196.5393078615723,169.50599119289427
-196.1392278455691,202.19440554121687
-196.1392278455691,121.5643034036646
-195.1390278055611,266.6574852866275
-192.13842768553712,262.3551037160505
-190.73814762952588,234.11596657837796
-190.53810762152432,114.28893565490938
-189.7379475895179,175.3441545782611
-187.93758751750352,128.28922166637432
-187.7375475095019,119.2988331524323
-182.93658731746348,191.46405721458288
-181.5363072614523,223.75478829033494
-181.33626725345067,186.88317702620975
-181.33626725345067,234.78418334282023
-179.33586717343468,211.4619885764374
-179.13582716543306,51.498423437657465
-178.33566713342668,108.65020087712432
-178.33566713342668,224.32158905058088
-177.9355871174235,51.73231510397359
-177.13542708541706,283.4008397971588
-176.73534706941388,63.77138763341286
-175.9351870374075,55.49575985970213
-175.73514702940588,112.41073058040912
-175.13502700540107,209.93606410528668
-173.93478695739145,281.0379925643854
-173.7347469493899,152.0164853148824
-171.53430686137227,296.2756223529674
-168.13362672534504,297.4343973272547
-168.13362672534504,97.64989471858004
-167.73354670934185,235.37085459907178
-166.93338667733548,47.68228599935945
-163.93278655731143,66.44053443885888
-163.33266653330668,135.00110852298133
-162.93258651730343,48.02256419870035
-162.53250650130025,21.260911820555293
-162.33246649329868,249.65102555514918
-161.73234646929387,130.8455830991752
-159.53190638127626,180.92837331458398
-159.13182636527307,43.42663645217236
-158.93178635727145,46.81085513895185
-158.13162632526507,275.3524635025661
-157.73154630926183,279.5977948569188
-154.13082616523303,30.34373717025143
-152.73054610922185,225.90754657110492
-151.73034606921385,176.68035554867095
-151.33026605321066,54.52300946184215
-150.13002600520105,273.7146511907863
-149.72994598919786,127.02290285160939
-148.32966593318662,29.317128058087036
-145.32906581316263,74.96961967407393
-144.72894578915782,210.88431032210198
-144.52890578115625,51.2110749049957
-141.9283856771354,49.925481452108215
-140.5281056211242,66.91864027468007
-140.32806561312265,195.8257214769956
-139.12782556511303,168.08491928856793
-138.9277855571114,139.2733615624286
-138.3276655331066,180.8043285835878
-137.52750550110022,4.798609827906006
-134.126825365073,231.45264010024886
-134.126825365073,170.8621770457974
-133.92678535707142,-9.730418972916965
-133.32666533306661,226.8821946684987
-132.32646529305862,219.75453442344664
-131.126225245049,-11.595658434449007
-129.72594518903782,12.885730209496558
-129.32586517303463,151.3939337624963
-128.5257051410282,90.43981619183097
-125.52510502100421,143.08316152001817
-125.52510502100421,96.81996338268326
-120.12402480496098,-6.807222676475632
-116.52330466093218,44.94058682724638
-116.32326465293056,106.18450773589984
-116.123224644929,208.5765307682472
-114.52290458091619,66.81238571991284
-114.52290458091619,41.50919928856234
-113.12262452490495,25.086603676169418
-112.92258451690338,218.4695046404781
-112.32246449289858,129.87481529934365
-110.72214442888577,205.45927793274603
-109.32186437287459,206.8676796315387
-107.92158431686335,106.9782993318485
-107.12142428485697,-25.16894789358014
-106.12122424484897,91.28534067105744
-106.12122424484897,228.63746872488213
-105.32106421284254,88.40180400928112
-104.92098419683936,245.147635796589
-104.32086417283455,209.89669358979415
-104.12082416483298,182.19590222468443
-102.72054410882174,207.01771541706145
-96.71934386877376,22.46942784348593
-96.11922384476895,162.01032390983642
-96.11922384476895,217.7727043631196
-95.31906381276252,-30.553812438301563
-94.71894378875777,87.94996647542976
-93.31866373274653,92.22768498438927
-91.51830366073216,168.36429328464175
-90.71814362872573,216.53692054177495
-89.31786357271454,144.3178602466827
-89.11782356471292,55.84959518777099
-87.51750350070012,47.88726574268632
-86.9173834766953,-53.09394044627595
-86.9173834766953,99.07638732562219
-86.51730346069212,174.87866335982287
-86.31726345269055,-9.909299562998271
-85.51710342068412,32.90442178879713
-85.31706341268256,15.198739713516957
-84.51690338067613,131.18051229837425
-83.91678335667132,43.428005160155614
-83.71674334866975,40.81456209110133
-83.51670334066813,131.44879538431672
-83.11662332466494,215.60194324177724
-80.31606321264252,94.55536626847417
-80.1160232046409,75.59089529405229
-78.71574314862971,139.22755043663028
-78.1156231246249,104.95990494983164
-76.5153030606121,201.73210075709693
-75.71514302860572,-4.2304570138282
-75.71514302860572,104.41113890361183
-75.5151030206041,-54.38837533909563
-74.11482296459292,-34.69888832439189
-74.11482296459292,-63.94552747096125
-73.9147829565913,71.08827772573548
-72.51450290058011,0.6745705377812499
-72.51450290058011,-47.20036501393598
-72.11442288457692,45.75713015750982
-71.51430286057212,176.57115493308106
-71.11422284456893,84.10336535697765
-69.3138627725545,-5.381817257820998
-68.11362272454488,-26.987982441136268
-67.91358271654332,28.803820021907413
-67.11342268453689,131.693485075566
-65.91318263652732,-55.98808233747452
-61.91238247649528,-11.42951184309571
-61.91238247649528,91.6903888232195
-59.91198239647929,117.4655314344052
-58.11162232446486,180.629600320851
-57.911582316463296,155.40634169628953
-55.51110222044406,74.50305853258237
-54.110822164432875,148.64292885373874
-51.110222044408886,142.1989344429255
-50.51010202040408,107.83631500264059
-50.51010202040408,-83.37469710407478
-48.70974194838965,173.87534932008373
-47.909581916383274,-31.00403988263912
-47.70954190838165,130.16641043153277
-47.309461892378465,67.42841929274843
-46.10922184436885,90.29727964693406
-45.509101820364094,99.36331893648918
-44.108821764352854,136.20837694805226
-42.908581716343235,-3.736099505671298
-42.30846169233848,57.94198658150756
-42.10842168433686,99.17375946309008
-40.508101620324055,32.12354719439672
-39.10782156431287,-75.64448937230034
-38.30766153230644,2.2429267925627414
-38.30766153230644,-47.35985999608846
-35.90718143628726,-11.121925947120317
-35.30706141228245,-15.058720267715834
-34.906981396279264,35.69050801066078
-32.90658131626327,157.6339539495881
-31.906381276255217,4.062876172619088
-31.706341268253652,-59.34655399917577
-30.506101220244034,2.6208619003526863
-27.505501100220044,-89.4449154076646
-27.105421084216857,-4.305462301934057
-24.904980996199242,-37.693185473957804
-24.904980996199242,-85.83551103951481
-24.10482096419281,-62.77604940074316
-23.904780956191246,-45.69367374386505
-23.104620924184815,-86.71194337890371
-22.30446089217844,19.23755704152029
-21.304260852170444,-76.36376917944048
-18.903780756151207,123.38293236704455
-18.70374074814964,57.827266143284206
-17.503500700140023,31.70210145125106
-16.903380676135214,129.963227489007
-16.303260652130405,-91.85554410888032
-14.502900580116034,34.8128825783957
-14.302860572114412,-90.02867999930784
-13.702740548109603,-111.61663002189829
-13.302660532106415,8.964579306976361
-12.902580516103228,-51.66224924504478
-10.902180436087235,-106.44991144663946
-9.901980396079182,40.1860434374111
-9.101820364072807,36.75998717559078
-6.9013802760551926,15.147619853094923
-5.101020204040822,92.0721341287248
-4.9009801960392,19.08043947621919
-4.500900180036012,-119.04027093026083
-1.7003400680135883,12.270450177006808
-0.9001800360072139,-54.63518823033948
0.5001000200040266,-71.18780779804415
4.7009401880376345,91.16012292438823
5.701140228045631,72.25251535758767
5.901180236047196,-6.011975903485489
8.101620324064811,-78.01415806741589
10.502100420084048,76.60767941044409
11.302260452090422,143.97408980767298
12.902580516103171,9.479421486989793
14.302860572114469,-71.5489872276119
16.703340668133592,-92.93492717921703
17.90358071614321,-17.872318566276945
18.903780756151264,81.75746956760602
19.10382076415283,38.26831911204154
19.903980796159203,141.9871757479158
22.704540908181684,104.18058914114063
23.304660932186493,-65.87645619876396
24.104820964192868,167.36304544082407
24.904980996199242,97.3241814618959
25.105021004200808,46.593874998510586
25.905181036207296,87.12879032810666
26.70534106821367,132.98232078210577
27.505501100220044,25.15139196710625
27.70554110822161,27.1327654556774
30.90618123624722,-46.592157493064406
34.10682136427283,63.8269566558353
36.107221444288825,-0.6374740580212972
37.10742148429688,149.8029202734286
37.50750150030012,-75.35648211820866
39.30786157231444,-53.237646359253176
42.70854170834173,-14.633590711778822
42.70854170834173,163.84794268125495
44.10882176435291,154.35913273784865
44.908981796359285,-28.47826299410002
46.509301860372034,-10.333397210708533
47.70954190838165,18.722127730996153
49.50990198039608,162.77737867962267
52.31046209241845,12.292852754370479
52.91058211642326,-24.33100568372106
53.510702140428066,181.54122504128242
55.71114222844574,20.794888490685963
56.11122224444887,123.40948019468921
56.91138227645524,164.6444119888358
57.11142228445692,-18.721454312884774
57.11142228445692,100.13743763343061
57.311462292458486,-66.99365330322371
60.5121024204841,-15.227487465769428
60.91218243648734,194.83044583040873
61.11222244448891,-9.578283609222794
61.712342468493716,28.595403666559044
62.312462492498526,136.19754109077874
64.11282256451295,77.13163477073395
64.31286257251452,111.6629423435896
64.51290258051608,-76.33270141201967
65.11302260452089,144.86738053381893
65.51310262052414,36.44910496078799
66.91338267653532,9.225980641594532
68.3136627325465,20.191431173170635
68.3136627325465,25.421102623056967
69.11382276455288,195.068140483062
69.11382276455288,-64.8748831862878
69.51390278055612,-10.219595548589709
69.51390278055612,-11.007013112005353
70.11402280456093,161.59210889594422
70.11402280456093,178.81758647613316
70.3140628125625,55.74200839297049
70.51410282056418,45.72084440694453
71.31426285257055,128.3766700598912
71.51430286057212,102.05465852142322
71.91438287657536,176.03199802500086
72.71454290858173,-19.72424395572483
73.31466293258654,-24.808446041903693
75.31506301260254,16.335298505349698
75.71514302860578,108.3348385416279
76.11522304460891,144.34860790253333
76.31526305261048,164.77256991259176
76.91538307661529,107.89686264653483
77.71554310862177,26.944979637995445
78.1156231246249,174.73680094766536
79.51590318063609,104.92022487772591
84.51690338067613,127.79693957053331
84.51690338067613,-20.842325193568698
85.11702340468094,44.61094182424465
85.3170634126825,35.31298503749558
85.51710342068418,215.5845362398193
86.7173434686938,131.32021034149255
88.91778355671136,157.7220249906684
90.71814362872578,-32.688023687440975
91.3182636527306,-33.13115686589089
91.51830366073216,-2.466704650153787
91.51830366073216,-32.310444612090194
91.9183836767354,102.12247978852699
95.51910382076414,-33.194152950535056
96.11922384476895,91.07272256970232
98.11962392478495,104.53117500935564
98.91978395679132,80.36944826997598
99.71994398879781,82.88761516212448
101.7203440688138,61.453387179922984
102.32046409281861,-24.88720191066112
103.52070414082823,9.535274431497484
104.12082416483292,77.73141908205474
104.92098419683941,196.43900263670184
105.72114422884579,206.5152434859512
105.72114422884579,184.12266142059042
106.3212642528506,99.58036338433656
109.52190438087621,181.52828911218415
109.72194438887777,-22.21150215704833
109.72194438887777,221.4676275549022
110.52210442088415,249.46082048348154
111.72234446889377,110.42358488065584
112.72254450890182,64.74748012852899
113.12262452490495,106.73826020230206
113.12262452490495,135.43728978816165
113.72274454890976,62.4840384914572
115.92318463692743,80.17699565014681
116.7233446689338,-5.497724685142359
116.92338467693537,111.27364466361121
117.32346469293861,114.20797596518288
118.32366473294655,169.87408006676262
118.32366473294655,211.35266624654557
118.52370474094823,133.139858202072
118.7237447489498,143.04286402940977
119.52390478095617,8.01615654827404
120.52410482096423,140.8106628727946
120.92418483696736,-13.263575894076837
121.72434486897384,251.16048553202995
121.72434486897384,93.84388951997684
123.12462492498503,230.73047862571795
123.3246649329866,16.33667396459049
123.72474494898984,244.13731494212087
124.52490498099621,201.33392803744198
125.32506501300259,118.12317249319351
125.52510502100415,95.35331192380698
126.12522504500896,181.21789587265744
126.12522504500896,56.602521253113565
126.5253050610122,38.630609789847824
126.92538507701545,160.09699406208244
127.32546509301858,232.54599544205567
128.72574514902976,23.35669726442879
128.92578515703144,259.7270820370152
129.32586517303457,13.42276909758597
130.12602520504106,45.68136935008306
130.32606521304263,45.87001501452336
132.92658531706343,119.38486983976364
133.92678535707137,14.207340253951472
134.12682536507305,74.47823723436755
134.3268653730746,200.95970495112388
135.32706541308266,101.85360149502941
135.32706541308266,228.64935675463684
137.92758551710347,169.28488805044685
138.3276655331066,121.30990840864402
140.12802560512102,127.03457470844592
140.9281856371274,214.85553059436825
144.128825765153,88.08555456473837
145.72914582916587,162.85692298805603
145.92918583716744,117.03996539956954
147.12942588517706,16.83671528019258
150.53010602120423,193.96319171781403
150.53010602120423,101.52957547235084
152.33046609321866,200.8887719126383
152.93058611722347,10.086870400532149
153.9307861572314,291.3459690221223
153.9307861572314,166.52045957457673
154.93098619723946,253.58243695519462
154.93098619723946,119.58828235861054
155.13102620524103,36.94465007202683
158.5317063412682,133.55619413054265
161.53230646129225,279.8716119185409
161.73234646929382,169.3350302761555
162.5325065013003,283.0944413559206
164.13282656531305,213.5656021062025
164.93298659731943,266.94569768713114
167.7335467093419,82.58020958489135
167.93358671734347,124.53727344273189
168.13362672534504,179.4325475037671
168.53370674134828,232.19650989311543
169.7339467893579,176.00328762599565
170.13402680536103,216.29761798294334
170.3340668133627,239.99702951977758
170.53410682136428,279.46082158663353
171.13422684536908,217.98119807396196
172.3344668933787,110.17554873873132
172.9345869173835,309.7051543136713
175.53510702140431,282.817537734309
175.93518703740745,292.55192112270964
178.73574714942993,290.1689708510893
178.9357871574315,308.43823495702077
179.13582716543306,140.70879433287615
179.33586717343474,158.50957212448057
179.33586717343474,161.11863325930992
179.33586717343474,236.50674400241687
183.13662732546516,211.71391553239678
184.53690738147634,300.839271770251
186.53730746149233,107.06464616628651
187.3374674934987,117.10903993003886
189.13782756551313,197.5385270165867
190.33806761352275,276.0946953232369
195.53910782156436,174.92385343506626
195.9391878375675,268.16609666970186
196.5393078615723,161.65329535971097
197.1394278855771,246.2062038314457
197.1394278855771,111.64671190749381
197.33946789357867,330.0717339309407
197.73954790958192,221.84330989436796
197.93958791758348,129.73131772491058
197.93958791758348,270.41145099982396
200.54010802160428,187.12545235808443
201.54030806161234,224.5228699040341
201.7403480696139,70.59277039919937
205.54110822164432,132.0818606697489
208.14162832566512,240.78693540985245
209.14182836567318,98.92683937497327
209.5419083816763,105.41184407474212
210.3420684136828,188.81643389788147
212.1424284856971,180.96533763961642
212.54250850170035,255.63661274858632
213.74274854970997,244.1045880317839
216.54330866173234,281.9280498205961
216.7433486697339,126.02632579660266
216.7433486697339,194.256743151251
217.3434686937387,244.46903648203843
217.74354870974196,158.28305190857486
218.94378875775158,351.7968201818981
219.3438687737547,344.52137506923987
220.34406881376276,297.3705752275042
221.3442688537708,277.86394685163555
223.14462892578513,105.45827636079807
223.74474894978994,286.75484166520647
225.9451890378076,106.2047834469328
226.14522904580917,167.4313136623697
227.14542908581723,362.9410551044215
228.14562912582517,173.7482025443724
228.5457091418284,330.5928953982544
229.34586917383479,277.49697170081043
229.74594918983803,153.00848882965332
232.34646929385883,193.85113109631303
232.5465093018604,108.72201705539712
232.74654930986196,369.03357150420516
232.94658931786353,260.41558471196197
236.14722944588914,272.3699196124905
236.34726945389082,125.60718638323912
236.74734946989395,376.4891084771258
240.54810962192437,253.36418784434719
240.74814962992605,307.11576606524227
241.54830966193242,345.3146775554501
241.748349669934,237.87960710195253
241.94838967793555,173.74235355478828
244.14882976595322,125.56954571399062
246.34926985397078,223.63436876741844
246.74934986997403,277.13560411142726
248.34966993398677,164.68850030803083
249.5499099819964,210.76647031572782
249.74994998999796,181.4642142849927
250.55011002200445,180.73307352463
254.35087017403487,173.67084654127518
256.1512302460492,256.5034216004388
259.1518303660732,330.05084438525097
260.5521104220844,278.177703092506
261.1522304460892,311.4341010968592
262.1524304860973,376.1604803578988
264.5529105821164,217.84285846478517
264.5529105821164,373.02035096651326
266.95339067813563,173.01192380615618
268.15363072614525,387.1715100297471
268.15363072614525,129.11676623013292
270.15403080616124,266.206736436108
271.55431086217243,355.95255653073355
272.75455091018205,311.51112360427624
274.3548709741948,388.98239941263864
274.5549109821965,165.58642630979574
276.55531106221247,293.8237473667615
277.7555511102221,361.81709661338056
278.75575115023,309.2782538717671
279.15583116623327,294.57800263961576
280.1560312062412,254.8404145189791
280.3560712142429,290.88531957331367
280.55611122224445,304.4390813196093
282.9565913182637,166.74841760758602
283.15663132626526,259.1887188927315
283.75675135027006,273.38333771254344
284.1568313662733,155.94139840225202
285.75715143028606,314.8275086229371
286.1572314462893,221.0024562806562
288.7577515503101,332.72881171674186
289.75795159031804,196.43468299377702
290.1580316063213,408.3548280658468
290.5581116223244,191.30902933523282
290.5581116223244,431.05410650980457
291.1582316463292,367.80665203255006
293.55871174234846,372.47069828079185
293.55871174234846,195.52474772026017
298.15963192638526,410.545153900599
299.1598319663933,408.7716232657993
302.5605121024205,326.27104658128144
302.96059211842373,303.7912985948472
303.9607921584317,254.32683873466647
305.96119223844767,167.75019349298285
307.36147229445885,375.27361201668
307.96159231846366,398.86205171323894
308.3616723344669,297.89213492570616
311.16223244648927,318.1098320966076
311.36227245449095,343.9499422867133
312.3624724944989,254.49958175329772
312.3624724944989,223.86461199131588
312.56251250250045,442.417027290478
313.5627125425085,319.421034033609
314.3628725745149,247.00687366866887
314.56291258251656,247.43679483424003
316.3632726545309,291.5183754744684
317.5635127025405,378.54008149125315
318.56371274254855,315.51474401756593
318.9637927585517,216.26451765794576
319.5639127825565,358.99897436450823
320.7641528305661,286.4569306234798
321.76435287057416,215.8737805039146
322.7645529105821,372.4933619263901
323.56471294258847,192.73568233169883
324.7649529905981,241.56144953797835
326.7653530706141,329.23394645666673
326.7653530706141,347.1296286313724
327.56551310262057,324.59589842420024
327.76555311062214,223.72315670719323
328.1656331266254,299.5248321398795
329.76595319063813,414.18302727372657
330.1660332066414,224.69717897677094
330.36607321464294,391.2269271879665
330.5661132226445,358.59374385861236
330.96619323864775,188.17378328994954
333.366673334667,368.8300646384057
333.7667533506701,429.80453148911033
335.56711342268454,388.07596371269096
336.16723344668935,193.1562595555343
336.9673934786957,380.2546586186429
338.3676735347069,262.16539501177306
339.5679135827165,274.3727664059518
339.7679535907182,243.90331461298126
339.9679935987198,250.72493766629242
341.36827365473096,263.6564580897817
341.96839367873577,214.3549733258144
342.368473694739,388.3605784089446
342.368473694739,356.29862617956564
343.1686337267454,285.13690032700714
344.1688337667533,463.1804776954954
344.368873774755,335.2675447813929
344.56891378275657,256.7336899675803
346.369273854771,253.7535984952635
346.56931386277256,489.19149111771134
347.36947389477893,456.6589281872199
348.1696339267854,355.0535268117647
348.1696339267854,364.7260107366481
348.56971394278855,418.9973006784819
349.5699139827966,325.2035814250988
350.57011402280455,267.76805708748253
350.7701540308062,291.2805498401008
351.17023404680936,352.8051657363563
352.1704340868174,229.12751072209596
356.5713142628525,215.23224276563383
357.5715143028606,218.34079777133715
359.17183436687344,308.7046172429137
359.17183436687344,277.5534897352577
359.371874374875,327.5056799341909
360.1720344068814,373.2649780598792
361.372274454891,460.9779561308204
362.5725145029006,265.48151881162585
364.17283456691337,395.7061478920389
364.37287457491504,472.6015305903002
364.97299459891974,301.4946979546745
365.1730346069214,399.12090543502734
365.77315463092623,369.37699514911014
366.5733146629326,252.8431257803617
368.97379475895184,309.965400242545
369.1738347669534,294.4674844481327
370.17403480696146,273.5175964258071
370.5741148229646,353.652102938912
370.77415483096615,301.139744939958
372.17443488697745,251.14592806406014
372.9745949189838,274.4300868867183
373.7747549509902,411.53900217773685
374.374874974995,504.28173243918195
374.77495499099825,420.05572695078195
375.1750350070014,413.5081373035872
375.7751550310062,396.2868217005554
375.7751550310062,469.7750218402497
377.7755551110222,335.0636688450785
378.17563512702543,515.5291304454175
378.17563512702543,513.2820119207764
378.375675135027,515.9354029500702
379.7759551910382,419.4116332827743
380.9761952390478,516.952389899313
381.1762352470495,313.10014413813195
384.1768353670734,325.2198859546422
385.17703540708146,294.9461461327975
385.77715543108627,522.5265497311163
385.77715543108627,504.27784522627593
385.77715543108627,486.9716925214194
386.57731546309265,501.4862838611257
386.57731546309265,274.88171323171383
386.9773954790958,422.58807759270445
387.5775155031006,530.4478343495454
387.97759551910383,327.1831289638248
387.97759551910383,406.5701968313898
388.9777955591119,410.91451932098823
389.77795559111826,380.7837977780729
394.7789557911583,394.6371229858258
397.77955591118223,256.5335034059473
397.9795959191838,265.5871924165176
399.7799559911982,348.77720533808025
400.18003600720147,356.6575383175768
400.98019603920784,484.8855814326505
400.98019603920784,279.27213137146765
401.7803560712142,415.18303269144434
401.9803960792159,331.5872798573153
402.18043608721746,303.9310792929576
403.3806761352271,496.25238203507115
403.9807961592319,323.6565403902344
404.5809161832367,270.91931777270247
406.18123624724944,386.9559109332864
407.38147629525906,451.7022212438941
408.9817963592718,519.7568719221932
409.5819163832766,428.419160270758
410.3820764152831,395.16154136285405
412.78255651130223,440.1459671450512
412.78255651130223,503.27565121757596
413.1826365273055,539.5530175734435
413.98279655931185,410.2433593505251
414.3828765753151,299.94423681297826
416.58331666333265,320.21985890829194
418.9837967593519,363.7057246400781
421.3842768553711,292.12450736268806
422.58451690338063,511.36661155228774
422.9845969193839,460.7903680661584
423.5847169433887,481.134142672542
423.78475695139025,359.0209874569666
426.1852370474095,545.990537062844
428.5857171434287,503.3873643765472
428.7857571514303,537.0278371713198
429.58591718343666,396.1449676904431
429.78595719143834,325.8350514355132
429.78595719143834,463.135659760528
433.7867573514703,395.6994601097279
435.3870774154831,351.3511338420042
435.3870774154831,362.8605226381404
435.9871974394879,505.6817867524454
437.58751750350075,343.75785962102333
438.78775755151037,375.93648959725545
439.38787757551506,564.2753855057612
439.7879575915183,395.4380029166564
439.9879975995199,581.9733515736442
440.18803760752155,328.31264594129243
440.5881176235247,579.1614968038962
442.18843768753754,323.7338865563208
444.3888777755551,586.0976813785769
444.78895779155835,565.7142174639678
445.5891178235647,394.45756876535535
446.18923784756953,344.0113307400712
446.18923784756953,364.78754475548556
446.78935787157434,518.7682380773847
449.7899579915984,429.7130300377782
449.7899579915984,381.87540033944094
449.98999799959995,464.4201562474669
452.59051810362075,327.50470156818665
453.79075815163037,317.5268973350373
454.7909581916383,366.4548987925908
457.3914782956591,590.2487645324742
457.79155831166236,564.0049934974767
458.7917583516703,351.43662646184936
458.991798359672,363.28125542766014
460.7921584316864,537.6392162506169
461.19223844768953,452.4135235397287
461.19223844768953,548.1174505789867
461.9923984796959,359.3212535744069
462.7925585117024,560.7732320327113
465.1930386077215,591.223994547842
470.3940788157631,327.35357361421813
472.3944788957791,371.69578183722916
472.3944788957791,411.69028267751156
473.59471894378873,371.98600085383924
474.9949989997999,412.11836776511683
475.1950390078016,615.1060502899859
476.19523904780954,440.99665054460286
477.5955191038207,500.32460204093223
477.5955191038207,410.4482773822714
478.79575915183034,587.7476243737823
479.39587917583515,361.7051164472979
479.7959591918384,569.8000140225361
480.19603920784164,410.03372708879044
480.3960792158432,447.60787802008184
482.3964792958592,611.7646068029738
482.59651930386076,453.9357591820266
482.79655931186244,462.4655181718285
483.5967193438688,557.9422604614041
485.19703940788156,589.7484394547132
485.19703940788156,487.6141941286786
486.3972794558912,456.5194661887234
488.997799559912,382.64020859464654
489.79795959191836,438.28046205170386
490.39807961592317,470.5846811292878
491.5983196639328,362.1154730089109
492.39847969593916,475.1949547414911
493.3986797359472,469.5269957153995
495.3990798159632,611.6194213636378
498.99979995999206,572.8827030823854
499.59991998399676,400.5310195820282
499.59991998399676,544.3663740852136
