predict,predictor
-500.0,228.14529986001114
-496.1992398479696,215.39923615710944
-492.7985597119424,280.7091907985138
-489.79795959191836,269.93573862714095
-488.997799559912,241.62073946369932
-483.7967593518704,279.66587084998514
-482.59651930386076,278.4786087566258
-482.1964392878576,235.17302179190375
-481.1962392478496,190.62232087466572
-476.39527905581116,240.77001266774928
-476.19523904780954,200.4728879043474
-475.79515903180635,256.4226709875669
-474.79495899179835,235.84615487965613
-474.39487897579517,192.60976465426776
-473.994798959792,208.8119037820124
-470.99419883976793,277.9433527220672
-468.7937587517504,207.0738543751869
-466.59331866373276,250.1718719240485
-464.79295859171833,197.76175101055
-462.39247849569915,212.17917200218255
-461.9923984796959,192.39744685554177
-460.79215843168635,236.84652374253042
-460.5921184236847,229.5995084769298
-459.9919983996799,255.68334271992583
-454.3908781756351,190.08335873524183
-446.3892778555711,194.40665644804437
-446.18923784756953,223.55247796612977
-439.1878375675135,268.6126759087804
-435.3870774154831,173.4753726922548
-433.9867973594719,224.06881264106715
-433.9867973594719,271.871954907311
-430.1860372074415,235.83324511178103
-429.3858771754351,190.2054633186113
-427.58551710342067,209.66289665370763
-426.98539707941586,158.45039485070978
-425.7851570314063,256.6517025227232
-424.5849169833967,222.61413113949467
-421.18423684736945,263.2818762613166
-416.7833566713343,162.85377656639025
-415.98319663932784,167.99393862195103
-415.58311662332466,242.97474252664233
-414.3828765753151,258.9029784731617
-412.1824364872975,229.53225581808329
-409.38187637527506,218.2390032117044
-408.98179635927187,231.0352655244247
-406.9813962792558,160.01898830467434
-406.18123624724944,148.00988754235357
-404.9809961992398,171.96434823079306
-402.380476095219,161.95752124236728
-401.7803560712142,174.94594844100146
-401.58031606321265,217.16880210192795
-401.380276055211,186.89485234013213
-397.57951590318066,171.06724080554804
-395.9791958391678,224.0556202823971
-394.17883576715343,153.05575062709127
-392.17843568713744,167.10243599941538
-385.377075415083,234.09605199702452
-380.376075215043,193.60339995087236
-374.374874974995,208.13047631754327
-372.1744348869774,160.36775962082106
-366.9733946789358,151.56555332115073
-364.97299459891974,206.65968420672377
-361.57231446289256,158.90798021072305
-357.37147429485896,179.30891039178437
-356.7713542708542,138.2402057250396
-355.5711142228446,152.52444407749203
-351.97039407881573,214.4632176970331
-347.56951390278056,119.56649772430853
-346.36927385477094,175.3322425800942
-346.1692338467693,162.84350015532382
-345.56911382276456,152.8100527547291
-344.1688337667533,152.50645429866083
-342.36847369473895,200.6103204505588
-341.36827365473096,187.90935421968427
-340.5681136227246,119.48893256154577
-335.56711342268454,196.66636749592072
-333.3666733346669,176.23232623928988
-333.3666733346669,175.3269919893206
-331.7663532706541,131.74451855089032
-331.56631326265256,152.54126169410137
-331.36627325465093,171.6476424211217
-328.5657131426285,135.0381665813218
-324.1648329665933,198.8578401992042
-324.1648329665933,180.46494682653775
-324.1648329665933,139.76763911739005
-323.3646729345869,162.3396180233977
-320.7641528305661,171.3548088421196
-316.1632326465293,170.65442911623464
-315.76315263052606,127.19109960169274
-314.9629925985197,108.47000392468472
-311.3622724544909,107.48544668865986
-309.5619123824765,191.22085832677152
-304.76095219043805,105.13931700171221
-304.76095219043805,175.1815590752361
-301.9603920784157,145.79972284663077
-301.36027205441087,138.76472482751765
-301.36027205441087,157.6685649047996
-301.1602320464093,101.25329335949567
-299.3598719743949,105.60848485894445
-297.7595519103821,142.2909081914663
-294.95899179835965,171.8879205773796
-294.1588317663533,139.8032013639122
-291.55831166233247,185.25151683168747
-290.95819163832766,198.49563255210333
-290.5581116223245,141.8283248645727
-289.95799159831967,213.2642127121889
-287.5575115023005,138.0076932749721
-285.75715143028606,200.93581270996017
-285.3570714142828,217.90599896885783
-283.3566713342668,158.32572997293647
-281.55631126225245,141.38211406086654
-274.9549909981996,157.9648936483239
-273.5547109421884,193.96315219518954
-272.9545909181836,198.94046494129933
-270.55411082216443,132.92865270477148
-270.3540708141628,158.2845443018977
-268.15363072614525,165.0840322578976
-265.9531906381276,176.73438045601281
-263.75275055011,215.37957184623667
-263.55271054210846,133.54114003324986
-262.35247049409884,168.98014691418567
-261.1522304460892,141.01899177513914
-255.5511102220444,213.32227375288588
-253.9507901580316,156.01996599933102
-253.9507901580316,153.65699825693065
-252.5505101020204,183.8737568729542
-240.14802960592118,157.94498936686313
-237.1474294858972,169.5344879964707
-233.74674934986996,241.22795074807604
-229.54590918183635,194.58804324112555
-228.54570914182835,215.68083184446442
-225.14502900580118,173.9006736467371
-224.54490898179637,193.17013437632937
-224.34486897379475,243.70771326765052
-223.14462892578513,249.85993406817494
-221.74434886977394,245.41054912776906
-220.34406881376276,233.41147212036176
-216.74334866973396,237.2531857779381
-216.14322864572915,185.149865036428
-215.94318863772753,192.62219765631562
-214.54290858171635,272.3706632108624
-212.94258851770354,248.4291958841151
-212.74254850970192,211.13463246529378
-210.94218843768755,233.11483635120416
-210.54210842168436,191.59240453611443
-210.34206841368274,206.50075950284506
-210.14202840568112,238.65066598545903
-207.74154830966194,277.7563104395504
-201.94038807761552,196.21844643749108
-194.33886777355468,253.3841239090949
-193.13862772554512,215.37518691831053
-191.9383876775355,296.2971189488865
-182.33646729345867,231.09953454118212
-181.93638727745548,295.07756416607833
-177.13542708541706,253.14723124626843
-176.73534706941388,227.20068763812594
-175.3350670134027,241.64818557197827
-175.3350670134027,325.2160605591019
-175.13502700540107,282.2511955121513
-172.53450690138027,329.05190826566064
-170.53410682136428,298.3719143754952
-169.53390678135628,279.9442896743105
-168.93378675735147,299.3282001313848
-164.13282656531305,275.4806331220877
-160.13202640528107,254.54859226610648
-157.93158631726345,272.492546391494
-154.93098619723946,263.6914398767088
-154.53090618123622,349.1406807872154
-153.33066613322666,329.88192609457934
-150.13002600520105,276.7846005343339
-148.32966593318662,302.2734944597535
-146.32926585317063,345.6374339249165
-144.52890578115625,315.14477451916434
-136.12722544508904,264.52607268464783
-135.3270654130826,320.0934082752883
-134.92698539707942,290.8361255961791
-133.92678535707142,263.5705021388611
-133.52670534106824,278.93983094627646
-129.5259051810362,375.5808905735332
-129.5259051810362,312.5872379859199
-128.5257051410282,334.227908400999
-127.5255051010202,344.6534008648275
-122.9245849169834,343.64833284005874
-122.72454490898178,287.4846241083396
-118.32366473294661,318.756825295211
-117.7235447089418,345.89818279361157
-115.92318463692737,344.6557017497392
-114.72294458891776,377.2094204121278
-110.72214442888577,380.05155291280556
-110.72214442888577,355.1593063673994
-109.52190438087615,324.83314434147655
-108.12162432486497,340.5029246335963
-106.52130426085216,356.98198929887275
-104.32086417283455,381.1485844232115
-102.52050410082018,295.0474765139753
-101.32026405281056,397.27652782070516
-99.71994398879775,357.6154670734223
-99.71994398879775,377.52328098280884
-98.91978395679138,396.2852535482149
-97.31946389277857,301.5639446499392
-96.31926385277058,336.1001004523627
-93.51870374074815,291.2469476069984
-91.51830366073216,394.59027319033095
-91.31826365273054,308.3626684492256
-91.31826365273054,309.51274211319907
-90.51810362072416,306.6060465438577
-88.51770354070811,298.6137838358263
-86.31726345269055,349.86399406883965
-82.31646329265851,307.22177788000073
-79.31586317263452,370.5674695561504
-78.31566313262653,298.62721688572196
-77.1154230846169,378.1245661211238
-75.91518303660729,306.51359282327644
-75.5151030206041,294.9959840226836
-73.31466293258649,334.5681759917981
-72.11442288457692,376.14311186811057
-63.912782556511274,283.5677453199668
-63.51270254050809,298.5353136491979
-62.51250250050009,313.13507344341195
-62.31246249249847,316.41569460349115
-61.712342468493716,283.91484886346575
-59.71194238847767,318.451687020699
-53.11062212442488,323.42993449157
-50.51010202040408,290.8940546970084
-44.308861772354476,348.6645758128609
-42.30846169233848,343.95049139263807
-39.30786157231444,297.48429685305086
-38.90778155631125,308.26402206908676
-37.10742148429688,243.44627097992833
-35.50710142028407,238.67278993546037
-33.90678135627127,266.8019556308403
-27.90558111622323,289.4655623697258
-27.305461092218422,225.36031882866268
-26.705341068213613,232.53002618818374
-19.703940788157638,222.12226767892207
-18.50370074014802,266.83301767132286
-14.902980596119221,320.09235139411777
-12.702540508101606,277.6574309369816
-8.901780356071185,274.0044604353583
-4.500900180036012,273.80947961344384
-0.3000600120024046,282.25884194436014
3.500700140028016,222.6121047615978
7.701540308061624,295.2673921894136
8.301660332066433,263.26075317875495
8.901780356071242,253.64120472038144
10.102020404080804,249.066292704498
10.102020404080804,205.29813449937984
10.302060412082426,227.7260234318571
11.902380476095232,236.56571586158014
12.302460492098476,268.5536089702324
13.50270054010798,181.85483220754617
13.70274054810966,197.5221237484831
16.90338067613527,218.72054950784468
16.90338067613527,241.35748831447424
18.10362072414489,248.00998939173823
20.504100820164012,215.15673693042189
22.704540908181684,222.94331597827056
23.704740948189624,198.13717580818215
24.704940988197677,271.6188054824086
26.70534106821367,196.0602995101321
29.705941188237603,250.163641736212
32.506501300260084,233.67391344423538
38.70774154830963,179.71282314116647
40.70814162832562,195.96695492703785
41.90838167633524,182.24954123078373
43.70874174834967,256.51198943126894
49.709941988397645,220.47474247971041
50.310062012402454,145.98738270124545
54.31086217243444,246.75438999212457
54.710942188437684,161.25092448100222
55.9111822364473,184.92311760161405
59.71194238847772,185.87292760388883
61.31226245249047,219.3171310635834
63.912782556511274,202.93698043276464
64.31286257251452,184.59837975044496
75.11502300460097,215.97962484160377
76.51530306061215,198.0514856082359
77.31546309261853,227.40146830880082
77.31546309261853,145.27511849063825
78.1156231246249,218.8829132719931
80.51610322064414,133.78733630590068
84.91698339667937,214.4033496104166
87.9175835167033,116.72283975402792
88.71774354870979,139.7946515873147
89.51790358071617,129.97307143773295
90.31806361272254,207.5395533973255
93.9187837567514,210.0334972776492
95.31906381276258,194.87028659293333
95.51910382076414,112.74238423054712
96.31926385277052,157.24248973133874
101.92038407681537,163.97539551689238
102.52050410082018,203.68252215000484
108.9217843568714,153.54556686823634
109.52190438087621,201.58429894869877
110.52210442088415,123.19488070751217
113.12262452490495,110.85476506675006
114.122824564913,94.77319407261564
114.72294458891781,166.1261419771067
115.72314462892575,141.96133140285644
118.7237447489498,201.4394184663974
119.72394478895785,194.77281210929218
121.12422484496904,192.59839555155483
122.12442488497697,136.71836418339655
124.92498499699946,112.39944020678082
125.72514502900583,204.5614018877077
126.12522504500896,200.48937529540885
128.92578515703144,173.61345246245983
129.92598519703938,108.31526629311577
132.12642528505705,100.17236639909456
133.126625325065,106.2879237768208
136.52730546109217,144.6375641738529
139.72794558911778,141.84258306836642
142.9285857171434,195.19543123023612
146.32926585317068,137.20009296564993
146.9293858771755,203.1716144244351
148.92978595719148,102.2347544701386
150.1300260052011,147.31201175393255
153.73074614922984,190.79576552755447
154.53090618123622,146.46310593194664
156.33126625325065,118.04259522864945
157.3314662932587,124.4787103541191
158.33166633326664,187.5044762879892
158.33166633326664,116.6317335613748
158.5317063412682,152.4057830700892
158.93178635727145,130.19105236038396
164.73294658931786,181.31872196174254
167.33346669333866,204.57130778724573
174.13482696539313,131.32862351134355
182.53650730146035,177.24702868998094
183.73674734946985,177.79516999072447
184.53690738147634,158.59029188064898
186.53730746149233,198.96623946469876
186.7373474694939,192.54734941689398
187.93758751750352,204.8148732689578
188.33766753350676,116.32121467413269
189.13782756551313,154.64440194798607
193.53870774154836,161.9152074240279
198.93978795759153,98.18600093351205
202.94058811762352,120.94682427926865
203.34066813362676,170.04364092184005
203.54070814162833,163.89860295341947
203.94078815763157,153.05347232753036
204.9409881976395,198.17867926148213
205.1410282056412,146.1063193544049
205.54110822164432,108.92999600227613
207.54150830166031,145.49129128456775
209.741948389678,158.9083686511416
211.94238847769554,122.07267805398274
214.54290858171635,176.66203463532014
221.3442688537708,172.70354691359472
227.54550910182036,149.5500020698179
227.54550910182036,169.48042562601466
227.54550910182036,135.72220657836013
230.34606921384272,154.38180605719066
231.54630926185234,169.96711115949145
235.747149429886,107.40598516545066
238.14762952590524,117.1079130197414
239.54790958191643,100.58098215695736
241.14822964592918,189.99788496479817
242.74854970994204,161.75114430984434
249.5499099819964,126.39804621807497
251.15023004600926,126.18356001910192
251.75035007001406,137.87415807451234
254.1508301660332,124.67654882657781
256.1512302460492,183.17887690702196
256.95139027805567,127.8916104008779
257.55151030206036,143.7518742608955
258.1516303260652,126.74615466002952
261.1522304460892,117.68427500366464
261.3522704540908,168.78538560981045
267.3534706941389,161.1261463742119
267.3534706941389,196.76720612229155
268.15363072614525,123.29265424255689
274.15483096619323,192.08753506152235
274.3548709741948,130.1222958579177
274.9549909981996,98.75615143584173
275.35507101420285,190.3930744623499
276.55531106221247,124.09225886040767
280.55611122224445,167.80996780595774
286.7573514702941,127.4157086933717
289.9579915983197,121.63957055332375
290.5581116223244,171.87390831315355
293.3586717343469,186.64164587810006
294.5589117823565,114.93570496616847
298.15963192638526,163.88194190237195
299.55991198239644,167.3439718828218
300.5601120224045,158.24875030806254
301.36027205441087,165.69011650961016
301.9603920784157,184.41573743452432
302.96059211842373,147.6633756785357
304.5609121824365,202.49530231799443
304.9609921984397,165.5042867081181
305.7611522304461,128.56816098426557
308.56171234246847,160.52494835292492
308.76175235047015,108.7029383832145
308.9617923584717,132.43168892526154
309.1618323664733,161.6643765445096
310.76215243048614,191.8029920392959
311.16223244648927,135.30317085198496
311.7623524704941,215.6646749722433
312.3624724944989,181.6654194630889
312.56251250250045,190.19744961364003
312.9625925185037,137.36670652703407
314.7629525905181,124.9937754724113
315.96319263852774,217.1122270147708
318.36367273454687,144.86341675787037
322.56451290258053,123.3916124748117
323.9647929585917,189.23294393016033
324.36487297459496,136.80259415548886
325.16503300660133,227.14510423002457
325.76515303060614,207.11554338630194
330.36607321464294,221.60003810725323
332.7665533106622,131.18542548187025
339.7679535907182,137.58257808966127
340.76815363072615,182.50339560456635
341.1682336467294,233.05608831883484
342.9685937187437,141.49646067360823
344.76895379075813,195.80797493553217
345.36907381476294,147.9204716015286
346.56931386277256,252.3003960084563
346.9693938787758,177.97460427316275
347.96959391878374,214.60528057867083
348.1696339267854,210.0517150984501
348.369673934787,238.07739549551837
352.370474094819,169.98185782147164
355.371074214843,210.20905592939855
356.97139427885577,250.13481335154185
357.17143428685733,228.61970862097982
360.1720344068814,257.42885239842656
362.97259451890375,184.6591051988
363.1726345269054,224.09280666711157
367.373474694939,180.75391116560928
369.7739547909582,235.40322572310762
371.9743948789758,242.09489715940515
374.374874974995,199.14566776871675
378.77575515103024,280.73214012231256
379.17583516703337,220.72122409643086
379.17583516703337,213.47741152653646
380.9761952390478,262.68789389197343
387.377475495099,196.7587289889886
391.9783956791358,261.7019177444093
393.17863572714543,265.5702035135374
393.5787157431487,294.4012532611772
394.97899579915986,247.1207132685658
395.77915583116624,280.0445066014974
398.5797159431886,206.65589038341125
399.3798759751951,198.73753617550153
404.9809961992398,214.37537031048845
406.381276255251,203.94474840931832
407.5815163032606,240.09667663121678
408.5817163432687,280.7416576407196
410.18203640728143,196.8200433499638
413.5827165433087,277.1608419238259
413.7827565513103,275.516985762581
414.18283656731353,249.61519348957094
414.58291658331666,278.9622434555363
416.1832366473295,283.20467787759566
422.9845969193839,255.04374782296605
423.5847169433887,277.00845784623795
424.7849569913983,220.71312705009183
428.38567713542704,233.7993149674784
428.7857571514303,230.32896243773783
428.98579715943185,294.4027284730356
430.5861172234447,232.2555388628445
435.1870374074815,263.67150617017035
436.18723744748957,256.0536329066045
436.78735747149426,226.0315339380508
438.5877175435087,263.8341802257582
441.7883576715343,225.65211172696016
442.5885177035407,264.75671992689064
444.78895779155835,242.89607836801304
450.3900780156031,225.3003861268676
450.3900780156031,249.6001343776655
452.1904380876175,241.58029842287675
454.7909581916383,203.24445077416158
456.7913582716543,214.79344678101805
458.59171834366873,278.4606347259885
459.3918783756751,267.535243496577
461.3922784556911,231.2911332777068
467.1934386877375,200.92241073468767
468.19363872774557,217.75324392813542
468.99379875975194,229.7348079349844
470.99419883976793,238.65255486937738
471.994398879776,237.46185691950825
471.994398879776,249.55452884981634
473.7947589517904,230.7367282803266
474.19483896779354,278.6758155564997
478.5957191438288,214.84264782665346
480.79615923184633,250.63095563899324
483.5967193438688,217.02628573677805
484.1968393678736,232.50107055632017
485.39707941588324,206.8324995081838
485.79715943188637,293.3602049842494
487.99759951990404,217.7352710044678
489.79795959191836,260.7183728972298
491.3982796559312,296.1715508393597
492.7985597119424,249.87184320898578
493.19863972794565,242.90187451807196
498.7997599519904,232.39182346596593
499.59991998399676,282.4859228396349
