predict,predictor
-500.0,609.071815153175
-496.1992398479696,630.7315724135558
-492.7985597119424,362.82177886691136
-489.79795959191836,613.5742968436685
-488.997799559912,528.4916635180005
-483.7967593518704,362.22117874536985
-482.59651930386076,577.7535902637279
-482.1964392878576,407.2386040465189
-481.1962392478496,356.23541673493907
-476.39527905581116,415.0790210517956
-476.19523904780954,501.4408138285532
-475.79515903180635,414.9853811021856
-474.79495899179835,347.0253482128249
-474.39487897579517,518.0954112275542
-473.994798959792,434.2174883685068
-470.99419883976793,562.5698913272075
-468.7937587517504,621.2233427101405
-466.59331866373276,443.28131403256873
-464.79295859171833,336.2857033883483
-462.39247849569915,485.3706468890998
-461.9923984796959,429.26282805091535
-460.79215843168635,503.73469080213056
-460.5921184236847,600.109026407209
-459.9919983996799,458.5495126730905
-454.3908781756351,329.99371433003245
-446.3892778555711,562.0789239250548
-446.18923784756953,536.4188815799586
-439.1878375675135,527.3974251694403
-435.3870774154831,564.8705722306458
-433.9867973594719,536.4014124806633
-433.9867973594719,366.07251510030403
-430.1860372074415,374.6286648108309
-429.3858771754351,478.2434336189104
-427.58551710342067,375.64151555884297
-426.98539707941586,467.162820709268
-425.7851570314063,562.3204405893301
-424.5849169833967,300.2073068439592
-421.18423684736945,511.3023797989174
-416.7833566713343,346.3720229989014
-415.98319663932784,535.5221544187285
-415.58311662332466,333.69104866119505
-414.3828765753151,425.2221205945609
-412.1824364872975,262.82209034963097
-409.38187637527506,290.91713458786165
-408.98179635927187,378.4414411964821
-406.9813962792558,519.1627423338562
-406.18123624724944,306.32141856590647
-404.9809961992398,555.3582527986405
-402.380476095219,323.9516440885085
-401.7803560712142,510.94899497807626
-401.58031606321265,389.2609685113853
-401.380276055211,432.980642834713
-397.57951590318066,430.00177572138153
-395.9791958391678,503.64730988222107
-394.17883576715343,422.46388433118966
-392.17843568713744,352.7839180248741
-385.377075415083,506.8078523214347
-380.376075215043,514.9203523610522
-374.374874974995,315.88966653709014
-372.1744348869774,225.92450128417624
-366.9733946789358,292.4532734742229
-364.97299459891974,472.141356223428
-361.57231446289256,456.7544107205144
-357.37147429485896,298.2421794225549
-356.7713542708542,243.76106462459853
-355.5711142228446,371.9535668435478
-351.97039407881573,297.9275434832717
-347.56951390278056,333.238181417658
-346.36927385477094,332.9847998300795
-346.1692338467693,220.98279955474482
-345.56911382276456,405.0838193825583
-344.1688337667533,192.62829882844161
-342.36847369473895,209.20677220233915
-341.36827365473096,472.5098206005323
-340.5681136227246,264.97468974264257
-335.56711342268454,360.9056807273646
-333.3666733346669,397.0118098154947
-333.3666733346669,407.3994454052032
-331.7663532706541,254.60390349449887
-331.56631326265256,199.09208936003085
-331.36627325465093,293.0607766638426
-328.5657131426285,393.5256858807473
-324.1648329665933,171.38359828491937
-324.1648329665933,409.7682837129564
-324.1648329665933,293.8353591558392
-323.3646729345869,468.24499940442297
-320.7641528305661,206.29551422095076
-316.1632326465293,329.3999402816986
-315.76315263052606,382.04305730052226
-314.9629925985197,191.88016363881917
-311.3622724544909,395.1716685964167
-309.5619123824765,185.8586168455093
-304.76095219043805,393.7712627912225
-304.76095219043805,256.3286585225259
-301.9603920784157,273.13872447310115
-301.36027205441087,159.0088762436477
-301.36027205441087,421.1298617079274
-301.1602320464093,379.798893226657
-299.3598719743949,339.67484337567294
-297.7595519103821,274.00163768151475
-294.95899179835965,319.523541271352
-294.1588317663533,401.29326647318715
-291.55831166233247,395.70064322347895
-290.95819163832766,321.4487936969485
-290.5581116223245,228.29117188046422
-289.95799159831967,441.3568511793995
-287.5575115023005,220.931535860468
-285.75715143028606,193.89433371862907
-285.3570714142828,140.9088344471626
-283.3566713342668,370.5029255249468
-281.55631126225245,203.42573318029292
-274.9549909981996,347.42690572749075
-273.5547109421884,426.746504205457
-272.9545909181836,251.56641451539426
-270.55411082216443,243.63405583440124
-270.3540708141628,164.29699106952467
-268.15363072614525,301.94046678941345
-265.9531906381276,404.4484208273262
-263.75275055011,408.904421116358
-263.55271054210846,239.38665019505697
-262.35247049409884,413.3324150657798
-261.1522304460892,314.47889683238105
-255.5511102220444,146.31650162452917
-253.9507901580316,185.20943473566848
-253.9507901580316,108.01376446695491
-252.5505101020204,207.00811881034164
-240.14802960592118,311.06386853963534
-237.1474294858972,240.11343222842
-233.74674934986996,305.7103719654642
-229.54590918183635,173.05115468520543
-228.54570914182835,106.75861049268013
-225.14502900580118,227.5150646728292
-224.54490898179637,274.7507895935141
-224.34486897379475,76.34927891455854
-223.14462892578513,101.75652257955737
-221.74434886977394,122.081699354643
-220.34406881376276,337.2868154567966
-216.74334866973396,166.66153052486825
-216.14322864572915,278.30210811463604
-215.94318863772753,216.76463834820953
-214.54290858171635,114.70395604515018
-212.94258851770354,174.21530406237653
-212.74254850970192,235.82666589179377
-210.94218843768755,113.832381438203
-210.54210842168436,88.26447610125763
-210.34206841368274,305.31294401217923
-210.14202840568112,274.46065063867593
-207.74154830966194,165.26545126902496
-201.94038807761552,177.19935556690805
-194.33886777355468,325.1815026740592
-193.13862772554512,135.65918119354157
-191.9383876775355,315.02687937827903
-182.33646729345867,183.56485222467398
-181.93638727745548,340.98424162732215
-177.13542708541706,121.17048332463565
-176.73534706941388,143.39492803866676
-175.3350670134027,225.063798300109
-175.3350670134027,79.6927750950187
-175.13502700540107,102.74715013681302
-172.53450690138027,79.46142125313168
-170.53410682136428,181.04325018483573
-169.53390678135628,303.4261658364156
-168.93378675735147,174.30709894715562
-164.13282656531305,261.2899795698823
-160.13202640528107,269.2384327152794
-157.93158631726345,331.35263675666766
-154.93098619723946,283.68247706660503
-154.53090618123622,263.6225137394305
-153.33066613322666,315.95425984051394
-150.13002600520105,311.0139845863896
-148.32966593318662,116.44647539952433
-146.32926585317063,180.90163556593052
-144.52890578115625,70.15905957895777
-136.12722544508904,302.3492971037582
-135.3270654130826,292.17180731327056
-134.92698539707942,350.14566724532676
-133.92678535707142,77.46022352073675
-133.52670534106824,81.73861375007944
-129.5259051810362,84.11013597406816
-129.5259051810362,318.6546046948042
-128.5257051410282,178.07352684097427
-127.5255051010202,308.4212353598646
-122.9245849169834,97.95831069928172
-122.72454490898178,188.70255725028665
-118.32366473294661,310.2912169540385
-117.7235447089418,254.40450701284706
-115.92318463692737,172.1940065727308
-114.72294458891776,274.6311918306493
-110.72214442888577,328.5103153975858
-110.72214442888577,332.4268435768108
-109.52190438087615,208.23958877156883
-108.12162432486497,278.3743065378638
-106.52130426085216,131.1651378507323
-104.32086417283455,69.8268971137966
-102.52050410082018,292.0343926325578
-101.32026405281056,201.11087593832985
-99.71994398879775,230.75244158823872
-99.71994398879775,107.59444380092947
-98.91978395679138,199.30620331516602
-97.31946389277857,302.2857767842057
-96.31926385277058,161.53244277087686
-93.51870374074815,295.7167147715176
-91.51830366073216,142.37695194593152
-91.31826365273054,62.576255862352525
-91.31826365273054,57.35209089751535
-90.51810362072416,170.26563058125785
-88.51770354070811,74.9637561885143
-86.31726345269055,63.59696702605336
-82.31646329265851,169.10920734548944
-79.31586317263452,270.21670605875374
-78.31566313262653,110.75380837722062
-77.1154230846169,126.43959500377261
-75.91518303660729,258.7219658109448
-75.5151030206041,73.65453377404428
-73.31466293258649,166.4575702971325
-72.11442288457692,100.08341262415591
-63.912782556511274,281.4269832510481
-63.51270254050809,170.50521121675555
-62.51250250050009,324.238326548815
-62.31246249249847,88.02395047895253
-61.712342468493716,292.4005085518648
-59.71194238847767,254.9564770975941
-53.11062212442488,160.4392666114399
-50.51010202040408,86.51236264372919
-44.308861772354476,162.9135232862795
-42.30846169233848,227.9229418761505
-39.30786157231444,107.58687355523467
-38.90778155631125,275.65347525637407
-37.10742148429688,100.73353197996943
-35.50710142028407,246.37129222280714
-33.90678135627127,204.20154606861897
-27.90558111622323,182.0405920469705
-27.305461092218422,314.2127460380366
-26.705341068213613,119.89742776853497
-19.703940788157638,69.37706378179888
-18.50370074014802,241.09533973196133
-14.902980596119221,92.96946911770706
-12.702540508101606,344.150971742569
-8.901780356071185,84.3884216544016
-4.500900180036012,281.3139751666573
-0.3000600120024046,186.44531949518162
3.500700140028016,288.23750583440614
7.701540308061624,207.33831061950758
8.301660332066433,274.260560248111
8.901780356071242,144.66911950369885
10.102020404080804,166.7221212057988
10.102020404080804,257.6605491849734
10.302060412082426,335.8866348740272
11.902380476095232,115.08845625019073
12.302460492098476,277.0239525195826
13.50270054010798,310.82508151514077
13.70274054810966,233.00637742161388
16.90338067613527,172.95282069338694
16.90338067613527,286.1111974552732
18.10362072414489,209.82961872549845
20.504100820164012,167.89467627080867
22.704540908181684,256.9466924212967
23.704740948189624,187.09554570835328
24.704940988197677,129.34149165375015
26.70534106821367,342.5497596870798
29.705941188237603,63.45613477496698
32.506501300260084,224.20789012513268
38.70774154830963,76.57077216745353
40.70814162832562,108.02922161236182
41.90838167633524,143.03356257947843
43.70874174834967,330.48097468711785
49.709941988397645,260.1155502357577
50.310062012402454,155.77389963509222
54.31086217243444,92.07495090458109
54.710942188437684,197.20800552386677
55.9111822364473,345.40894007598
59.71194238847772,330.81361434859184
61.31226245249047,116.83578817990443
63.912782556511274,224.06477433822516
64.31286257251452,343.71250710396475
75.11502300460097,332.6094895903537
76.51530306061215,96.30854588384092
77.31546309261853,107.36647726078668
77.31546309261853,178.540893376951
78.1156231246249,207.52518240899872
80.51610322064414,143.51542664062018
84.91698339667937,115.08299016529405
87.9175835167033,319.8875949584399
88.71774354870979,184.18259740341045
89.51790358071617,199.68693494643514
90.31806361272254,127.32564156313647
93.9187837567514,53.60351509439562
95.31906381276258,208.2429497969633
95.51910382076414,303.94110828621046
96.31926385277052,193.48084030379005
101.92038407681537,336.41654694884585
102.52050410082018,233.0848156691373
108.9217843568714,67.73257023074473
109.52190438087621,71.35836027423983
110.52210442088415,217.37662889449794
113.12262452490495,118.1344356906747
114.122824564913,108.97453935563784
114.72294458891781,354.71704760766437
115.72314462892575,224.32911546302225
118.7237447489498,82.39681021088133
119.72394478895785,123.05095227613971
121.12422484496904,348.0904480575957
122.12442488497697,155.93351521445834
124.92498499699946,218.07463040157015
125.72514502900583,134.81069959391698
126.12522504500896,247.52749253839457
128.92578515703144,86.92265548772858
129.92598519703938,279.32444031688686
132.12642528505705,210.96584504932542
133.126625325065,226.72130154223728
136.52730546109217,280.6021214308456
139.72794558911778,315.5731351237071
142.9285857171434,58.650499487321326
146.32926585317068,174.96724837319329
146.9293858771755,133.69062294897597
148.92978595719148,255.04341222414752
150.1300260052011,110.00291280876974
153.73074614922984,92.5748287436453
154.53090618123622,198.65829351577014
156.33126625325065,298.87645769845574
157.3314662932587,163.1515031638933
158.33166633326664,156.964918170905
158.33166633326664,296.2299852647403
158.5317063412682,190.28019501435847
158.93178635727145,321.1257524656145
164.73294658931786,192.4464937209017
167.33346669333866,194.14298968989334
174.13482696539313,151.13415496727453
182.53650730146035,298.12358920345997
183.73674734946985,204.60280492817017
184.53690738147634,135.8174540040678
186.53730746149233,297.85775503120175
186.7373474694939,232.75040857345377
187.93758751750352,311.9100399946105
188.33766753350676,205.22218413107865
189.13782756551313,283.2896377340417
193.53870774154836,111.31350737068483
198.93978795759153,323.5061252568972
202.94058811762352,306.54817476163805
203.34066813362676,105.64811701730272
203.54070814162833,286.7763037159434
203.94078815763157,261.29496824810707
204.9409881976395,322.077294514355
205.1410282056412,92.44300205609942
205.54110822164432,226.6002548667173
207.54150830166031,270.98983491760305
209.741948389678,135.60956638996427
211.94238847769554,120.87667493975293
214.54290858171635,152.85456954888144
221.3442688537708,272.81755655865015
227.54550910182036,295.6799911848214
227.54550910182036,295.54541873172775
227.54550910182036,75.14492699037194
230.34606921384272,268.65661059831166
231.54630926185234,152.24632087235327
235.747149429886,215.82779473884312
238.14762952590524,275.66631777587963
239.54790958191643,274.475155316672
241.14822964592918,-24.82561230149082
242.74854970994204,123.60607455853693
249.5499099819964,244.1278839341542
251.15023004600926,-30.144777424369025
251.75035007001406,70.51161304879713
254.1508301660332,23.94528991405882
256.1512302460492,-47.82559249305828
256.95139027805567,96.92717611003278
257.55151030206036,27.83230006608089
258.1516303260652,219.80139169431905
261.1522304460892,59.96524028871176
261.3522704540908,29.77479816817238
267.3534706941389,117.14501228970425
267.3534706941389,150.3040802715789
268.15363072614525,18.742251368860515
274.15483096619323,17.068349175895968
274.3548709741948,-91.64170998567525
274.9549909981996,130.6192974061413
275.35507101420285,-21.769366818337403
276.55531106221247,55.67036711934846
280.55611122224445,155.7122230088924
286.7573514702941,86.66390260312875
289.9579915983197,57.55369518492568
290.5581116223244,-15.315793609500574
293.3586717343469,0.8380511387922418
294.5589117823565,-109.41058786741452
298.15963192638526,-3.3700813034511237
299.55991198239644,-103.36159323134038
300.5601120224045,115.66715245152768
301.36027205441087,-60.54854358027173
301.9603920784157,-117.16814847745145
302.96059211842373,-1.8015330915940835
304.5609121824365,-125.97569190215567
304.9609921984397,3.7904184618624495
305.7611522304461,31.006857710337172
308.56171234246847,-92.58295836442674
308.76175235047015,45.5013455539488
308.9617923584717,-49.77810691422701
309.1618323664733,-151.96087606323613
310.76215243048614,-1.2275746462263832
311.16223244648927,-77.16609533812903
311.7623524704941,-144.72088910886617
312.3624724944989,-137.0368085987822
312.56251250250045,-148.8373996030798
312.9625925185037,9.825407053022097
314.7629525905181,3.2350871688451477
315.96319263852774,-170.21401197993924
318.36367273454687,-113.51914705073858
322.56451290258053,-147.94541932497873
323.9647929585917,40.85657647534647
324.36487297459496,81.5140126999218
325.16503300660133,-31.56200979938774
325.76515303060614,-107.80211490097882
330.36607321464294,-69.41861552096492
332.7665533106622,-34.03878753852591
339.7679535907182,17.840708364856454
340.76815363072615,-139.4947028914099
341.1682336467294,-26.09740736761725
342.9685937187437,-55.14366478457359
344.76895379075813,-74.4250482112916
345.36907381476294,-213.3746411764291
346.56931386277256,-15.634767215924768
346.9693938787758,-11.73614620476124
347.96959391878374,-160.87731862283698
348.1696339267854,-69.21971181506558
348.369673934787,-112.4875108708738
352.370474094819,-113.86139439795143
355.371074214843,-24.81822837487914
356.97139427885577,-254.4179466287401
357.17143428685733,-39.61746196503161
360.1720344068814,-133.90672976197993
362.97259451890375,-71.88591734719112
363.1726345269054,-86.89562998430293
367.373474694939,-148.96570259232251
369.7739547909582,-34.1008399907204
371.9743948789758,-207.9937613331104
374.374874974995,-192.40028651198645
378.77575515103024,-179.42781412264122
379.17583516703337,-271.77391165711407
379.17583516703337,-167.89229887937205
380.9761952390478,-141.67303170703283
387.377475495099,-164.27648051344318
391.9783956791358,-205.9818675708344
393.17863572714543,-331.0558219270447
393.5787157431487,-212.05655558453105
394.97899579915986,-279.0486627253969
395.77915583116624,-327.0081645319102
398.5797159431886,-300.4585699653313
399.3798759751951,-287.45024943977035
404.9809961992398,-134.99166566191616
406.381276255251,-110.9217910428262
407.5815163032606,-247.44696970845416
408.5817163432687,-215.0490474360823
410.18203640728143,-117.23205829088258
413.5827165433087,-94.67498522239265
413.7827565513103,-169.59592876185678
414.18283656731353,-19.036256965018893
414.58291658331666,-135.46887574455525
416.1832366473295,20.212069417213655
422.9845969193839,-164.3761557868263
423.5847169433887,-74.27749236466772
424.7849569913983,-152.64627273473207
428.38567713542704,-124.21697215270117
428.7857571514303,62.10731208596506
428.98579715943185,16.99435211837708
430.5861172234447,-10.173207927998149
435.1870374074815,7.673706845216486
436.18723744748957,-97.92902403276946
436.78735747149426,-45.04558940686937
438.5877175435087,64.98629969730341
441.7883576715343,-115.48094988763087
442.5885177035407,98.96016074794959
444.78895779155835,161.7133921594175
450.3900780156031,-19.330348112561524
450.3900780156031,6.1089213492178445
452.1904380876175,67.52309264783247
454.7909581916383,124.45068956561062
456.7913582716543,192.37533781411003
458.59171834366873,159.34974556117146
459.3918783756751,-20.828548379969178
461.3922784556911,61.66362522963502
467.1934386877375,107.09051081875404
468.19363872774557,114.59667751020713
468.99379875975194,43.55362874125541
470.99419883976793,105.2324372361319
471.994398879776,165.25677526713613
471.994398879776,132.29099537650967
473.7947589517904,211.61164059995752
474.19483896779354,272.60366582301964
478.5957191438288,232.79470467831118
480.79615923184633,63.11071462962494
483.5967193438688,268.75916357506446
484.1968393678736,347.23594409726394
485.39707941588324,373.47298142192335
485.79715943188637,341.3275493154349
487.99759951990404,170.6170868206371
489.79795959191836,297.6743766221798
491.3982796559312,106.79016116137666
492.7985597119424,391.53452824277304
493.19863972794565,299.0831635772849
498.7997599519904,378.3138875206632
499.59991998399676,299.86760453557133
